%!PS-Adobe-3.0 EPSF-3.0
%%Creator: cairo 1.17.3 (https://cairographics.org)
%%CreationDate: Mon Oct 21 13:03:30 2019
%%Pages: 1
%%DocumentData: Clean7Bit
%%LanguageLevel: 2
%%BoundingBox: 1 0 785 895
%%EndComments
%%BeginProlog
50 dict begin
/q { gsave } bind def
/Q { grestore } bind def
/cm { 6 array astore concat } bind def
/w { setlinewidth } bind def
/J { setlinecap } bind def
/j { setlinejoin } bind def
/M { setmiterlimit } bind def
/d { setdash } bind def
/m { moveto } bind def
/l { lineto } bind def
/c { curveto } bind def
/h { closepath } bind def
/re { exch dup neg 3 1 roll 5 3 roll moveto 0 rlineto
      0 exch rlineto 0 rlineto closepath } bind def
/S { stroke } bind def
/f { fill } bind def
/f* { eofill } bind def
/n { newpath } bind def
/W { clip } bind def
/W* { eoclip } bind def
/BT { } bind def
/ET { } bind def
/BDC { mark 3 1 roll /BDC pdfmark } bind def
/EMC { mark /EMC pdfmark } bind def
/cairo_store_point { /cairo_point_y exch def /cairo_point_x exch def } def
/Tj { show currentpoint cairo_store_point } bind def
/TJ {
  {
    dup
    type /stringtype eq
    { show } { -0.001 mul 0 cairo_font_matrix dtransform rmoveto } ifelse
  } forall
  currentpoint cairo_store_point
} bind def
/cairo_selectfont { cairo_font_matrix aload pop pop pop 0 0 6 array astore
    cairo_font exch selectfont cairo_point_x cairo_point_y moveto } bind def
/Tf { pop /cairo_font exch def /cairo_font_matrix where
      { pop cairo_selectfont } if } bind def
/Td { matrix translate cairo_font_matrix matrix concatmatrix dup
      /cairo_font_matrix exch def dup 4 get exch 5 get cairo_store_point
      /cairo_font where { pop cairo_selectfont } if } bind def
/Tm { 2 copy 8 2 roll 6 array astore /cairo_font_matrix exch def
      cairo_store_point /cairo_font where { pop cairo_selectfont } if } bind def
/g { setgray } bind def
/rg { setrgbcolor } bind def
/d1 { setcachedevice } bind def
/cairo_data_source {
  CairoDataIndex CairoData length lt
    { CairoData CairoDataIndex get /CairoDataIndex CairoDataIndex 1 add def }
    { () } ifelse
} def
/cairo_flush_ascii85_file { cairo_ascii85_file status { cairo_ascii85_file flushfile } if } def
/cairo_image { image cairo_flush_ascii85_file } def
/cairo_imagemask { imagemask cairo_flush_ascii85_file } def
%%EndProlog
%%BeginSetup
%%EndSetup
%%Page: 1 1
%%BeginPageSetup
%%PageBoundingBox: 1 0 785 895
%%EndPageSetup
q 1 0 784 895 rectclip
1 0 0 -1 0 900 cm q
0.627451 g
0.974755 w
0 J
0 j
[] 0.0 d
4 M q 1 0 0 1 0 0 cm
107.199 98.164 m 107.199 899.324 107.199 900.602 107.199 900.602 c S Q
q 1 0 0 1 0 0 cm
202.727 98.164 m 202.727 899.324 202.727 900.602 202.727 900.602 c S Q
q 1 0 0 1 0 0 cm
300.203 98.164 m 300.203 899.324 300.203 900.602 300.203 900.602 c S Q
q 1 0 0 1 0 0 cm
397.68 98.164 m 397.68 899.324 397.68 900.602 397.68 900.602 c S Q
q 1 0 0 1 0 0 cm
497.102 98.164 m 497.102 899.324 497.102 900.602 497.102 900.602 c S Q
q 1 0 0 1 0 0 cm
596.527 98.164 m 596.527 899.324 596.527 900.602 596.527 900.602 c S Q
q 1 0 0 1 0 0 cm
1.145 211.883 m 693.695 211.883 693.695 211.883 693.695 211.883 c S Q
q 1 0 0 1 0 0 cm
1.145 326.906 m 693.695 326.906 693.695 326.906 693.695 326.906 c S Q
q 1 0 0 1 0 0 cm
1.145 441.926 m 693.695 441.926 693.695 441.926 693.695 441.926 c S Q
q 1 0 0 1 0 0 cm
1.145 556.945 m 693.695 556.945 693.695 556.945 693.695 556.945 c S Q
q 1 0 0 1 0 0 cm
1.145 670.02 m 693.695 670.02 693.695 670.02 693.695 670.02 c S Q
q 1 0 0 1 0 0 cm
1.145 783.09 m 693.695 783.09 693.695 783.09 693.695 783.09 c S Q
q 1 0 0 1 0 0 cm
1.145 783.09 m 693.695 783.09 693.695 783.09 693.695 783.09 c S Q
0 g
91.867 160.234 m 91.867 165.527 87.574 169.82 82.285 169.82 c 76.996 169.82
 72.699 165.527 72.699 160.234 c 72.699 154.945 76.996 150.652 82.285 150.652
 c 87.574 150.652 91.867 154.945 91.867 160.234 c h
91.867 160.234 m f
162.145 211.246 m 162.145 216.535 157.852 220.828 152.562 220.828 c 147.273
 220.828 142.977 216.535 142.977 211.246 c 142.977 205.953 147.273 201.66
 152.562 201.66 c 157.852 201.66 162.145 205.953 162.145 211.246 c h
162.145 211.246 m f
579.977 156.301 m 579.977 161.59 575.684 165.883 570.391 165.883 c 565.102
 165.883 560.809 161.59 560.809 156.301 c 560.809 151.012 565.102 146.719
 570.391 146.719 c 575.684 146.719 579.977 151.012 579.977 156.301 c h
579.977 156.301 m f
530.141 267.465 m 530.141 272.758 525.848 277.051 520.559 277.051 c 515.27
 277.051 510.977 272.758 510.977 267.465 c 510.977 262.176 515.27 257.883
 520.559 257.883 c 525.848 257.883 530.141 262.176 530.141 267.465 c h
530.141 267.465 m f
458.586 326.242 m 458.586 331.535 454.293 335.828 449.004 335.828 c 443.715
 335.828 439.422 331.535 439.422 326.242 c 439.422 320.953 443.715 316.66
 449.004 316.66 c 454.293 316.66 458.586 320.953 458.586 326.242 c h
458.586 326.242 m f
629.809 382.465 m 629.809 387.754 625.516 392.051 620.227 392.051 c 614.934
 392.051 610.641 387.754 610.641 382.465 c 610.641 377.176 614.934 372.883
 620.227 372.883 c 625.516 372.883 629.809 377.176 629.809 382.465 c h
629.809 382.465 m f
459.863 382.465 m 459.863 387.754 455.57 392.051 450.281 392.051 c 444.992
 392.051 440.699 387.754 440.699 382.465 c 440.699 377.176 444.992 372.883
 450.281 372.883 c 455.57 372.883 459.863 377.176 459.863 382.465 c h
459.863 382.465 m f
605.531 442.52 m 605.531 447.812 601.238 452.105 595.949 452.105 c 590.656
 452.105 586.363 447.812 586.363 442.52 c 586.363 437.23 590.656 432.938
 595.949 432.938 c 601.238 432.938 605.531 437.23 605.531 442.52 c h
605.531 442.52 m f
508.422 441.242 m 508.422 446.531 504.129 450.828 498.836 450.828 c 493.547
 450.828 489.254 446.531 489.254 441.242 c 489.254 435.953 493.547 431.66
 498.836 431.66 c 504.129 431.66 508.422 435.953 508.422 441.242 c h
508.422 441.242 m f
361.477 493.633 m 361.477 498.922 357.184 503.215 351.895 503.215 c 346.605
 503.215 342.309 498.922 342.309 493.633 c 342.309 488.34 346.605 484.047
 351.895 484.047 c 357.184 484.047 361.477 488.34 361.477 493.633 c h
361.477 493.633 m f
410.031 611.188 m 410.031 616.477 405.738 620.77 400.449 620.77 c 395.16
 620.77 390.867 616.477 390.867 611.188 c 390.867 605.895 395.16 601.602
 400.449 601.602 c 405.738 601.602 410.031 605.895 410.031 611.188 c h
410.031 611.188 m f
507.141 668.688 m 507.141 673.977 502.848 678.27 497.559 678.27 c 492.27
 678.27 487.977 673.977 487.977 668.688 c 487.977 663.395 492.27 659.102
 497.559 659.102 c 502.848 659.102 507.141 663.395 507.141 668.688 c h
507.141 668.688 m f
335.922 782.406 m 335.922 787.699 331.629 791.992 326.34 791.992 c 321.047
 791.992 316.754 787.699 316.754 782.406 c 316.754 777.117 321.047 772.824
 326.34 772.824 c 331.629 772.824 335.922 777.117 335.922 782.406 c h
335.922 782.406 m f
308.758 6.371 m 318.559 6.371 l 318.559 8.312 l 311.062 8.312 l 311.062
 13.34 l 317.824 13.34 l 317.824 15.281 l 311.062 15.281 l 311.062 23.426
 l 308.758 23.426 l 308.758 6.371 l 324.43 21.484 m 332.48 21.484 l 332.48
 23.426 l 321.652 23.426 l 321.652 21.484 l 322.527 20.578 323.719 19.363
 325.227 17.84 c 326.742 16.309 327.695 15.324 328.082 14.883 c 328.82 14.051
 329.336 13.352 329.625 12.781 c 329.922 12.203 330.07 11.633 330.07 11.078
 c 330.07 10.172 329.75 9.434 329.113 8.863 c 328.48 8.293 327.652 8.004
 326.633 8.004 c 325.91 8.004 325.145 8.133 324.336 8.383 c 323.539 8.633
 322.68 9.016 321.766 9.523 c 321.766 7.195 l 322.695 6.82 323.562 6.539
 324.371 6.348 c 325.18 6.16 325.918 6.062 326.586 6.062 c 328.355 6.062
 329.762 6.504 330.812 7.391 c 331.863 8.273 332.391 9.453 332.391 10.93
 c 332.391 11.629 332.258 12.297 331.988 12.93 c 331.73 13.555 331.254 14.293
 330.562 15.145 c 330.371 15.367 329.766 16.004 328.746 17.062 c 327.727
 18.113 326.285 19.59 324.43 21.484 c 349.535 5.676 m 348.516 7.426 347.758
 9.16 347.262 10.871 c 346.766 12.586 346.52 14.324 346.52 16.082 c 346.52
 17.84 346.766 19.586 347.262 21.312 c 347.766 23.035 348.523 24.766 349.535
 26.512 c 347.707 26.512 l 346.566 24.723 345.711 22.961 345.137 21.234 
c 344.574 19.504 344.293 17.789 344.293 16.082 c 344.293 14.383 344.574 
12.676 345.137 10.953 c 345.703 9.23 346.559 7.473 347.707 5.676 c 349.535
 5.676 l 353.715 6.371 m 356.023 6.371 l 356.023 13.363 l 364.41 13.363 
l 364.41 6.371 l 366.715 6.371 l 366.715 23.426 l 364.41 23.426 l 364.41
 15.305 l 356.023 15.305 l 356.023 23.426 l 353.715 23.426 l 353.715 6.371
 l 370.301 10.633 m 380.285 10.633 l 380.285 12.551 l 372.383 21.746 l 380.285
 21.746 l 380.285 23.426 l 370.016 23.426 l 370.016 21.508 l 377.922 12.312
 l 370.301 12.312 l 370.301 10.633 l 383.176 5.676 m 385.004 5.676 l 386.145
 7.473 387 9.23 387.562 10.953 c 388.133 12.676 388.418 14.383 388.418 16.082
 c 388.418 17.789 388.133 19.504 387.562 21.234 c 387 22.961 386.145 24.723
 385.004 26.512 c 383.176 26.512 l 384.188 24.766 384.941 23.035 385.438
 21.312 c 385.941 19.586 386.191 17.84 386.191 16.082 c 386.191 14.324 385.941
 12.586 385.438 10.871 c 384.941 9.16 384.188 7.426 383.176 5.676 c f
764.371 535.539 m 764.371 525.738 l 766.312 525.738 l 766.312 533.23 l 
771.34 533.23 l 771.34 526.469 l 773.281 526.469 l 773.281 533.23 l 781.426
 533.23 l 781.426 535.539 l 764.371 535.539 l 779.484 521.457 m 779.484 
517.688 l 766.473 517.688 l 767.297 521.785 l 765.195 521.785 l 764.371 
517.707 l 764.371 515.402 l 779.484 515.402 l 779.484 511.633 l 781.426 
511.633 l 781.426 521.457 l 779.484 521.457 l 763.676 494.762 m 765.426 
495.781 767.16 496.539 768.871 497.031 c 770.586 497.527 772.324 497.777
 774.082 497.777 c 775.84 497.777 777.586 497.527 779.312 497.031 c 781.035
 496.531 782.766 495.773 784.512 494.762 c 784.512 496.586 l 782.723 497.73
 780.961 498.586 779.234 499.156 c 777.504 499.723 775.789 500.004 774.082
 500.004 c 772.383 500.004 770.676 499.723 768.953 499.156 c 767.23 498.594
 765.473 497.738 763.676 496.586 c 763.676 494.762 l 764.371 490.578 m 764.371
 488.273 l 771.363 488.273 l 771.363 479.887 l 764.371 479.887 l 764.371
 477.578 l 781.426 477.578 l 781.426 479.887 l 773.305 479.887 l 773.305
 488.273 l 781.426 488.273 l 781.426 490.578 l 764.371 490.578 l 768.633
 473.992 m 768.633 464.008 l 770.551 464.008 l 779.746 471.914 l 779.746
 464.008 l 781.426 464.008 l 781.426 474.277 l 779.508 474.277 l 770.312
 466.375 l 770.312 473.992 l 768.633 473.992 l 763.676 461.121 m 763.676
 459.293 l 765.473 458.148 767.23 457.297 768.953 456.734 c 770.676 456.16
 772.383 455.875 774.082 455.875 c 775.789 455.875 777.504 456.16 779.234
 456.734 c 780.961 457.297 782.723 458.148 784.512 459.293 c 784.512 461.121
 l 782.766 460.105 781.035 459.352 779.312 458.859 c 777.586 458.355 775.84
 458.105 774.082 458.105 c 772.324 458.105 770.586 458.355 768.871 458.859
 c 767.16 459.352 765.426 460.105 763.676 461.121 c f
708.34 111.199 m 716.391 111.199 l 716.391 113.141 l 705.562 113.141 l 
705.562 111.199 l 706.438 110.293 707.633 109.078 709.141 107.555 c 710.652
 106.023 711.605 105.035 711.996 104.594 c 712.734 103.766 713.246 103.062
 713.535 102.492 c 713.832 101.914 713.98 101.348 713.98 100.793 c 713.98
 99.887 713.664 99.145 713.023 98.574 c 712.391 98.004 711.562 97.719 710.543
 97.719 c 709.82 97.719 709.055 97.844 708.246 98.094 c 707.449 98.348 706.59
 98.727 705.676 99.238 c 705.676 96.906 l 706.605 96.535 707.477 96.254 
708.281 96.062 c 709.09 95.871 709.828 95.777 710.496 95.777 c 712.266 95.777
 713.672 96.219 714.723 97.102 c 715.777 97.984 716.301 99.164 716.301 100.645
 c 716.301 101.344 716.168 102.008 715.902 102.641 c 715.641 103.266 715.168
 104.004 714.473 104.859 c 714.281 105.078 713.676 105.719 712.656 106.777
 c 711.637 107.828 710.195 109.301 708.34 111.199 c 726.184 97.605 m 724.992
 97.605 724.098 98.191 723.496 99.363 c 722.902 100.527 722.605 102.285 
722.605 104.629 c 722.605 106.969 722.902 108.723 723.496 109.895 c 724.098
 111.059 724.992 111.645 726.184 111.645 c 727.379 111.645 728.273 111.059
 728.867 109.895 c 729.469 108.723 729.77 106.969 729.77 104.629 c 729.77
 102.285 729.469 100.527 728.867 99.363 c 728.273 98.191 727.379 97.605 
726.184 97.605 c 726.184 95.777 m 728.094 95.777 729.551 96.535 730.559 
98.051 c 731.57 99.559 732.074 101.75 732.074 104.629 c 732.074 107.5 731.57
 109.695 730.559 111.207 c 729.551 112.715 728.094 113.469 726.184 113.469
 c 724.27 113.469 722.809 112.715 721.797 111.207 c 720.789 109.695 720.289
 107.5 720.289 104.629 c 720.289 101.75 720.789 99.559 721.797 98.051 c 
722.809 96.535 724.27 95.777 726.184 95.777 c 741.078 97.605 m 739.891 97.605
 738.996 98.191 738.395 99.363 c 737.797 100.527 737.5 102.285 737.5 104.629
 c 737.5 106.969 737.797 108.723 738.395 109.895 c 738.996 111.059 739.891
 111.645 741.078 111.645 c 742.273 111.645 743.168 111.059 743.762 109.895
 c 744.363 108.723 744.664 106.969 744.664 104.629 c 744.664 102.285 744.363
 100.527 743.762 99.363 c 743.168 98.191 742.273 97.605 741.078 97.605 c
 741.078 95.777 m 742.988 95.777 744.445 96.535 745.453 98.051 c 746.465
 99.559 746.973 101.75 746.973 104.629 c 746.973 107.5 746.465 109.695 745.453
 111.207 c 744.445 112.715 742.988 113.469 741.078 113.469 c 739.164 113.469
 737.703 112.715 736.691 111.207 c 735.684 109.695 735.184 107.5 735.184
 104.629 c 735.184 101.75 735.684 99.559 736.691 98.051 c 737.703 96.535
 739.164 95.777 741.078 95.777 c f
713.344 209.219 m 714.445 209.453 715.309 209.945 715.926 210.691 c 716.547
 211.438 716.859 212.359 716.859 213.457 c 716.859 215.137 716.281 216.441
 715.125 217.363 c 713.965 218.285 712.32 218.746 710.191 218.746 c 709.473
 218.746 708.734 218.672 707.973 218.527 c 707.219 218.391 706.438 218.18
 705.633 217.898 c 705.633 215.672 l 706.273 216.043 706.973 216.328 707.734
 216.516 c 708.496 216.707 709.289 216.801 710.121 216.801 c 711.566 216.801
 712.668 216.516 713.422 215.945 c 714.184 215.375 714.566 214.543 714.566
 213.457 c 714.566 212.449 714.211 211.664 713.504 211.102 c 712.801 210.531
 711.824 210.246 710.566 210.246 c 708.578 210.246 l 708.578 208.348 l 710.656
 208.348 l 711.793 208.348 712.66 208.125 713.262 207.676 c 713.863 207.219
 714.164 206.562 714.164 205.711 c 714.164 204.836 713.852 204.164 713.227
 203.699 c 712.609 203.227 711.723 202.992 710.566 202.992 c 709.934 202.992
 709.258 203.062 708.535 203.199 c 707.809 203.336 707.016 203.547 706.145
 203.836 c 706.145 201.781 l 707.023 201.539 707.84 201.355 708.602 201.234
 c 709.371 201.109 710.094 201.051 710.773 201.051 c 712.523 201.051 713.91
 201.449 714.93 202.25 c 715.949 203.043 716.461 204.117 716.461 205.473
 c 716.461 206.414 716.191 207.215 715.648 207.871 c 715.109 208.516 714.34
 208.965 713.344 209.219 c 726.184 202.879 m 724.992 202.879 724.098 203.465
 723.496 204.637 c 722.902 205.801 722.605 207.559 722.605 209.902 c 722.605
 212.242 722.902 213.996 723.496 215.168 c 724.098 216.336 724.992 216.918
 726.184 216.918 c 727.379 216.918 728.273 216.336 728.867 215.168 c 729.469
 213.996 729.77 212.242 729.77 209.902 c 729.77 207.559 729.469 205.801 
728.867 204.637 c 728.273 203.465 727.379 202.879 726.184 202.879 c 726.184
 201.051 m 728.094 201.051 729.551 201.809 730.559 203.324 c 731.57 204.832
 732.074 207.023 732.074 209.902 c 732.074 212.773 731.57 214.969 730.559
 216.484 c 729.551 217.992 728.094 218.746 726.184 218.746 c 724.27 218.746
 722.809 217.992 721.797 216.484 c 720.789 214.969 720.289 212.773 720.289
 209.902 c 720.289 207.023 720.789 204.832 721.797 203.324 c 722.809 201.809
 724.27 201.051 726.184 201.051 c 741.078 202.879 m 739.891 202.879 738.996
 203.465 738.395 204.637 c 737.797 205.801 737.5 207.559 737.5 209.902 c
 737.5 212.242 737.797 213.996 738.395 215.168 c 738.996 216.336 739.891
 216.918 741.078 216.918 c 742.273 216.918 743.168 216.336 743.762 215.168
 c 744.363 213.996 744.664 212.242 744.664 209.902 c 744.664 207.559 744.363
 205.801 743.762 204.637 c 743.168 203.465 742.273 202.879 741.078 202.879
 c 741.078 201.051 m 742.988 201.051 744.445 201.809 745.453 203.324 c 746.465
 204.832 746.973 207.023 746.973 209.902 c 746.973 212.773 746.465 214.969
 745.453 216.484 c 744.445 217.992 742.988 218.746 741.078 218.746 c 739.164
 218.746 737.703 217.992 736.691 216.484 c 735.684 214.969 735.184 212.773
 735.184 209.902 c 735.184 207.023 735.684 204.832 736.691 203.324 c 737.703
 201.809 739.164 201.051 741.078 201.051 c f
712.691 320.34 m 706.867 329.445 l 712.691 329.445 l 712.691 320.34 l 712.086
 318.328 m 714.988 318.328 l 714.988 329.445 l 717.422 329.445 l 717.422
 331.363 l 714.988 331.363 l 714.988 335.383 l 712.691 335.383 l 712.691
 331.363 l 704.992 331.363 l 704.992 329.137 l 712.086 318.328 l 726.184
 319.848 m 724.992 319.848 724.098 320.434 723.496 321.609 c 722.902 322.773
 722.605 324.527 722.605 326.875 c 722.605 329.211 722.902 330.965 723.496
 332.141 c 724.098 333.305 724.992 333.887 726.184 333.887 c 727.379 333.887
 728.273 333.305 728.867 332.141 c 729.469 330.965 729.77 329.211 729.77
 326.875 c 729.77 324.527 729.469 322.773 728.867 321.609 c 728.273 320.434
 727.379 319.848 726.184 319.848 c 726.184 318.02 m 728.094 318.02 729.551
 318.777 730.559 320.293 c 731.57 321.801 732.074 323.996 732.074 326.875
 c 732.074 329.746 731.57 331.938 730.559 333.453 c 729.551 334.961 728.094
 335.715 726.184 335.715 c 724.27 335.715 722.809 334.961 721.797 333.453
 c 720.789 331.938 720.289 329.746 720.289 326.875 c 720.289 323.996 720.789
 321.801 721.797 320.293 c 722.809 318.777 724.27 318.02 726.184 318.02 
c 741.078 319.848 m 739.891 319.848 738.996 320.434 738.395 321.609 c 737.797
 322.773 737.5 324.527 737.5 326.875 c 737.5 329.211 737.797 330.965 738.395
 332.141 c 738.996 333.305 739.891 333.887 741.078 333.887 c 742.273 333.887
 743.168 333.305 743.762 332.141 c 744.363 330.965 744.664 329.211 744.664
 326.875 c 744.664 324.527 744.363 322.773 743.762 321.609 c 743.168 320.434
 742.273 319.848 741.078 319.848 c 741.078 318.02 m 742.988 318.02 744.445
 318.777 745.453 320.293 c 746.465 321.801 746.973 323.996 746.973 326.875
 c 746.973 329.746 746.465 331.938 745.453 333.453 c 744.445 334.961 742.988
 335.715 741.078 335.715 c 739.164 335.715 737.703 334.961 736.691 333.453
 c 735.684 331.938 735.184 329.746 735.184 326.875 c 735.184 323.996 735.684
 321.801 736.691 320.293 c 737.703 318.777 739.164 318.02 741.078 318.02
 c f
706.375 431.402 m 715.434 431.402 l 715.434 433.344 l 708.488 433.344 l
 708.488 437.523 l 708.824 437.41 709.156 437.324 709.492 437.273 c 709.828
 437.211 710.164 437.18 710.496 437.18 c 712.402 437.18 713.91 437.703 715.023
 438.746 c 716.133 439.789 716.688 441.203 716.688 442.984 c 716.688 444.82
 716.117 446.246 714.977 447.266 c 713.832 448.281 712.223 448.785 710.145
 448.785 c 709.43 448.785 708.695 448.727 707.949 448.605 c 707.211 448.48
 706.445 448.301 705.656 448.055 c 705.656 445.738 l 706.34 446.109 707.047
 446.387 707.781 446.57 c 708.512 446.754 709.285 446.844 710.098 446.844
 c 711.414 446.844 712.457 446.496 713.227 445.805 c 713.996 445.113 714.383
 444.172 714.383 442.984 c 714.383 441.797 713.996 440.855 713.227 440.164
 c 712.457 439.469 711.414 439.121 710.098 439.121 c 709.48 439.121 708.863
 439.191 708.246 439.328 c 707.637 439.465 707.016 439.68 706.375 439.969
 c 706.375 431.402 l 726.184 432.922 m 724.992 432.922 724.098 433.508 723.496
 434.68 c 722.902 435.844 722.605 437.598 722.605 439.945 c 722.605 442.281
 722.902 444.039 723.496 445.211 c 724.098 446.375 724.992 446.957 726.184
 446.957 c 727.379 446.957 728.273 446.375 728.867 445.211 c 729.469 444.039
 729.77 442.281 729.77 439.945 c 729.77 437.598 729.469 435.844 728.867 
434.68 c 728.273 433.508 727.379 432.922 726.184 432.922 c 726.184 431.094
 m 728.094 431.094 729.551 431.852 730.559 433.367 c 731.57 434.875 732.074
 437.066 732.074 439.945 c 732.074 442.816 731.57 445.008 730.559 446.523
 c 729.551 448.031 728.094 448.785 726.184 448.785 c 724.27 448.785 722.809
 448.031 721.797 446.523 c 720.789 445.008 720.289 442.816 720.289 439.945
 c 720.289 437.066 720.789 434.875 721.797 433.367 c 722.809 431.852 724.27
 431.094 726.184 431.094 c 741.078 432.922 m 739.891 432.922 738.996 433.508
 738.395 434.68 c 737.797 435.844 737.5 437.598 737.5 439.945 c 737.5 442.281
 737.797 444.039 738.395 445.211 c 738.996 446.375 739.891 446.957 741.078
 446.957 c 742.273 446.957 743.168 446.375 743.762 445.211 c 744.363 444.039
 744.664 442.281 744.664 439.945 c 744.664 437.598 744.363 435.844 743.762
 434.68 c 743.168 433.508 742.273 432.922 741.078 432.922 c 741.078 431.094
 m 742.988 431.094 744.445 431.852 745.453 433.367 c 746.465 434.875 746.973
 437.066 746.973 439.945 c 746.973 442.816 746.465 445.008 745.453 446.523
 c 744.445 448.031 742.988 448.785 741.078 448.785 c 739.164 448.785 737.703
 448.031 736.691 446.523 c 735.684 445.008 735.184 442.816 735.184 439.945
 c 735.184 437.066 735.684 434.875 736.691 433.367 c 737.703 431.852 739.164
 431.094 741.078 431.094 c f
711.57 555.98 m 710.535 555.98 709.715 556.332 709.105 557.043 c 708.504
 557.75 708.203 558.719 708.203 559.953 c 708.203 561.18 708.504 562.152
 709.105 562.867 c 709.715 563.574 710.535 563.93 711.57 563.93 c 712.609
 563.93 713.426 563.574 714.027 562.867 c 714.637 562.152 714.941 561.18
 714.941 559.953 c 714.941 558.719 714.637 557.75 714.027 557.043 c 713.426
 556.332 712.609 555.98 711.57 555.98 c 716.152 548.75 m 716.152 550.852
 l 715.574 550.574 714.988 550.367 714.395 550.223 c 713.809 550.078 713.223
 550.004 712.645 550.004 c 711.121 550.004 709.957 550.52 709.148 551.547
 c 708.352 552.574 707.895 554.129 707.781 556.207 c 708.23 555.547 708.793
 555.039 709.469 554.688 c 710.148 554.332 710.895 554.152 711.707 554.152
 c 713.422 554.152 714.773 554.672 715.766 555.715 c 716.762 556.754 717.262
 558.164 717.262 559.953 c 717.262 561.707 716.742 563.109 715.707 564.168
 c 714.672 565.227 713.293 565.758 711.57 565.758 c 709.598 565.758 708.09
 565.004 707.047 563.496 c 706.004 561.98 705.484 559.785 705.484 556.914
 c 705.484 554.219 706.125 552.074 707.402 550.473 c 708.684 548.867 710.398
 548.062 712.555 548.062 c 713.133 548.062 713.715 548.121 714.301 548.234
 c 714.895 548.348 715.512 548.52 716.152 548.75 c 726.184 549.891 m 724.992
 549.891 724.098 550.477 723.496 551.648 c 722.902 552.816 722.605 554.57
 722.605 556.914 c 722.605 559.254 722.902 561.008 723.496 562.18 c 724.098
 563.348 724.992 563.93 726.184 563.93 c 727.379 563.93 728.273 563.348 
728.867 562.18 c 729.469 561.008 729.77 559.254 729.77 556.914 c 729.77 
554.57 729.469 552.816 728.867 551.648 c 728.273 550.477 727.379 549.891
 726.184 549.891 c 726.184 548.062 m 728.094 548.062 729.551 548.82 730.559
 550.336 c 731.57 551.844 732.074 554.039 732.074 556.914 c 732.074 559.785
 731.57 561.98 730.559 563.496 c 729.551 565.004 728.094 565.758 726.184
 565.758 c 724.27 565.758 722.809 565.004 721.797 563.496 c 720.789 561.98
 720.289 559.785 720.289 556.914 c 720.289 554.039 720.789 551.844 721.797
 550.336 c 722.809 548.82 724.27 548.062 726.184 548.062 c 741.078 549.891
 m 739.891 549.891 738.996 550.477 738.395 551.648 c 737.797 552.816 737.5
 554.57 737.5 556.914 c 737.5 559.254 737.797 561.008 738.395 562.18 c 738.996
 563.348 739.891 563.93 741.078 563.93 c 742.273 563.93 743.168 563.348 
743.762 562.18 c 744.363 561.008 744.664 559.254 744.664 556.914 c 744.664
 554.57 744.363 552.816 743.762 551.648 c 743.168 550.477 742.273 549.891
 741.078 549.891 c 741.078 548.062 m 742.988 548.062 744.445 548.82 745.453
 550.336 c 746.465 551.844 746.973 554.039 746.973 556.914 c 746.973 559.785
 746.465 561.98 745.453 563.496 c 744.445 565.004 742.988 565.758 741.078
 565.758 c 739.164 565.758 737.703 565.004 736.691 563.496 c 735.684 561.98
 735.184 559.785 735.184 556.914 c 735.184 554.039 735.684 551.844 736.691
 550.336 c 737.703 548.82 739.164 548.062 741.078 548.062 c f
705.77 661.441 m 716.734 661.441 l 716.734 662.426 l 710.543 678.496 l 
708.133 678.496 l 713.961 663.387 l 705.77 663.387 l 705.77 661.441 l 726.184
 662.961 m 724.992 662.961 724.098 663.547 723.496 664.723 c 722.902 665.887
 722.605 667.641 722.605 669.988 c 722.605 672.324 722.902 674.082 723.496
 675.254 c 724.098 676.418 724.992 677 726.184 677 c 727.379 677 728.273
 676.418 728.867 675.254 c 729.469 674.082 729.77 672.324 729.77 669.988
 c 729.77 667.641 729.469 665.887 728.867 664.723 c 728.273 663.547 727.379
 662.961 726.184 662.961 c 726.184 661.133 m 728.094 661.133 729.551 661.891
 730.559 663.406 c 731.57 664.914 732.074 667.109 732.074 669.988 c 732.074
 672.859 731.57 675.051 730.559 676.566 c 729.551 678.074 728.094 678.828
 726.184 678.828 c 724.27 678.828 722.809 678.074 721.797 676.566 c 720.789
 675.051 720.289 672.859 720.289 669.988 c 720.289 667.109 720.789 664.914
 721.797 663.406 c 722.809 661.891 724.27 661.133 726.184 661.133 c 741.078
 662.961 m 739.891 662.961 738.996 663.547 738.395 664.723 c 737.797 665.887
 737.5 667.641 737.5 669.988 c 737.5 672.324 737.797 674.082 738.395 675.254
 c 738.996 676.418 739.891 677 741.078 677 c 742.273 677 743.168 676.418
 743.762 675.254 c 744.363 674.082 744.664 672.324 744.664 669.988 c 744.664
 667.641 744.363 665.887 743.762 664.723 c 743.168 663.547 742.273 662.961
 741.078 662.961 c 741.078 661.133 m 742.988 661.133 744.445 661.891 745.453
 663.406 c 746.465 664.914 746.973 667.109 746.973 669.988 c 746.973 672.859
 746.465 675.051 745.453 676.566 c 744.445 678.074 742.988 678.828 741.078
 678.828 c 739.164 678.828 737.703 678.074 736.691 676.566 c 735.684 675.051
 735.184 672.859 735.184 669.988 c 735.184 667.109 735.684 664.914 736.691
 663.406 c 737.703 661.891 739.164 661.133 741.078 661.133 c f
711.285 783.469 m 710.191 783.469 709.324 783.762 708.691 784.352 c 708.07
 784.938 707.758 785.742 707.758 786.77 c 707.758 787.801 708.07 788.605
 708.691 789.191 c 709.324 789.781 710.191 790.074 711.285 790.074 c 712.383
 790.074 713.246 789.781 713.879 789.191 c 714.512 788.598 714.828 787.793
 714.828 786.77 c 714.828 785.742 714.512 784.938 713.879 784.352 c 713.254
 783.762 712.391 783.469 711.285 783.469 c 708.98 782.488 m 707.988 782.242
 707.215 781.785 706.66 781.105 c 706.113 780.43 705.836 779.602 705.836
 778.625 c 705.836 777.262 706.32 776.188 707.289 775.395 c 708.262 774.602
 709.594 774.207 711.285 774.207 c 712.984 774.207 714.316 774.602 715.285
 775.395 c 716.25 776.188 716.734 777.262 716.734 778.625 c 716.734 779.602
 716.457 780.43 715.902 781.105 c 715.352 781.785 714.586 782.242 713.605
 782.488 c 714.719 782.746 715.582 783.254 716.199 784.008 c 716.824 784.762
 717.133 785.684 717.133 786.77 c 717.133 788.422 716.629 789.691 715.617
 790.574 c 714.609 791.457 713.168 791.898 711.285 791.898 c 709.406 791.898
 707.957 791.457 706.945 790.574 c 705.941 789.691 705.438 788.422 705.438
 786.77 c 705.438 785.684 705.75 784.762 706.375 784.008 c 707 783.254 707.867
 782.746 708.98 782.488 c 708.133 778.844 m 708.133 779.727 708.406 780.418
 708.957 780.91 c 709.512 781.406 710.289 781.652 711.285 781.652 c 712.277
 781.652 713.051 781.406 713.605 780.91 c 714.168 780.418 714.449 779.727
 714.449 778.844 c 714.449 777.961 714.168 777.27 713.605 776.777 c 713.051
 776.281 712.277 776.035 711.285 776.035 c 710.289 776.035 709.512 776.281
 708.957 776.777 c 708.406 777.27 708.133 777.961 708.133 778.844 c 726.184
 776.035 m 724.992 776.035 724.098 776.621 723.496 777.793 c 722.902 778.957
 722.605 780.715 722.605 783.059 c 722.605 785.398 722.902 787.152 723.496
 788.324 c 724.098 789.488 724.992 790.074 726.184 790.074 c 727.379 790.074
 728.273 789.488 728.867 788.324 c 729.469 787.152 729.77 785.398 729.77
 783.059 c 729.77 780.715 729.469 778.957 728.867 777.793 c 728.273 776.621
 727.379 776.035 726.184 776.035 c 726.184 774.207 m 728.094 774.207 729.551
 774.965 730.559 776.48 c 731.57 777.988 732.074 780.18 732.074 783.059 
c 732.074 785.93 731.57 788.121 730.559 789.637 c 729.551 791.145 728.094
 791.898 726.184 791.898 c 724.27 791.898 722.809 791.145 721.797 789.637
 c 720.789 788.121 720.289 785.93 720.289 783.059 c 720.289 780.18 720.789
 777.988 721.797 776.48 c 722.809 774.965 724.27 774.207 726.184 774.207
 c 741.078 776.035 m 739.891 776.035 738.996 776.621 738.395 777.793 c 737.797
 778.957 737.5 780.715 737.5 783.059 c 737.5 785.398 737.797 787.152 738.395
 788.324 c 738.996 789.488 739.891 790.074 741.078 790.074 c 742.273 790.074
 743.168 789.488 743.762 788.324 c 744.363 787.152 744.664 785.398 744.664
 783.059 c 744.664 780.715 744.363 778.957 743.762 777.793 c 743.168 776.621
 742.273 776.035 741.078 776.035 c 741.078 774.207 m 742.988 774.207 744.445
 774.965 745.453 776.48 c 746.465 777.988 746.973 780.18 746.973 783.059
 c 746.973 785.93 746.465 788.121 745.453 789.637 c 744.445 791.145 742.988
 791.898 741.078 791.898 c 739.164 791.898 737.703 791.145 736.691 789.637
 c 735.684 788.121 735.184 785.93 735.184 783.059 c 735.184 780.18 735.684
 777.988 736.691 776.48 c 737.703 774.965 739.164 774.207 741.078 774.207
 c f
683.406 85.816 m 683.406 86.852 683.762 87.676 684.469 88.285 c 685.18 
88.887 686.148 89.188 687.383 89.188 c 688.609 89.188 689.578 88.887 690.297
 88.285 c 691.004 87.676 691.359 86.852 691.359 85.816 c 691.359 84.781 
691.004 83.961 690.297 83.359 c 689.578 82.75 688.609 82.445 687.383 82.445
 c 686.148 82.445 685.18 82.75 684.469 83.359 c 683.762 83.961 683.406 84.781
 683.406 85.816 c 676.176 81.234 m 678.277 81.234 l 678.004 81.816 677.797
 82.402 677.648 82.996 c 677.504 83.582 677.434 84.164 677.434 84.742 c 
677.434 86.266 677.949 87.43 678.977 88.238 c 680.004 89.039 681.559 89.496
 683.637 89.609 c 682.973 89.16 682.469 88.598 682.117 87.918 c 681.758 
87.242 681.578 86.492 681.578 85.68 c 681.578 83.965 682.102 82.613 683.145
 81.625 c 684.18 80.625 685.594 80.129 687.383 80.129 c 689.133 80.129 690.539
 80.645 691.598 81.68 c 692.656 82.719 693.184 84.094 693.184 85.816 c 693.184
 87.789 692.43 89.297 690.922 90.34 c 689.41 91.383 687.215 91.906 684.344
 91.906 c 681.648 91.906 679.5 91.266 677.902 89.984 c 676.293 88.707 675.492
 86.988 675.492 84.832 c 675.492 84.254 675.547 83.672 675.664 83.086 c 
675.777 82.492 675.949 81.875 676.176 81.234 c 677.32 71.207 m 677.32 72.395
 677.906 73.289 679.078 73.891 c 680.242 74.484 682 74.781 684.344 74.781
 c 686.684 74.781 688.438 74.484 689.609 73.891 c 690.773 73.289 691.359
 72.395 691.359 71.207 c 691.359 70.012 690.773 69.117 689.609 68.523 c 
688.438 67.922 686.684 67.621 684.344 67.621 c 682 67.621 680.242 67.922
 679.078 68.523 c 677.906 69.117 677.32 70.012 677.32 71.207 c 675.492 71.207
 m 675.492 69.297 676.25 67.836 677.766 66.832 c 679.273 65.82 681.465 65.312
 684.344 65.312 c 687.215 65.312 689.41 65.82 690.922 66.832 c 692.43 67.836
 693.184 69.297 693.184 71.207 c 693.184 73.117 692.43 74.578 690.922 75.594
 c 689.41 76.598 687.215 77.102 684.344 77.102 c 681.465 77.102 679.273 
76.598 677.766 75.594 c 676.25 74.578 675.492 73.117 675.492 71.207 c 677.32
 56.312 m 677.32 57.5 677.906 58.395 679.078 58.996 c 680.242 59.59 682 
59.887 684.344 59.887 c 686.684 59.887 688.438 59.59 689.609 58.996 c 690.773
 58.395 691.359 57.5 691.359 56.312 c 691.359 55.117 690.773 54.219 689.609
 53.625 c 688.438 53.023 686.684 52.723 684.344 52.723 c 682 52.723 680.242
 53.023 679.078 53.625 c 677.906 54.219 677.32 55.117 677.32 56.312 c 675.492
 56.312 m 675.492 54.398 676.25 52.941 677.766 51.938 c 679.273 50.922 681.465
 50.418 684.344 50.418 c 687.215 50.418 689.41 50.922 690.922 51.938 c 692.43
 52.941 693.184 54.398 693.184 56.312 c 693.184 58.223 692.43 59.684 690.922
 60.699 c 689.41 61.703 687.215 62.207 684.344 62.207 c 681.465 62.207 679.273
 61.703 677.766 60.699 c 676.25 59.684 675.492 58.223 675.492 56.312 c f
598.977 86.102 m 598.977 87.199 599.27 88.062 599.855 88.695 c 600.441 
89.32 601.25 89.633 602.277 89.633 c 603.305 89.633 604.113 89.32 604.699
 88.695 c 605.285 88.062 605.578 87.199 605.578 86.102 c 605.578 85.004 
605.285 84.141 604.699 83.508 c 604.105 82.875 603.297 82.562 602.277 82.562
 c 601.25 82.562 600.441 82.875 599.855 83.508 c 599.27 84.133 598.977 84.996
 598.977 86.102 c 597.996 88.41 m 597.75 89.398 597.289 90.172 596.613 90.727
 c 595.934 91.277 595.109 91.551 594.133 91.551 c 592.77 91.551 591.691 
91.066 590.902 90.102 c 590.109 89.125 589.715 87.793 589.715 86.102 c 589.715
 84.402 590.109 83.07 590.902 82.105 c 591.691 81.137 592.77 80.652 594.133
 80.652 c 595.109 80.652 595.934 80.93 596.613 81.488 c 597.289 82.035 597.75
 82.801 597.996 83.781 c 598.254 82.672 598.762 81.809 599.516 81.191 c 
600.27 80.566 601.188 80.254 602.277 80.254 c 603.93 80.254 605.199 80.758
 606.082 81.773 c 606.965 82.777 607.406 84.223 607.406 86.102 c 607.406
 87.984 606.965 89.43 606.082 90.441 c 605.199 91.449 603.93 91.949 602.277
 91.949 c 601.188 91.949 600.27 91.637 599.516 91.016 c 598.762 90.391 598.254
 89.52 597.996 88.41 c 594.352 89.254 m 595.234 89.254 595.922 88.98 596.418
 88.434 c 596.914 87.875 597.16 87.098 597.16 86.102 c 597.16 85.113 596.914
 84.34 596.418 83.781 c 595.922 83.219 595.234 82.938 594.352 82.938 c 593.469
 82.938 592.777 83.219 592.281 83.781 c 591.789 84.34 591.539 85.113 591.539
 86.102 c 591.539 87.098 591.789 87.875 592.281 88.434 c 592.777 88.98 593.469
 89.254 594.352 89.254 c 591.539 71.207 m 591.539 72.395 592.129 73.289 
593.301 73.891 c 594.465 74.484 596.219 74.781 598.566 74.781 c 600.902 
74.781 602.66 74.484 603.832 73.891 c 604.996 73.289 605.578 72.395 605.578
 71.207 c 605.578 70.012 604.996 69.117 603.832 68.523 c 602.66 67.922 600.902
 67.621 598.566 67.621 c 596.219 67.621 594.465 67.922 593.301 68.523 c 
592.129 69.117 591.539 70.012 591.539 71.207 c 589.715 71.207 m 589.715 
69.297 590.473 67.836 591.984 66.832 c 593.492 65.82 595.688 65.312 598.566
 65.312 c 601.438 65.312 603.629 65.82 605.145 66.832 c 606.652 67.836 607.406
 69.297 607.406 71.207 c 607.406 73.117 606.652 74.578 605.145 75.594 c 
603.629 76.598 601.438 77.102 598.566 77.102 c 595.688 77.102 593.492 76.598
 591.984 75.594 c 590.473 74.578 589.715 73.117 589.715 71.207 c 591.539
 56.312 m 591.539 57.5 592.129 58.395 593.301 58.996 c 594.465 59.59 596.219
 59.887 598.566 59.887 c 600.902 59.887 602.66 59.59 603.832 58.996 c 604.996
 58.395 605.578 57.5 605.578 56.312 c 605.578 55.117 604.996 54.219 603.832
 53.625 c 602.66 53.023 600.902 52.723 598.566 52.723 c 596.219 52.723 594.465
 53.023 593.301 53.625 c 592.129 54.219 591.539 55.117 591.539 56.312 c 
589.715 56.312 m 589.715 54.398 590.473 52.941 591.984 51.938 c 593.492 
50.922 595.688 50.418 598.566 50.418 c 601.438 50.418 603.629 50.922 605.145
 51.938 c 606.652 52.941 607.406 54.398 607.406 56.312 c 607.406 58.223 
606.652 59.684 605.145 60.699 c 603.629 61.703 601.438 62.207 598.566 62.207
 c 595.688 62.207 593.492 61.703 591.984 60.699 c 590.473 59.684 589.715
 58.223 589.715 56.312 c f
507.66 90.637 m 507.66 86.867 l 494.648 86.867 l 495.469 90.969 l 493.367
 90.969 l 492.547 86.891 l 492.547 84.582 l 507.66 84.582 l 507.66 80.812
 l 509.602 80.812 l 509.602 90.637 l 507.66 90.637 l 494.066 71.207 m 494.066
 72.395 494.652 73.289 495.824 73.891 c 496.988 74.484 498.746 74.781 501.09
 74.781 c 503.43 74.781 505.184 74.484 506.355 73.891 c 507.52 73.289 508.105
 72.395 508.105 71.207 c 508.105 70.012 507.52 69.117 506.355 68.523 c 505.184
 67.922 503.43 67.621 501.09 67.621 c 498.746 67.621 496.988 67.922 495.824
 68.523 c 494.652 69.117 494.066 70.012 494.066 71.207 c 492.238 71.207 
m 492.238 69.297 492.996 67.836 494.512 66.832 c 496.02 65.82 498.211 65.312
 501.09 65.312 c 503.961 65.312 506.156 65.82 507.668 66.832 c 509.176 67.836
 509.93 69.297 509.93 71.207 c 509.93 73.117 509.176 74.578 507.668 75.594
 c 506.156 76.598 503.961 77.102 501.09 77.102 c 498.211 77.102 496.02 76.598
 494.512 75.594 c 492.996 74.578 492.238 73.117 492.238 71.207 c 494.066
 56.312 m 494.066 57.5 494.652 58.395 495.824 58.996 c 496.988 59.59 498.746
 59.887 501.09 59.887 c 503.43 59.887 505.184 59.59 506.355 58.996 c 507.52
 58.395 508.105 57.5 508.105 56.312 c 508.105 55.117 507.52 54.219 506.355
 53.625 c 505.184 53.023 503.43 52.723 501.09 52.723 c 498.746 52.723 496.988
 53.023 495.824 53.625 c 494.652 54.219 494.066 55.117 494.066 56.312 c 
492.238 56.312 m 492.238 54.398 492.996 52.941 494.512 51.938 c 496.02 50.922
 498.211 50.418 501.09 50.418 c 503.961 50.418 506.156 50.922 507.668 51.938
 c 509.176 52.941 509.93 54.398 509.93 56.312 c 509.93 58.223 509.176 59.684
 507.668 60.699 c 506.156 61.703 503.961 62.207 501.09 62.207 c 498.211 
62.207 496.02 61.703 494.512 60.699 c 492.996 59.684 492.238 58.223 492.238
 56.312 c 494.066 41.414 m 494.066 42.602 494.652 43.5 495.824 44.102 c 
496.988 44.695 498.746 44.992 501.09 44.992 c 503.43 44.992 505.184 44.695
 506.355 44.102 c 507.52 43.5 508.105 42.602 508.105 41.414 c 508.105 40.219
 507.52 39.324 506.355 38.73 c 505.184 38.129 503.43 37.828 501.09 37.828
 c 498.746 37.828 496.988 38.129 495.824 38.73 c 494.652 39.324 494.066 
40.219 494.066 41.414 c 492.238 41.414 m 492.238 39.504 492.996 38.047 494.512
 37.039 c 496.02 36.027 498.211 35.52 501.09 35.52 c 503.961 35.52 506.156
 36.027 507.668 37.039 c 509.176 38.047 509.93 39.504 509.93 41.414 c 509.93
 43.328 509.176 44.789 507.668 45.801 c 506.156 46.809 503.961 47.309 501.09
 47.309 c 498.211 47.309 496.02 46.809 494.512 45.801 c 492.996 44.789 492.238
 43.328 492.238 41.414 c f
406.285 90.637 m 406.285 86.867 l 393.273 86.867 l 394.094 90.969 l 391.992
 90.969 l 391.172 86.891 l 391.172 84.582 l 406.285 84.582 l 406.285 80.812
 l 408.227 80.812 l 408.227 90.637 l 406.285 90.637 l 406.285 74.152 m 406.285
 66.102 l 408.227 66.102 l 408.227 76.93 l 406.285 76.93 l 405.379 76.055
 404.164 74.863 402.641 73.355 c 401.109 71.84 400.125 70.887 399.68 70.5
 c 398.852 69.758 398.152 69.246 397.578 68.957 c 397 68.66 396.434 68.512
 395.879 68.512 c 394.973 68.512 394.234 68.832 393.66 69.469 c 393.09 70.102
 392.805 70.93 392.805 71.949 c 392.805 72.672 392.93 73.438 393.184 74.246
 c 393.434 75.043 393.812 75.902 394.324 76.816 c 391.992 76.816 l 391.621
 75.887 391.34 75.02 391.148 74.211 c 390.957 73.402 390.863 72.664 390.863
 71.996 c 390.863 70.227 391.305 68.82 392.188 67.77 c 393.07 66.719 394.25
 66.191 395.73 66.191 c 396.43 66.191 397.098 66.324 397.727 66.59 c 398.352
 66.852 399.09 67.328 399.945 68.02 c 400.164 68.211 400.805 68.816 401.863
 69.836 c 402.914 70.855 404.387 72.297 406.285 74.152 c 392.691 56.312 
m 392.691 57.5 393.277 58.395 394.449 58.996 c 395.613 59.59 397.371 59.887
 399.715 59.887 c 402.055 59.887 403.809 59.59 404.98 58.996 c 406.148 58.395
 406.73 57.5 406.73 56.312 c 406.73 55.117 406.148 54.219 404.98 53.625 
c 403.809 53.023 402.055 52.723 399.715 52.723 c 397.371 52.723 395.613 
53.023 394.449 53.625 c 393.277 54.219 392.691 55.117 392.691 56.312 c 390.863
 56.312 m 390.863 54.398 391.621 52.941 393.137 51.938 c 394.645 50.922 
396.836 50.418 399.715 50.418 c 402.586 50.418 404.781 50.922 406.297 51.938
 c 407.805 52.941 408.559 54.398 408.559 56.312 c 408.559 58.223 407.805
 59.684 406.297 60.699 c 404.781 61.703 402.586 62.207 399.715 62.207 c 
396.836 62.207 394.645 61.703 393.137 60.699 c 391.621 59.684 390.863 58.223
 390.863 56.312 c 392.691 41.414 m 392.691 42.602 393.277 43.5 394.449 44.102
 c 395.613 44.695 397.371 44.992 399.715 44.992 c 402.055 44.992 403.809
 44.695 404.98 44.102 c 406.148 43.5 406.73 42.602 406.73 41.414 c 406.73
 40.219 406.148 39.324 404.98 38.73 c 403.809 38.129 402.055 37.828 399.715
 37.828 c 397.371 37.828 395.613 38.129 394.449 38.73 c 393.277 39.324 392.691
 40.219 392.691 41.414 c 390.863 41.414 m 390.863 39.504 391.621 38.047 
393.137 37.039 c 394.645 36.027 396.836 35.52 399.715 35.52 c 402.586 35.52
 404.781 36.027 406.297 37.039 c 407.805 38.047 408.559 39.504 408.559 41.414
 c 408.559 43.328 407.805 44.789 406.297 45.801 c 404.781 46.809 402.586
 47.309 399.715 47.309 c 396.836 47.309 394.645 46.809 393.137 45.801 c 
391.621 44.789 390.863 43.328 390.863 41.414 c f
308.809 90.637 m 308.809 86.867 l 295.797 86.867 l 296.621 90.969 l 294.52
 90.969 l 293.695 86.891 l 293.695 84.582 l 308.809 84.582 l 308.809 80.812
 l 310.75 80.812 l 310.75 90.637 l 308.809 90.637 l 295.707 69.801 m 304.809
 75.629 l 304.809 69.801 l 295.707 69.801 l 293.695 70.406 m 293.695 67.504
 l 304.809 67.504 l 304.809 65.074 l 306.73 65.074 l 306.73 67.504 l 310.75
 67.504 l 310.75 69.801 l 306.73 69.801 l 306.73 77.5 l 304.5 77.5 l 293.695
 70.406 l 295.215 56.312 m 295.215 57.5 295.801 58.395 296.973 58.996 c 
298.141 59.59 299.895 59.887 302.238 59.887 c 304.578 59.887 306.332 59.59
 307.508 58.996 c 308.672 58.395 309.254 57.5 309.254 56.312 c 309.254 55.117
 308.672 54.219 307.508 53.625 c 306.332 53.023 304.578 52.723 302.238 52.723
 c 299.895 52.723 298.141 53.023 296.973 53.625 c 295.801 54.219 295.215
 55.117 295.215 56.312 c 293.387 56.312 m 293.387 54.398 294.145 52.941 
295.66 51.938 c 297.168 50.922 299.363 50.418 302.238 50.418 c 305.109 50.418
 307.305 50.922 308.82 51.938 c 310.328 52.941 311.082 54.398 311.082 56.312
 c 311.082 58.223 310.328 59.684 308.82 60.699 c 307.305 61.703 305.109 
62.207 302.238 62.207 c 299.363 62.207 297.168 61.703 295.66 60.699 c 294.145
 59.684 293.387 58.223 293.387 56.312 c 295.215 41.414 m 295.215 42.602 
295.801 43.5 296.973 44.102 c 298.141 44.695 299.895 44.992 302.238 44.992
 c 304.578 44.992 306.332 44.695 307.508 44.102 c 308.672 43.5 309.254 42.602
 309.254 41.414 c 309.254 40.219 308.672 39.324 307.508 38.73 c 306.332 
38.129 304.578 37.828 302.238 37.828 c 299.895 37.828 298.141 38.129 296.973
 38.73 c 295.801 39.324 295.215 40.219 295.215 41.414 c 293.387 41.414 m
 293.387 39.504 294.145 38.047 295.66 37.039 c 297.168 36.027 299.363 35.52
 302.238 35.52 c 305.109 35.52 307.305 36.027 308.82 37.039 c 310.328 38.047
 311.082 39.504 311.082 41.414 c 311.082 43.328 310.328 44.789 308.82 45.801
 c 307.305 46.809 305.109 47.309 302.238 47.309 c 299.363 47.309 297.168
 46.809 295.66 45.801 c 294.145 44.789 293.387 43.328 293.387 41.414 c f
211.332 90.637 m 211.332 86.867 l 198.32 86.867 l 199.145 90.969 l 197.043
 90.969 l 196.219 86.891 l 196.219 84.582 l 211.332 84.582 l 211.332 80.812
 l 213.273 80.812 l 213.273 90.637 l 211.332 90.637 l 203.828 70.922 m 203.828
 71.957 204.184 72.777 204.891 73.387 c 205.598 73.988 206.57 74.289 207.805
 74.289 c 209.027 74.289 210 73.988 210.715 73.387 c 211.426 72.777 211.777
 71.957 211.777 70.922 c 211.777 69.887 211.426 69.066 210.715 68.465 c 
210 67.855 209.027 67.551 207.805 67.551 c 206.57 67.551 205.598 67.855 
204.891 68.465 c 204.184 69.066 203.828 69.887 203.828 70.922 c 196.598 
66.34 m 198.699 66.34 l 198.426 66.918 198.215 67.504 198.07 68.098 c 197.926
 68.688 197.855 69.27 197.855 69.848 c 197.855 71.371 198.367 72.535 199.395
 73.344 c 200.426 74.141 201.977 74.598 204.055 74.715 c 203.395 74.266 
202.887 73.699 202.539 73.023 c 202.18 72.344 202 71.598 202 70.785 c 202
 69.07 202.523 67.719 203.566 66.73 c 204.602 65.73 206.012 65.23 207.805
 65.23 c 209.555 65.23 210.961 65.75 212.02 66.785 c 213.078 67.82 213.605
 69.199 213.605 70.922 c 213.605 72.895 212.852 74.402 211.344 75.445 c 
209.828 76.488 207.637 77.008 204.766 77.008 c 202.07 77.008 199.922 76.371
 198.32 75.09 c 196.715 73.812 195.91 72.094 195.91 69.938 c 195.91 69.359
 195.969 68.777 196.082 68.191 c 196.199 67.598 196.367 66.98 196.598 66.34
 c 197.738 56.312 m 197.738 57.5 198.324 58.395 199.5 58.996 c 200.664 59.59
 202.418 59.887 204.766 59.887 c 207.102 59.887 208.859 59.59 210.031 58.996
 c 211.195 58.395 211.777 57.5 211.777 56.312 c 211.777 55.117 211.195 54.219
 210.031 53.625 c 208.859 53.023 207.102 52.723 204.766 52.723 c 202.418
 52.723 200.664 53.023 199.5 53.625 c 198.324 54.219 197.738 55.117 197.738
 56.312 c 195.91 56.312 m 195.91 54.398 196.668 52.941 198.184 51.938 c 
199.691 50.922 201.887 50.418 204.766 50.418 c 207.637 50.418 209.828 50.922
 211.344 51.938 c 212.852 52.941 213.605 54.398 213.605 56.312 c 213.605
 58.223 212.852 59.684 211.344 60.699 c 209.828 61.703 207.637 62.207 204.766
 62.207 c 201.887 62.207 199.691 61.703 198.184 60.699 c 196.668 59.684 
195.91 58.223 195.91 56.312 c 197.738 41.414 m 197.738 42.602 198.324 43.5
 199.5 44.102 c 200.664 44.695 202.418 44.992 204.766 44.992 c 207.102 44.992
 208.859 44.695 210.031 44.102 c 211.195 43.5 211.777 42.602 211.777 41.414
 c 211.777 40.219 211.195 39.324 210.031 38.73 c 208.859 38.129 207.102 
37.828 204.766 37.828 c 202.418 37.828 200.664 38.129 199.5 38.73 c 198.324
 39.324 197.738 40.219 197.738 41.414 c 195.91 41.414 m 195.91 39.504 196.668
 38.047 198.184 37.039 c 199.691 36.027 201.887 35.52 204.766 35.52 c 207.637
 35.52 209.828 36.027 211.344 37.039 c 212.852 38.047 213.605 39.504 213.605
 41.414 c 213.605 43.328 212.852 44.789 211.344 45.801 c 209.828 46.809 
207.637 47.309 204.766 47.309 c 201.887 47.309 199.691 46.809 198.184 45.801
 c 196.668 44.789 195.91 43.328 195.91 41.414 c f
115.809 90.637 m 115.809 86.867 l 102.797 86.867 l 103.617 90.969 l 101.516
 90.969 l 100.695 86.891 l 100.695 84.582 l 115.809 84.582 l 115.809 80.812
 l 117.75 80.812 l 117.75 90.637 l 115.809 90.637 l 109.648 71.207 m 109.648
 72.305 109.941 73.168 110.531 73.801 c 111.117 74.426 111.922 74.734 112.949
 74.734 c 113.98 74.734 114.785 74.426 115.371 73.801 c 115.961 73.168 116.254
 72.305 116.254 71.207 c 116.254 70.109 115.961 69.246 115.371 68.613 c 
114.777 67.98 113.973 67.664 112.949 67.664 c 111.922 67.664 111.117 67.98
 110.531 68.613 c 109.941 69.238 109.648 70.102 109.648 71.207 c 108.668
 73.516 m 108.426 74.504 107.965 75.277 107.285 75.832 c 106.609 76.383 
105.781 76.656 104.805 76.656 c 103.445 76.656 102.367 76.172 101.574 75.203
 c 100.781 74.23 100.387 72.898 100.387 71.207 c 100.387 69.508 100.781 
68.176 101.574 67.207 c 102.367 66.242 103.445 65.758 104.805 65.758 c 105.781
 65.758 106.609 66.035 107.285 66.59 c 107.965 67.141 108.426 67.906 108.668
 68.887 c 108.926 67.777 109.434 66.91 110.188 66.293 c 110.941 65.672 111.863
 65.359 112.949 65.359 c 114.605 65.359 115.871 65.863 116.754 66.879 c 
117.637 67.883 118.078 69.324 118.078 71.207 c 118.078 73.086 117.637 74.535
 116.754 75.547 c 115.871 76.551 114.605 77.055 112.949 77.055 c 111.863
 77.055 110.941 76.742 110.188 76.117 c 109.434 75.492 108.926 74.625 108.668
 73.516 c 105.023 74.359 m 105.906 74.359 106.598 74.086 107.09 73.535 c
 107.586 72.98 107.832 72.203 107.832 71.207 c 107.832 70.215 107.586 69.445
 107.09 68.887 c 106.598 68.324 105.906 68.043 105.023 68.043 c 104.141 
68.043 103.449 68.324 102.957 68.887 c 102.461 69.445 102.215 70.215 102.215
 71.207 c 102.215 72.203 102.461 72.98 102.957 73.535 c 103.449 74.086 104.141
 74.359 105.023 74.359 c 102.215 56.312 m 102.215 57.5 102.801 58.395 103.973
 58.996 c 105.137 59.59 106.895 59.887 109.238 59.887 c 111.578 59.887 113.332
 59.59 114.504 58.996 c 115.668 58.395 116.254 57.5 116.254 56.312 c 116.254
 55.117 115.668 54.219 114.504 53.625 c 113.332 53.023 111.578 52.723 109.238
 52.723 c 106.895 52.723 105.137 53.023 103.973 53.625 c 102.801 54.219 
102.215 55.117 102.215 56.312 c 100.387 56.312 m 100.387 54.398 101.145 
52.941 102.66 51.938 c 104.168 50.922 106.359 50.418 109.238 50.418 c 112.109
 50.418 114.305 50.922 115.816 51.938 c 117.324 52.941 118.078 54.398 118.078
 56.312 c 118.078 58.223 117.324 59.684 115.816 60.699 c 114.305 61.703 
112.109 62.207 109.238 62.207 c 106.359 62.207 104.168 61.703 102.66 60.699
 c 101.145 59.684 100.387 58.223 100.387 56.312 c 102.215 41.414 m 102.215
 42.602 102.801 43.5 103.973 44.102 c 105.137 44.695 106.895 44.992 109.238
 44.992 c 111.578 44.992 113.332 44.695 114.504 44.102 c 115.668 43.5 116.254
 42.602 116.254 41.414 c 116.254 40.219 115.668 39.324 114.504 38.73 c 113.332
 38.129 111.578 37.828 109.238 37.828 c 106.895 37.828 105.137 38.129 103.973
 38.73 c 102.801 39.324 102.215 40.219 102.215 41.414 c 100.387 41.414 m
 100.387 39.504 101.145 38.047 102.66 37.039 c 104.168 36.027 106.359 35.52
 109.238 35.52 c 112.109 35.52 114.305 36.027 115.816 37.039 c 117.324 38.047
 118.078 39.504 118.078 41.414 c 118.078 43.328 117.324 44.789 115.816 45.801
 c 114.305 46.809 112.109 47.309 109.238 47.309 c 106.359 47.309 104.168
 46.809 102.66 45.801 c 101.145 44.789 100.387 43.328 100.387 41.414 c f
60.559 145.23 m 60.559 145.887 60.336 146.441 59.895 146.898 c 59.469 147.355
 58.922 147.582 58.25 147.582 c 57.578 147.582 57.023 147.363 56.582 146.922
 c 56.141 146.48 55.918 145.914 55.918 145.23 c 55.918 144.895 55.98 144.59
 56.102 144.316 c 56.223 144.027 56.391 143.785 56.605 143.586 c 56.816 
143.387 57.062 143.234 57.336 143.129 c 57.625 143.008 57.93 142.945 58.25
 142.945 c 58.57 142.945 58.867 143.008 59.141 143.129 c 59.43 143.25 59.676
 143.418 59.871 143.633 c 60.086 143.828 60.254 144.066 60.375 144.34 c 
60.496 144.613 60.559 144.91 60.559 145.23 c 53.133 173.285 m 53.133 172.418
 l 53.789 172.418 54.32 172.371 54.73 172.281 c 55.156 172.188 55.484 172.02
 55.715 171.777 c 55.957 171.52 56.117 171.168 56.195 170.727 c 56.285 170.27
 56.332 169.691 56.332 168.988 c 56.332 157.797 l 56.332 156.789 56.215 
156.027 55.988 155.512 c 55.773 154.992 55.363 154.734 54.754 154.734 c 
54.543 154.734 54.305 154.766 54.047 154.824 c 53.789 154.887 53.484 154.977
 53.133 155.102 c 52.836 154.277 l 59.164 151.766 l 60.145 151.766 l 60.145
 168.988 l 60.145 169.691 60.191 170.27 60.281 170.727 c 60.375 171.168 
60.535 171.52 60.762 171.777 c 61.008 172.02 61.336 172.188 61.746 172.281
 c 62.172 172.371 62.711 172.418 63.367 172.418 c 63.367 173.285 l 53.133
 173.285 l f
124.531 245.234 m 124.531 244.367 l 125.293 244.367 125.859 244.32 126.223
 244.23 c 126.605 244.121 126.902 243.934 127.113 243.656 c 127.207 243.52
 127.289 243.375 127.367 243.223 c 127.441 243.055 127.504 242.859 127.547
 242.629 c 127.609 242.387 127.656 242.098 127.688 241.762 c 127.715 241.41
 127.73 240.992 127.73 240.504 c 127.73 229.035 l 127.73 228.109 127.695
 227.414 127.617 226.957 c 127.543 226.484 127.402 226.137 127.207 225.906
 c 127.055 225.738 126.91 225.609 126.773 225.52 c 126.637 225.41 126.469
 225.336 126.27 225.289 c 126.07 225.23 125.836 225.191 125.562 225.176 
c 125.285 225.16 124.945 225.152 124.531 225.152 c 124.531 224.309 l 134.77
 224.309 l 134.77 225.152 l 133.992 225.152 133.414 225.207 133.031 225.312
 c 132.668 225.418 132.383 225.602 132.188 225.859 c 132.094 226 132.004
 226.148 131.914 226.316 c 131.836 226.484 131.77 226.691 131.707 226.934
 c 131.66 227.164 131.621 227.453 131.594 227.805 c 131.562 228.137 131.547
 228.551 131.547 229.035 c 131.547 240.504 l 131.547 241.434 131.586 242.137
 131.66 242.605 c 131.738 243.062 131.883 243.398 132.094 243.613 c 132.23
 243.781 132.371 243.918 132.508 244.023 c 132.66 244.113 132.828 244.191
 133.008 244.25 c 133.207 244.297 133.441 244.328 133.719 244.344 c 134.008
 244.359 134.355 244.367 134.77 244.367 c 134.77 245.234 l 124.531 245.234
 l f
427.551 290.219 m 427.551 290.871 427.332 291.43 426.891 291.887 c 426.465
 292.344 425.914 292.57 425.246 292.57 c 424.574 292.57 424.02 292.352 423.578
 291.91 c 423.137 291.465 422.914 290.902 422.914 290.219 c 422.914 289.883
 422.977 289.578 423.098 289.305 c 423.219 289.016 423.387 288.77 423.602
 288.574 c 423.812 288.375 424.059 288.223 424.332 288.117 c 424.621 287.992
 424.926 287.934 425.246 287.934 c 425.566 287.934 425.863 287.992 426.137
 288.117 c 426.426 288.238 426.668 288.406 426.867 288.617 c 427.082 288.816
 427.246 289.051 427.371 289.328 c 427.492 289.602 427.551 289.898 427.551
 290.219 c 427.141 307.879 m 427.141 313.543 l 427.141 314.473 427.18 315.172
 427.254 315.645 c 427.348 316.102 427.492 316.438 427.691 316.648 c 427.844
 316.816 427.988 316.953 428.125 317.062 c 428.262 317.152 428.422 317.23
 428.602 317.289 c 428.801 317.336 429.039 317.367 429.312 317.383 c 429.586
 317.398 429.938 317.402 430.363 317.402 c 430.363 318.273 l 420.129 318.273
 l 420.129 317.402 l 420.891 317.402 421.453 317.359 421.816 317.266 c 422.199
 317.16 422.496 316.969 422.711 316.695 c 422.801 316.559 422.883 316.414
 422.961 316.262 c 423.035 316.094 423.098 315.891 423.145 315.645 c 423.203
 315.402 423.25 315.113 423.281 314.777 c 423.312 314.441 423.324 314.031
 423.324 313.543 c 423.324 307.879 l 419.832 307.879 l 419.832 305.523 l
 423.324 305.523 l 423.324 304.816 l 423.324 303.871 423.32 303.125 423.305
 302.578 c 423.305 302.016 423.281 301.57 423.234 301.254 c 423.203 300.918
 423.145 300.672 423.051 300.52 c 422.977 300.367 422.863 300.223 422.711
 300.086 c 422.434 299.828 422.102 299.707 421.703 299.723 c 421.309 299.738
 420.781 299.859 420.129 300.086 c 419.832 299.266 l 426.16 296.75 l 427.141
 296.75 l 427.141 305.523 l 430.66 305.523 l 430.66 307.879 l 427.141 307.879
 l f
422.984 365 m 422.984 365.656 422.762 366.211 422.32 366.668 c 421.895 
367.125 421.348 367.352 420.676 367.352 c 420.004 367.352 419.449 367.133
 419.008 366.691 c 418.566 366.25 418.344 365.684 418.344 365 c 418.344 
364.664 418.406 364.359 418.527 364.086 c 418.648 363.797 418.816 363.555
 419.031 363.355 c 419.246 363.156 419.488 363.004 419.762 362.898 c 420.051
 362.777 420.355 362.715 420.676 362.715 c 420.996 362.715 421.293 362.777
 421.566 362.898 c 421.855 363.02 422.102 363.188 422.297 363.402 c 422.512
 363.598 422.68 363.836 422.801 364.109 c 422.922 364.383 422.984 364.68
 422.984 365 c 422.57 382.66 m 422.57 388.324 l 422.57 389.254 422.609 389.953
 422.688 390.426 c 422.777 390.883 422.922 391.219 423.121 391.434 c 423.273
 391.602 423.418 391.738 423.555 391.844 c 423.691 391.934 423.852 392.012
 424.035 392.07 c 424.23 392.117 424.469 392.148 424.742 392.164 c 425.016
 392.18 425.367 392.188 425.793 392.188 c 425.793 393.055 l 415.559 393.055
 l 415.559 392.188 l 416.32 392.188 416.883 392.141 417.25 392.051 c 417.629
 391.941 417.926 391.754 418.141 391.477 c 418.23 391.34 418.316 391.195
 418.391 391.043 c 418.469 390.875 418.527 390.672 418.574 390.426 c 418.637
 390.184 418.68 389.895 418.711 389.559 c 418.742 389.223 418.758 388.812
 418.758 388.324 c 418.758 382.66 l 415.262 382.66 l 415.262 380.305 l 418.758
 380.305 l 418.758 379.598 l 418.758 378.652 418.75 377.906 418.734 377.359
 c 418.734 376.797 418.711 376.355 418.664 376.035 c 418.637 375.699 418.574
 375.457 418.484 375.305 c 418.406 375.152 418.293 375.008 418.141 374.867
 c 417.867 374.609 417.531 374.488 417.137 374.504 c 416.738 374.52 416.215
 374.641 415.559 374.867 c 415.262 374.047 l 421.59 371.535 l 422.57 371.535
 l 422.57 380.305 l 426.09 380.305 l 426.09 382.66 l 422.57 382.66 l 421.887
 398.469 m 421.887 401.598 l 420.082 401.598 l 420.082 398.469 l 417.156
 398.469 l 417.156 396.664 l 424.812 396.664 l 424.812 398.469 l 421.887
 398.469 l f
325.707 495.488 m 325.555 496.508 325.242 497.52 324.77 498.527 c 324.297
 499.516 323.695 500.406 322.965 501.199 c 322.234 501.977 321.371 502.609
 320.383 503.094 c 319.395 503.582 318.297 503.824 317.094 503.824 c 315.859
 503.824 314.688 503.574 313.574 503.07 c 312.465 502.555 311.488 501.824
 310.652 500.879 c 309.828 499.918 309.172 498.77 308.688 497.43 c 308.199
 496.074 307.953 494.566 307.953 492.906 c 307.953 491.141 308.191 489.555
 308.664 488.152 c 309.148 486.754 309.82 485.566 310.672 484.59 c 311.543
 483.617 312.57 482.867 313.758 482.352 c 314.945 481.832 316.246 481.574
 317.664 481.574 c 318.82 481.574 319.887 481.773 320.863 482.168 c 321.852
 482.551 322.707 483.105 323.422 483.836 c 324.137 484.566 324.691 485.457
 325.09 486.508 c 325.5 487.559 325.707 488.746 325.707 490.074 c 311.199
 490.074 l 311.199 491.625 311.406 493.02 311.816 494.254 c 312.227 495.488
 312.781 496.531 313.484 497.383 c 314.184 498.238 314.992 498.891 315.906
 499.348 c 316.836 499.789 317.809 500.02 318.828 500.035 c 319.516 500.051
 320.148 499.98 320.727 499.828 c 321.32 499.66 321.867 499.387 322.371 
499.004 c 322.871 498.609 323.336 498.094 323.766 497.453 c 324.207 496.797
 324.609 495.988 324.977 495.031 c 325.707 495.488 l 320.93 488.793 m 320.93
 487.637 320.762 486.699 320.43 485.984 c 320.094 485.254 319.691 484.68
 319.219 484.27 c 318.746 483.859 318.25 483.578 317.734 483.426 c 317.215
 483.273 316.766 483.195 316.383 483.195 c 315.777 483.195 315.176 483.316
 314.578 483.562 c 314 483.805 313.477 484.164 313.004 484.637 c 312.531
 485.109 312.137 485.695 311.816 486.395 c 311.496 487.094 311.289 487.895
 311.199 488.793 c 320.93 488.793 l f
375.129 617.531 m 374.062 618.672 373.094 619.586 372.227 620.27 c 371.375
 620.957 370.582 621.48 369.852 621.848 c 369.121 622.215 368.434 622.449
 367.797 622.555 c 367.156 622.664 366.531 622.715 365.922 622.715 c 365.664
 622.715 365.297 622.691 364.824 622.648 c 364.352 622.617 363.836 622.531
 363.273 622.395 c 362.707 622.258 362.129 622.062 361.535 621.801 c 360.957
 621.527 360.426 621.164 359.938 620.707 c 359.465 620.25 359.074 619.691
 358.77 619.039 c 358.465 618.367 358.316 617.559 358.316 616.617 c 358.316
 616.16 358.367 615.703 358.473 615.246 c 358.582 614.789 358.777 614.34
 359.07 613.898 c 359.359 613.441 359.754 612.984 360.258 612.527 c 360.773
 612.07 361.438 611.605 362.242 611.133 c 361.953 611.043 361.613 610.914
 361.215 610.746 c 360.82 610.578 360.438 610.316 360.074 609.969 c 359.723
 609.602 359.418 609.121 359.16 608.527 c 358.918 607.934 358.793 607.164
 358.793 606.223 c 358.793 605.535 358.961 604.859 359.297 604.188 c 359.633
 603.504 360.133 602.887 360.805 602.336 c 361.477 601.789 362.312 601.348
 363.316 601.012 c 364.34 600.676 365.527 600.508 366.883 600.508 c 367.902
 600.508 368.855 600.625 369.738 600.852 c 370.637 601.082 371.414 601.387
 372.066 601.766 c 372.738 602.148 373.262 602.59 373.645 603.09 c 374.023
 603.578 374.215 604.082 374.215 604.598 c 374.215 605.133 374.07 605.59
 373.781 605.969 c 373.508 606.352 373.004 606.539 372.273 606.539 c 371.633
 606.539 371.125 606.375 370.742 606.039 c 370.363 605.703 370.035 605.117
 369.762 604.277 c 369.516 603.488 369.113 602.91 368.551 602.543 c 367.984
 602.176 367.18 601.996 366.129 601.996 c 365.488 601.996 364.918 602.094
 364.414 602.293 c 363.926 602.473 363.516 602.734 363.18 603.07 c 362.859
 603.387 362.617 603.777 362.449 604.234 c 362.281 604.676 362.199 605.148
 362.199 605.648 c 362.199 606.547 362.344 607.281 362.633 607.844 c 362.922
 608.391 363.273 608.824 363.684 609.145 c 364.094 609.449 364.52 609.656
 364.961 609.762 c 365.418 609.867 365.809 609.922 366.129 609.922 c 366.449
 609.922 366.738 609.891 366.996 609.832 c 367.27 609.754 367.527 609.68
 367.773 609.602 c 368.031 609.527 368.289 609.457 368.551 609.398 c 368.809
 609.32 369.09 609.281 369.395 609.281 c 369.898 609.281 370.262 609.418
 370.492 609.695 c 370.734 609.969 370.855 610.324 370.855 610.766 c 370.855
 611.27 370.727 611.621 370.469 611.816 c 370.211 612.016 369.836 612.117
 369.348 612.117 c 368.969 612.117 368.664 612.078 368.434 612 c 368.207
 611.926 368 611.848 367.816 611.773 c 367.637 611.68 367.438 611.598 367.223
 611.52 c 367.027 611.445 366.754 611.406 366.402 611.406 c 365.672 611.406
 365.039 611.535 364.504 611.797 c 363.988 612.039 363.555 612.359 363.203
 612.754 c 362.867 613.152 362.617 613.609 362.449 614.125 c 362.281 614.629
 362.199 615.133 362.199 615.633 c 362.199 616.531 362.367 617.277 362.699
 617.871 c 363.051 618.465 363.484 618.938 364.004 619.289 c 364.52 619.641
 365.094 619.883 365.715 620.02 c 366.34 620.156 366.926 620.227 367.477
 620.227 c 368.664 620.227 369.852 619.961 371.039 619.426 c 372.227 618.879
 373.438 617.957 374.672 616.66 c 375.129 617.531 l f
349.832 812.73 m 348.805 812.73 l 348.805 809.715 l 347.875 810.691 346.93
 811.438 345.969 811.957 c 345.012 812.473 343.922 812.73 342.703 812.73
 c 341.547 812.73 340.441 812.473 339.391 811.957 c 338.355 811.438 337.441
 810.723 336.648 809.809 c 335.871 808.895 335.246 807.812 334.777 806.562
 c 334.32 805.301 334.09 803.93 334.09 802.453 c 334.09 801.555 334.188 
800.633 334.387 799.688 c 334.586 798.742 334.883 797.828 335.277 796.945
 c 335.676 796.062 336.16 795.23 336.742 794.457 c 337.32 793.664 337.98
 792.977 338.727 792.398 c 339.473 791.805 340.312 791.34 341.242 791.004
 c 342.172 790.656 343.176 790.48 344.258 790.48 c 345.172 790.48 346 790.625
 346.746 790.914 c 347.508 791.188 348.195 791.629 348.805 792.238 c 351.773
 790.527 l 352.641 790.527 l 352.641 803.754 l 352.641 804.879 352.648 805.785
 352.664 806.473 c 352.68 807.141 352.711 807.676 352.754 808.07 c 352.801
 808.469 352.871 808.758 352.961 808.941 c 353.051 809.121 353.184 809.273
 353.348 809.398 c 353.625 809.625 353.957 809.723 354.355 809.695 c 354.766
 809.664 355.277 809.535 355.887 809.305 c 356.16 810.105 l 349.832 812.73
 l 348.805 797.266 m 348.805 796.688 348.688 796.086 348.461 795.461 c 348.246
 794.836 347.934 794.266 347.523 793.746 c 347.113 793.215 346.609 792.773
 346.016 792.422 c 345.422 792.07 344.742 791.891 343.984 791.875 c 343.207
 791.844 342.477 792.035 341.789 792.445 c 341.105 792.84 340.504 793.418
 339.984 794.18 c 339.48 794.941 339.078 795.871 338.773 796.969 c 338.469
 798.066 338.316 799.285 338.316 800.625 c 338.316 802.312 338.516 803.762
 338.91 804.965 c 339.309 806.168 339.816 807.148 340.441 807.91 c 341.066
 808.672 341.758 809.238 342.52 809.602 c 343.281 809.953 344.027 810.137
 344.758 810.152 c 345.492 810.152 346.184 809.984 346.84 809.648 c 347.492
 809.297 348.148 808.781 348.805 808.094 c 348.805 797.266 l f
487.418 696.02 m 485.695 698.289 484.027 699.426 482.414 699.426 c 482.078
 699.426 481.758 699.371 481.453 699.266 c 481.164 699.156 480.906 698.977
 480.676 698.715 c 480.465 698.457 480.289 698.113 480.152 697.688 c 480.031
 697.246 479.969 696.691 479.969 696.02 c 479.055 696.734 478.293 697.324
 477.684 697.781 c 477.09 698.223 476.559 698.562 476.086 698.809 c 475.629
 699.051 475.188 699.211 474.758 699.289 c 474.348 699.379 473.867 699.426
 473.32 699.426 c 472.574 699.426 471.895 699.297 471.285 699.035 c 470.68
 698.793 470.152 698.441 469.711 697.984 c 469.27 697.512 468.926 696.949
 468.684 696.293 c 468.438 695.625 468.316 694.887 468.316 694.078 c 468.316
 693.301 468.453 692.562 468.727 691.863 c 469.02 691.16 469.582 690.461
 470.418 689.762 c 471.258 689.043 472.438 688.312 473.961 687.566 c 475.484
 686.82 477.484 686.023 479.969 685.168 c 479.969 684.301 l 479.969 683.297
 479.883 682.449 479.719 681.766 c 479.566 681.078 479.328 680.523 479.008
 680.098 c 478.688 679.656 478.285 679.344 477.797 679.16 c 477.312 678.961
 476.73 678.863 476.062 678.863 c 475.102 678.863 474.348 679.113 473.801
 679.617 c 473.25 680.105 472.953 680.707 472.91 681.422 c 472.953 682.793
 l 472.984 683.449 472.816 683.973 472.453 684.367 c 472.102 684.75 471.637
 684.941 471.059 684.941 c 470.449 684.941 469.977 684.75 469.641 684.367
 c 469.309 683.973 469.141 683.434 469.141 682.746 c 469.141 681.926 469.344
 681.195 469.758 680.555 c 470.184 679.898 470.746 679.352 471.445 678.91
 c 472.164 678.453 472.977 678.109 473.891 677.883 c 474.82 677.637 475.789
 677.516 476.793 677.516 c 478.301 677.516 479.512 677.684 480.426 678.02
 c 481.355 678.336 482.07 678.809 482.574 679.434 c 483.074 680.043 483.402
 680.789 483.555 681.672 c 483.723 682.559 483.805 683.547 483.805 684.645
 c 483.805 691.77 l 483.805 692.746 483.82 693.547 483.852 694.172 c 483.883
 694.793 483.906 695.215 483.922 695.426 c 483.996 695.836 484.109 696.129
 484.262 696.293 c 484.414 696.461 484.637 696.547 484.926 696.547 c 485.062
 696.547 485.191 696.531 485.312 696.5 c 485.438 696.453 485.582 696.371
 485.75 696.25 c 485.914 696.129 486.129 695.945 486.387 695.699 c 486.648
 695.457 486.988 695.121 487.418 694.695 c 487.418 696.02 l 479.969 686.516
 m 478.203 687.203 476.801 687.836 475.766 688.414 c 474.746 688.977 473.969
 689.516 473.434 690.035 c 472.902 690.551 472.559 691.055 472.406 691.543
 c 472.27 692.016 472.199 692.504 472.199 693.004 c 472.199 693.555 472.285
 694.055 472.453 694.512 c 472.621 694.969 472.84 695.375 473.113 695.723
 c 473.402 696.059 473.738 696.324 474.121 696.523 c 474.516 696.723 474.934
 696.828 475.375 696.844 c 475.969 696.875 476.641 696.691 477.387 696.293
 c 478.148 695.898 479.008 695.312 479.969 694.535 c 479.969 686.516 l f
664.508 381.441 m 664.508 382.34 664.41 383.254 664.211 384.184 c 664.031
 385.098 663.746 385.98 663.367 386.832 c 662.984 387.688 662.508 388.484
 661.93 389.23 c 661.348 389.977 660.68 390.633 659.918 391.195 c 659.156
 391.746 658.297 392.18 657.336 392.5 c 656.375 392.816 655.324 392.977 
654.184 392.977 c 652.723 392.977 651.379 392.68 650.164 392.086 c 648.961
 391.492 647.914 390.695 647.031 389.688 c 646.164 388.684 645.488 387.52
 645 386.191 c 644.527 384.867 644.289 383.48 644.289 382.035 c 644.289 
380.617 644.52 379.242 644.977 377.898 c 645.449 376.543 646.117 375.34 
646.988 374.289 c 647.871 373.238 648.938 372.395 650.184 371.754 c 651.434
 371.098 652.844 370.773 654.41 370.773 c 655.918 370.773 657.289 371.047
 658.523 371.594 c 659.758 372.145 660.816 372.898 661.699 373.855 c 662.598
 374.816 663.289 375.949 663.777 377.262 c 664.266 378.555 664.508 379.949
 664.508 381.441 c 660.238 383.199 m 660.238 381.648 660.086 380.199 659.781
 378.859 c 659.477 377.52 659.043 376.363 658.477 375.387 c 657.914 374.398
 657.23 373.621 656.422 373.059 c 655.613 372.492 654.707 372.211 653.703
 372.211 c 653.109 372.211 652.5 372.34 651.875 372.602 c 651.266 372.859
 650.711 373.293 650.207 373.902 c 649.707 374.512 649.293 375.324 648.973
 376.348 c 648.668 377.352 648.516 378.617 648.516 380.141 c 648.516 381.633
 648.668 383.055 648.973 384.41 c 649.293 385.766 649.742 386.953 650.32
 387.977 c 650.902 388.996 651.594 389.809 652.402 390.418 c 653.223 391.012
 654.137 391.309 655.145 391.309 c 655.902 391.309 656.598 391.172 657.223
 390.898 c 657.848 390.609 658.379 390.145 658.82 389.504 c 659.262 388.867
 659.605 388.027 659.848 386.992 c 660.109 385.957 660.238 384.691 660.238
 383.199 c f
625.344 463.551 m 625.359 465.211 625.102 466.719 624.566 468.074 c 624.051
 469.43 623.332 470.594 622.418 471.566 c 621.508 472.543 620.441 473.297
 619.223 473.828 c 618.02 474.363 616.73 474.629 615.359 474.629 c 613.305
 474.629 611.605 474.09 610.266 473.008 c 609.609 472.473 609.109 471.926
 608.758 471.363 c 608.406 470.785 608.234 470.203 608.234 469.625 c 608.234
 469.094 608.414 468.637 608.781 468.254 c 609.145 467.875 609.695 467.684
 610.426 467.684 c 610.652 467.684 610.898 467.707 611.156 467.754 c 611.43
 467.797 611.691 467.914 611.934 468.094 c 612.191 468.277 612.406 468.551
 612.574 468.918 c 612.758 469.27 612.871 469.754 612.914 470.379 c 612.992
 471.203 613.281 471.871 613.785 472.391 c 614.285 472.895 615.07 473.145
 616.137 473.145 c 617.004 473.145 617.773 472.953 618.445 472.574 c 619.129
 472.176 619.699 471.637 620.156 470.949 c 620.629 470.266 620.988 469.457
 621.23 468.531 c 621.492 467.602 621.621 466.602 621.621 465.535 c 621.621
 464.305 621.469 463.113 621.164 461.973 c 620.875 460.832 620.441 459.824
 619.859 458.957 c 619.281 458.074 618.566 457.371 617.715 456.855 c 616.875
 456.336 615.91 456.078 614.812 456.078 c 614.188 456.078 613.578 456.156
 612.984 456.309 c 612.406 456.445 611.844 456.711 611.293 457.105 c 610.762
 457.504 610.242 458.043 609.742 458.727 c 609.254 459.414 608.781 460.297
 608.324 461.379 c 607.707 461.059 l 607.922 459.793 608.301 458.637 608.848
 457.586 c 609.398 456.52 610.059 455.605 610.836 454.844 c 611.629 454.082
 612.504 453.488 613.465 453.062 c 614.422 452.637 615.414 452.422 616.434
 452.422 c 617.668 452.422 618.816 452.691 619.883 453.223 c 620.965 453.742
 621.91 454.488 622.715 455.461 c 623.523 456.422 624.156 457.586 624.613
 458.957 c 625.086 460.328 625.328 461.859 625.344 463.551 c f
539.777 166.684 m 538.75 166.684 l 538.75 162.203 l 537.867 163.133 537.09
 163.887 536.422 164.465 c 535.766 165.047 535.164 165.504 534.617 165.836
 c 534.082 166.156 533.578 166.379 533.109 166.5 c 532.637 166.621 532.148
 166.684 531.645 166.684 c 530.84 166.684 530.137 166.555 529.543 166.293
 c 528.965 166.051 528.469 165.723 528.059 165.312 c 527.664 164.887 527.344
 164.398 527.098 163.852 c 526.855 163.301 526.664 162.73 526.527 162.137
 c 526.406 161.527 526.324 160.91 526.277 160.285 c 526.246 159.66 526.23
 159.074 526.23 158.527 c 526.23 149.16 l 526.23 148.477 526.172 147.918
 526.047 147.492 c 525.926 147.066 525.723 146.738 525.434 146.512 c 525.156
 146.281 524.793 146.129 524.336 146.055 c 523.879 145.961 523.32 145.914
 522.668 145.914 c 522.668 145.07 l 530.047 145.07 l 530.047 159.074 l 530.047
 159.668 530.086 160.254 530.16 160.836 c 530.238 161.398 530.398 161.906
 530.641 162.363 c 530.898 162.805 531.258 163.164 531.715 163.438 c 532.172
 163.711 532.773 163.852 533.52 163.852 c 533.824 163.852 534.152 163.805
 534.5 163.711 c 534.867 163.621 535.262 163.461 535.688 163.234 c 536.133
 163.004 536.602 162.699 537.105 162.32 c 537.609 161.938 538.156 161.457
 538.75 160.879 c 538.75 148.977 l 538.75 148.336 538.684 147.828 538.547
 147.445 c 538.422 147.051 538.227 146.746 537.949 146.531 c 537.676 146.305
 537.328 146.152 536.898 146.074 c 536.473 145.984 535.965 145.93 535.371
 145.914 c 535.371 145.07 l 542.566 145.07 l 542.566 160.445 l 542.566 161.07
 542.59 161.59 542.633 162 c 542.695 162.395 542.777 162.715 542.887 162.957
 c 543.008 163.203 543.16 163.371 543.344 163.461 c 543.527 163.555 543.738
 163.598 543.984 163.598 c 544.195 163.598 544.469 163.574 544.805 163.531
 c 545.141 163.469 545.477 163.379 545.809 163.258 c 546.129 164.055 l 539.777
 166.684 l f
564.316 257.633 m 563.57 257.633 562.988 257.672 562.578 257.746 c 562.184
 257.824 561.887 257.93 561.688 258.066 c 561.488 258.203 561.367 258.371
 561.324 258.57 c 561.293 258.75 561.277 258.957 561.277 259.184 c 561.277
 259.629 561.344 260.039 561.48 260.418 c 561.621 260.785 561.793 261.148
 562.008 261.516 c 562.223 261.883 562.449 262.262 562.691 262.656 c 562.938
 263.055 563.164 263.496 563.379 263.984 c 563.59 264.469 563.766 265.02
 563.902 265.629 c 564.043 266.223 564.109 266.914 564.109 267.707 c 564.109
 269.047 563.895 270.355 563.469 271.637 c 563.043 272.902 562.402 274.027
 561.551 275.02 c 560.699 275.992 559.641 276.777 558.375 277.371 c 557.109
 277.965 555.641 278.262 553.965 278.262 c 552.199 278.262 550.676 277.965
 549.398 277.371 c 548.133 276.777 547.09 275.992 546.266 275.02 c 545.461
 274.027 544.859 272.902 544.461 271.637 c 544.082 270.355 543.891 269.047
 543.891 267.707 c 543.891 266.914 543.961 266.223 544.098 265.629 c 544.234
 265.02 544.41 264.469 544.621 263.984 c 544.836 263.496 545.062 263.055
 545.309 262.656 c 545.551 262.262 545.781 261.883 545.992 261.516 c 546.207
 261.148 546.383 260.785 546.52 260.418 c 546.656 260.039 546.723 259.629
 546.723 259.184 c 546.723 258.957 546.699 258.75 546.656 258.57 c 546.625
 258.371 546.512 258.203 546.312 258.066 c 546.113 257.93 545.809 257.824
 545.398 257.746 c 544.988 257.672 544.41 257.633 543.664 257.633 c 543.664
 256.648 l 550.219 256.648 l 550.035 257.031 549.824 257.496 549.578 258.043
 c 549.336 258.59 549.109 259.262 548.895 260.055 c 548.68 260.832 548.5
 261.766 548.348 262.863 c 548.195 263.945 548.117 265.23 548.117 266.727
 c 548.117 268.43 548.277 269.914 548.598 271.18 c 548.934 272.445 549.367
 273.488 549.898 274.309 c 550.449 275.133 551.07 275.742 551.773 276.137
 c 552.488 276.531 553.219 276.723 553.965 276.707 c 554.773 276.707 555.527
 276.512 556.227 276.113 c 556.945 275.703 557.566 275.094 558.102 274.285
 c 558.633 273.465 559.055 272.43 559.359 271.18 c 559.676 269.914 559.836
 268.43 559.836 266.727 c 559.836 265.035 559.762 263.633 559.609 262.52
 c 559.457 261.41 559.273 260.48 559.062 259.734 c 558.848 258.988 558.613
 258.387 558.352 257.93 c 558.109 257.457 557.895 257.031 557.711 256.648
 c 564.316 256.648 l 564.316 257.633 l f
486.395 463.473 m 486.395 465.254 486.152 466.848 485.664 468.246 c 485.191
 469.648 484.523 470.836 483.652 471.812 c 482.801 472.785 481.781 473.531
 480.594 474.051 c 479.406 474.566 478.102 474.828 476.688 474.828 c 475.543
 474.828 474.477 474.629 473.488 474.234 c 472.512 473.852 471.668 473.297
 470.953 472.566 c 470.234 471.836 469.672 470.945 469.262 469.891 c 468.867
 468.84 468.668 467.652 468.668 466.328 c 483.176 466.328 l 483.176 464.773
 482.969 463.383 482.559 462.148 c 482.145 460.914 481.59 459.871 480.891
 459.02 c 480.188 458.164 479.375 457.512 478.445 457.055 c 477.516 456.598
 476.543 456.367 475.52 456.367 c 474.852 456.352 474.219 456.43 473.625
 456.598 c 473.047 456.75 472.504 457.016 472.004 457.395 c 471.5 457.777
 471.027 458.293 470.586 458.949 c 470.16 459.59 469.758 460.387 469.375
 461.348 c 468.668 460.914 l 468.836 459.879 469.148 458.867 469.605 457.875
 c 470.062 456.887 470.656 455.996 471.387 455.203 c 472.133 454.41 473 
453.777 473.992 453.305 c 474.98 452.82 476.078 452.574 477.281 452.574 
c 478.516 452.574 479.68 452.836 480.777 453.352 c 481.887 453.855 482.855
 454.578 483.676 455.523 c 484.516 456.465 485.176 457.609 485.664 458.949
 c 486.152 460.289 486.395 461.797 486.395 463.473 c 473.465 467.609 m 473.465
 468.75 473.625 469.688 473.945 470.418 c 474.281 471.148 474.684 471.719
 475.156 472.133 c 475.629 472.543 476.121 472.824 476.641 472.977 c 477.16
 473.129 477.609 473.207 477.988 473.207 c 478.598 473.207 479.191 473.082
 479.77 472.84 c 480.363 472.598 480.898 472.238 481.371 471.766 c 481.844
 471.293 482.238 470.707 482.559 470.008 c 482.879 469.305 483.082 468.508
 483.176 467.609 c 473.465 467.609 l f
Q Q
showpage
%%Trailer
end
%%EOF
