<?xml version="1.0" encoding="utf-8"?>
<!-- Generator: Adobe Illustrator 20.1.0, SVG Export Plug-In . SVG Version: 6.00 Build 0)  -->
<svg version="1.1" id="Layer_1" xmlns="http://www.w3.org/2000/svg" xmlns:xlink="http://www.w3.org/1999/xlink" x="0px" y="0px"
	 viewBox="0 0 315.2 170.7" style="enable-background:new 0 0 315.2 170.7;" xml:space="preserve">
<style type="text/css">
	.st0{fill:#4b1863;}
</style>
<path class="st0" d="M18.7,98.6c-1,6.1-6.3,8.8-11.4,7.1c-4.5-1.5-8.2-5.3-7.2-10.9c1-5.9,1-13.1,0-19c-0.7-4,1.3-8.1,7.1-10.6
	c5.1-2.2,10.4,0.6,11.5,7.3c0.2,0.9,0.3,1.8,0.4,2.7c-1.9,0.3-3.9,0.7-5.8,1c-0.1-0.7-0.2-1.4-0.3-2.1c-0.4-2.4-2.2-4-4.4-3.4
	c-2.8,0.9-3.1,2.9-2.7,5.4C7,82.4,7,88.8,6,95.1c-0.3,2.1,0.2,4,2.7,4.8c1.5,0.5,3.8,0.2,4.4-3.2c0.1-0.7,0.2-1.4,0.3-2.1
	c1.9,0.3,3.9,0.7,5.8,1C19,96.7,18.9,97.6,18.7,98.6"/>
<path class="st0" d="M29.4,89.7C27.2,78.8,23.1,69.1,17.7,61c1.9-0.8,3.9-1.7,5.8-2.5c3.7,6.3,6.7,13.3,8.7,20.9c0,0,0.1,0,0.1,0
	c1.1-7.8,1.2-16.2,0.1-24.7c1.9-0.8,3.9-1.7,5.8-2.5c1.5,13.6,0.3,26.4-3,37.9c-0.4,8.5-1.9,17.1-4.6,25.3c-1.8-0.8-3.7-1.6-5.5-2.4
	C27.6,105.4,29,97.6,29.4,89.7"/>
<path class="st0" d="M41.8,50.6c1.8-0.8,3.5-1.5,5.3-2.3c6.4,11.7,11,25,13.3,39.4c0,0,0.1,0,0.1,0c2.7-14.3,3.2-29.7,0.8-45.5
	c1.8-0.8,3.5-1.5,5.3-2.3c9.4,29.5,9.4,61.3,0,90.8c-1.8-0.8-3.7-1.6-5.5-2.4c5.4-17,7.6-34.8,6.4-52.5c0,0-0.1,0-0.1,0
	c-1.1,12.6-3.9,24.6-8.1,35.8c-0.9-0.3-1.9-0.5-2.8-0.8c0.4-11.8-0.8-23.1-3.5-33.7l-0.1,0c1,15.2-0.8,30.6-5.5,45.2
	c-1.8-0.8-3.7-1.6-5.5-2.4C49,97.5,49,73.2,41.8,50.6"/>
<path class="st0" d="M86.3,79.9c1.1,0,2.2-0.1,3.3-0.1c4-0.1,4.7-6.3,3.3-17.1c-1.5-11-3.7-16.6-7.8-15.3c-1,0.3-2,0.6-2.9,0.9
	C84.5,58.7,85.9,69.3,86.3,79.9 M73,37.1c2.9-1.3,5.9-2.5,8.8-3.8c6.2-3,13.9,6.5,16.9,28.6c1.6,13,0.2,22.8-3.6,28.2
	c1.7,16.7,0.9,34.2-2.5,51.9c-1.9-0.8-3.9-1.7-5.8-2.5c3.1-15.8,4-31.4,2.8-46.5c-1.2-0.1-2.3-0.1-3.5-0.2
	c-0.7,14.6-3.2,29.1-7.7,43.1c-1.8-0.8-3.7-1.6-5.5-2.4C83,102.2,83,68.5,73,37.1"/>
<path class="st0" d="M115,58.4c0,0-0.1,0-0.1,0c1.1,15.4,0.4,30.7-2,45.7c1.9,0.2,3.9,0.5,5.8,0.7C119.2,89.1,118,73.5,115,58.4
	 M104.7,23.5c1.5-0.7,3-1.3,4.6-2c16.1,40.3,19.7,86.2,8.6,131.4c-1.8-0.8-3.7-1.6-5.5-2.4c2.4-9.3,4.1-18.7,5.2-28.1
	c-2.6-0.6-5.2-1.2-7.8-1.9c-2.1,8.6-4.8,17.1-8,25.3c-1.8-0.8-3.7-1.6-5.5-2.4C111,107,114.7,65,104.7,23.5"/>
<path class="st0" d="M123.2,15.5c5.4-2.3,10.9-4.7,16.3-7c2.2,6.7,4,13.6,5.6,20.4c-3.7,1.1-7.5,2.3-11.2,3.4
	c3.3,14.6,5.3,29.3,5.8,44.2c3.4-0.2,6.7-0.3,10.1-0.5c0.2,5.8,0.2,11.6,0,17.4c-3.4-0.1-6.7-0.3-10.1-0.4
	c-0.5,14.8-2.3,29.6-5.6,44.2c3.7,1.1,7.5,2.2,11.2,3.4c-1.6,7.3-3.6,14.5-5.9,21.7c-5.4-2.3-10.9-4.7-16.3-7
	C137.7,109.8,137.7,61,123.2,15.5"/>
<path class="st0" d="M155.2,42.9C150.8,17,150.4,2.4,155,0.2c4.2-2.1,14.5,9.6,19.5,38.4c0.5,3,0.9,5.9,1.3,8.9
	c-1.9,0.3-3.9,0.7-5.8,1c-0.4-2.9-0.8-5.8-1.3-8.7c-2-11.8-5.2-16.7-7.2-16.1c-2.1,0.7-2.5,6.5-0.6,17.8c4.8,29,4.8,58.6,0,87.5
	c-1.9,11.3-1.3,16,0.9,16.3c1.9,0.3,4.6-2.9,6.6-14.7c2-12.1,3.4-24.3,3.8-36.4c-1.5-0.1-3.1-0.1-4.6-0.2c0.2-6.4,0.2-12.7-0.1-19.1
	c3.5-0.2,7-0.3,10.5-0.5c0.7,19.2-0.5,38.5-3.6,57.5c-5,28.9-15.3,40.5-19.5,38.4c-4.6-2.1-4.2-16.8,0.2-42.6
	C159.8,99.7,159.8,71,155.2,42.9"/>
<path class="st0" d="M229.6,52.8c6.9,0,11.7,4.5,11.7,11c0,6.5-4.8,11-11.9,11h-9.3v-22H229.6z M225.7,70.4h4c3.4,0,5.9-2.6,5.9-6.5
	c0-3.9-2.6-6.6-6.1-6.6h-3.7V70.4z"/>
<path class="st0" d="M253.1,76.6c-1.3,3.1-3.4,4.6-6.5,4.6c-1.9,0-3.4-0.6-4.9-1.7l2.3-3.7c0.8,0.6,1.4,0.9,2.2,0.9
	c1,0,1.7-0.4,2.1-1.4l0.4-0.8l-7-16.6h5.6l4.2,11.3l3.7-11.3h5.4L253.1,76.6z"/>
<path class="st0" d="M275.2,59.6l-1.9,3.5c-2-1.1-3.9-1.7-5.3-1.7c-1,0-1.7,0.4-1.7,1.2c0,2.3,8.9,1.2,8.9,7.1
	c0,3.5-3.1,5.4-7.1,5.4c-2.8,0-5.6-0.8-7.6-2.4l1.7-3.5c1.9,1.4,4.1,2.1,6,2.1c1.1,0,1.9-0.4,1.9-1.2c0-2.5-8.8-1.2-8.7-7.1
	c0-3.5,3-5.4,6.9-5.4C270.7,57.6,273.2,58.3,275.2,59.6z"/>
<path class="st0" d="M294.5,73.3c0,4.8-3.7,7.9-9.2,7.9c-3,0-5.6-0.9-7.6-2.2l1.9-3.7c1.5,1.1,3.4,1.7,5.3,1.7
	c2.6,0,4.2-1.4,4.2-3.5v-1.8c-1.1,1.4-2.8,2.3-4.9,2.3c-4.3,0-7.3-3.3-7.3-8.2c0-4.8,2.9-8,7.2-8c2.2,0,3.9,0.8,5,2.3v-2.1h5.4V73.3
	z M289.1,65.9c0-2.5-1.4-4.2-3.5-4.2c-2.1,0-3.6,1.7-3.6,4.2c0,2.4,1.4,4.1,3.6,4.1C287.7,70,289.1,68.3,289.1,65.9z"/>
<path class="st0" d="M315.2,74.9h-5.4v-2.8c-1.2,2-3.1,3-5.5,3c-3.7,0-6.1-2.5-6.1-6.5V57.9h5.4V67c0,2,1.1,3.2,2.8,3.2
	c2.1,0,3.3-1.7,3.3-4v-8.4h5.4V74.9z"/>
<path class="st0" d="M234.1,107.1v3.4h-13.2v-22h3.7v18.7H234.1z"/>
<path class="st0" d="M252.1,103.5h-12.6c0.6,2.6,2.5,4.2,5.2,4.2c1.8,0,3.5-0.7,4.7-2l1.9,2c-1.6,1.8-4,2.8-6.9,2.8
	c-5.2,0-8.6-3.4-8.6-8.5c0-5.1,3.5-8.5,8.5-8.5C250.2,93.6,252.6,97.4,252.1,103.5z M249,100.8c-0.1-2.7-1.9-4.3-4.7-4.3
	c-2.6,0-4.5,1.7-4.9,4.3H249z"/>
<path class="st0" d="M265.9,108.4c-1.2,1.5-3.1,2.2-5.5,2.2c-3.6,0-5.9-2.2-5.9-5.2c0-3.1,2.3-5,6.3-5h5.1v-0.5c0-2.1-1.4-3.4-4-3.4
	c-1.6,0-3.3,0.6-4.9,1.7l-1.5-2.5c2.3-1.4,4-2.1,7.2-2.1c4.3,0,6.7,2.2,6.8,5.9l0,11h-3.6V108.4z M265.9,104.6V103h-4.5
	c-2.4,0-3.5,0.6-3.5,2.2c0,1.5,1.2,2.5,3.2,2.5C263.7,107.7,265.7,106.4,265.9,104.6z"/>
<path class="st0" d="M277.9,97c1.1-2.3,3.1-3.5,5.8-3.5V97c-3.4-0.2-5.5,1.8-5.8,4.7v8.7h-3.6V93.7h3.6V97z"/>
<path class="st0" d="M302.7,100v10.4h-3.6V101c0-2.5-1.5-4.1-4-4.1c-2.8,0-4.5,2-4.8,4.6v8.9h-3.6V93.7h3.6v3.2
	c1.2-2.3,3.3-3.3,6.2-3.3C300.4,93.6,302.7,96,302.7,100z"/>
</svg>
