%!PS-Adobe-3.0 EPSF-3.0
%%Creator: cairo 1.17.3 (https://cairographics.org)
%%CreationDate: Sat May 23 17:46:56 2020
%%Pages: 1
%%DocumentData: Clean7Bit
%%LanguageLevel: 2
%%BoundingBox: 11 2 169 39
%%EndComments
%%BeginProlog
50 dict begin
/q { gsave } bind def
/Q { grestore } bind def
/cm { 6 array astore concat } bind def
/w { setlinewidth } bind def
/J { setlinecap } bind def
/j { setlinejoin } bind def
/M { setmiterlimit } bind def
/d { setdash } bind def
/m { moveto } bind def
/l { lineto } bind def
/c { curveto } bind def
/h { closepath } bind def
/re { exch dup neg 3 1 roll 5 3 roll moveto 0 rlineto
      0 exch rlineto 0 rlineto closepath } bind def
/S { stroke } bind def
/f { fill } bind def
/f* { eofill } bind def
/n { newpath } bind def
/W { clip } bind def
/W* { eoclip } bind def
/BT { } bind def
/ET { } bind def
/BDC { mark 3 1 roll /BDC pdfmark } bind def
/EMC { mark /EMC pdfmark } bind def
/cairo_store_point { /cairo_point_y exch def /cairo_point_x exch def } def
/Tj { show currentpoint cairo_store_point } bind def
/TJ {
  {
    dup
    type /stringtype eq
    { show } { -0.001 mul 0 cairo_font_matrix dtransform rmoveto } ifelse
  } forall
  currentpoint cairo_store_point
} bind def
/cairo_selectfont { cairo_font_matrix aload pop pop pop 0 0 6 array astore
    cairo_font exch selectfont cairo_point_x cairo_point_y moveto } bind def
/Tf { pop /cairo_font exch def /cairo_font_matrix where
      { pop cairo_selectfont } if } bind def
/Td { matrix translate cairo_font_matrix matrix concatmatrix dup
      /cairo_font_matrix exch def dup 4 get exch 5 get cairo_store_point
      /cairo_font where { pop cairo_selectfont } if } bind def
/Tm { 2 copy 8 2 roll 6 array astore /cairo_font_matrix exch def
      cairo_store_point /cairo_font where { pop cairo_selectfont } if } bind def
/g { setgray } bind def
/rg { setrgbcolor } bind def
/d1 { setcachedevice } bind def
/cairo_data_source {
  CairoDataIndex CairoData length lt
    { CairoData CairoDataIndex get /CairoDataIndex CairoDataIndex 1 add def }
    { () } ifelse
} def
/cairo_flush_ascii85_file { cairo_ascii85_file status { cairo_ascii85_file flushfile } if } def
/cairo_image { image cairo_flush_ascii85_file } def
/cairo_imagemask { imagemask cairo_flush_ascii85_file } def
%%EndProlog
%%BeginSetup
%%EndSetup
%%Page: 1 1
%%BeginPageSetup
%%PageBoundingBox: 11 2 169 39
%%EndPageSetup
q 11 2 158 37 rectclip
1 0 0 -1 0 42 cm q
0 0.282353 0.466667 rg
75.676 28.727 m 73.574 28.727 l 73.051 26.551 l 71.375 28.309 69.027 29.266
 66.602 29.176 c 59.477 29.176 56.625 25.125 56.625 20.477 c 56.625 15.824
 59.625 11.773 66.449 11.773 c 71.625 11.773 74.852 14.324 75.301 17.551
 c 71.551 17.551 l 70.875 15.301 68.773 14.398 66.449 14.398 c 62.102 14.398
 60.375 17.023 60.375 20.625 c 60.375 24.227 63.301 26.625 66.227 26.625
 c 69.148 26.625 71.477 24.977 72.074 22.273 c 67.352 22.273 l 67.352 19.648
 l 75.676 19.648 l h
75.676 28.727 m f
78.824 12 3.301 16.727 re f
92.102 16.051 m 97.727 16.051 99.898 19.273 99.898 22.648 c 99.898 26.023
 97.727 29.25 92.102 29.25 c 86.477 29.25 84.301 26.023 84.301 22.648 c 
84.301 19.273 86.477 16.051 92.102 16.051 c h
92.102 26.773 m 95.25 26.773 96.449 24.75 96.449 22.648 c 96.449 20.551
 95.25 18.523 92.102 18.523 c 88.949 18.523 87.75 20.551 87.75 22.648 c 
87.75 24.75 88.875 26.773 92.102 26.773 c h
92.102 26.773 m f
104.852 24.898 m 104.926 26.773 107.102 27 108.301 27 c 109.5 27 111.676
 26.551 111.676 25.426 c 111.676 24.301 111.148 24.148 107.625 23.699 c 
104.102 23.25 101.699 22.727 101.699 19.949 c 101.699 17.176 105.898 15.977
 108 15.977 c 110.102 15.977 114.602 16.273 114.824 20.176 c 111.449 20.176
 l 111.227 18.375 108.977 18.148 107.926 18.148 c 106.875 18.148 105.074
 18.898 105.074 19.574 c 105.074 20.25 105.375 20.699 108.523 21.148 c 111.676
 21.602 115.352 22.125 115.352 24.977 c 115.352 27.824 112.273 29.176 108.375
 29.176 c 105.676 29.176 101.477 28.648 101.324 24.898 c h
104.852 24.898 m f
120.227 24.898 m 120.301 26.773 122.477 27 123.676 27 c 124.875 27 127.051
 26.551 127.051 25.426 c 127.051 24.301 126.523 24.148 123 23.699 c 119.477
 23.25 117.074 22.727 117.074 19.949 c 117.074 17.176 121.273 15.977 123.375
 15.977 c 125.477 15.977 129.977 16.273 130.199 20.176 c 126.75 20.176 l
 126.523 18.375 124.273 18.148 123.227 18.148 c 122.176 18.148 120.375 18.898
 120.375 19.574 c 120.375 20.25 120.676 20.699 123.824 21.148 c 126.977 
21.602 130.648 22.125 130.648 24.977 c 130.648 27.824 127.574 29.176 123.676
 29.176 c 120.977 29.176 116.773 28.648 116.625 24.898 c h
120.227 24.898 m f
132.75 12 m 136.051 12 l 136.051 14.551 l 132.75 14.551 l h
132.75 16.5 m 136.051 16.5 l 136.051 28.727 l 132.75 28.727 l h
132.75 16.5 m f
138.824 12 m 142.125 12 l 142.125 21.375 l 147.898 16.5 l 152.551 16.5 
l 146.773 21.148 l 153 28.727 l 148.574 28.727 l 144.148 23.176 l 142.051
 24.75 l 142.051 28.727 l 138.75 28.727 l 138.75 12 l h
138.824 12 m f
167.176 25.949 m 167.121 26.344 167.457 26.68 167.852 26.625 c 168.898 
26.625 l 168.898 28.875 l 168.137 29.062 167.359 29.16 166.574 29.176 c 
164.477 29.176 164.176 28.051 164.102 27.602 c 164.023 27.148 161.852 29.25
 158.176 29.25 c 154.5 29.25 153.074 27.824 153.074 25.426 c 153.074 23.023
 156.602 21.75 158.699 21.602 c 163.426 21.148 163.875 21 163.875 20.023
 c 163.875 19.051 162.227 18.301 160.352 18.301 c 158.477 18.301 157.051
 18.977 156.898 20.324 c 153.676 20.324 l 154.125 17.102 156.602 16.125 
160.273 16.125 c 166.875 16.125 167.023 18.676 167.023 20.25 c 167.023 26.023
 l h
163.875 22.648 m 162.898 23.023 161.926 23.176 159.602 23.398 c 157.273
 23.625 156.523 24.227 156.523 25.273 c 156.523 26.324 158.023 27.227 159.148
 27.227 c 160.273 27.227 163.875 26.551 163.875 23.852 c h
163.875 22.648 m f
0.121569 0.313726 0.490196 rg
12.523 20.773 m 11.398 24.898 l 13.426 27.977 l 12.676 24.148 l h
12.523 20.773 m f
0.858824 0.862745 0.862745 rg
44.398 21.676 m 44.852 30.074 36.676 33 27.375 33.449 c 18.074 33.898 12.898
 31.5 12.523 23.102 c 12.148 14.699 17.773 7.875 27.074 7.5 c 36.375 7.125
 44.023 13.273 44.398 21.676 c h
44.398 21.676 m f
20.477 39.375 m 45.523 33.602 l 44.324 21.375 l 15.227 32.699 l 14.852 
34.574 l 20.477 39.375 l f
0.968627 g
20.398 31.125 m 20.398 31.125 20.324 33.301 20.324 34.273 c 20.324 35.25
 20.477 39.375 20.477 39.375 c 14.773 34.574 l 15.227 31.875 l 15.227 31.875
 12.375 28.574 12.375 21.824 c 12.375 12.375 20.625 8.852 20.625 8.852 c
 21.148 22.273 l h
20.398 31.125 m f
0.929412 0.690196 0.2 rg
19.574 21.227 m 19.359 22.84 17.773 23.898 16.199 23.477 c 14.652 22.941
 13.773 21.312 14.176 19.727 c 14.391 18.109 15.977 17.055 17.551 17.477
 c 19.098 18.008 19.977 19.641 19.574 21.227 c h
19.574 21.227 m f
0.156863 0.364706 0.521569 rg
17.926 18.602 m 18.66 19.348 18.754 20.516 18.148 21.375 c 17.562 22.184
 16.398 22.289 15.676 21.602 c 14.941 20.852 14.844 19.684 15.449 18.824
 c 16.035 18.016 17.203 17.91 17.926 18.602 c h
17.926 18.602 m f
1 g
16.875 19.648 m 17.137 19.91 17.168 20.324 16.949 20.625 c 16.734 20.918
 16.312 20.953 16.051 20.699 c 15.789 20.438 15.754 20.023 15.977 19.727
 c 16.191 19.434 16.613 19.398 16.875 19.648 c h
16.875 19.648 m f
0.929412 0.690196 0.2 rg
34.125 18.523 m 35.047 20.637 34.023 23.094 31.875 23.926 c 29.762 24.816
 27.324 23.848 26.398 21.75 c 25.477 19.637 26.5 17.18 28.648 16.352 c 30.762
 15.457 33.199 16.426 34.125 18.523 c h
34.125 18.523 m f
0.156863 0.364706 0.521569 rg
30.121 17.172 m 31.609 17.258 32.746 18.5 32.664 19.949 c 32.582 21.398
 31.305 22.5 29.816 22.414 c 28.328 22.328 27.191 21.086 27.273 19.637 c
 27.355 18.191 28.633 17.086 30.121 17.172 c h
30.121 17.172 m f
1 g
29.707 18.812 m 30.246 18.844 30.656 19.305 30.625 19.84 c 30.594 20.379
 30.133 20.789 29.598 20.758 c 29.059 20.727 28.648 20.266 28.68 19.73 c
 28.711 19.191 29.172 18.781 29.707 18.812 c h
29.707 18.812 m f
0.968627 g
14.023 16.051 m 19.949 22.648 l 21.227 23.773 l 20.773 14.699 l h
14.023 16.051 m f
0.858824 0.862745 0.862745 rg
33.676 15.75 m 20.926 14.699 l 20.773 14.699 l 20.699 23.773 l 22.5 22.727
 l h
33.676 15.75 m f
0.929412 0.690196 0.2 rg
20.699 22.426 m 20.699 22.426 19.199 22.199 18.676 25.273 c 18.148 28.352
 20.477 31.199 20.477 31.199 c 22.875 25.426 l h
20.699 22.426 m f
0 0.282353 0.466667 rg
20.773 8.699 m 22.578 7.82 24.547 7.332 26.551 7.273 c 28.711 7.125 30.883
 7.273 33 7.727 c 20.699 22.426 l 17.398 17.023 l h
20.773 8.699 m f
0.156863 0.364706 0.521569 rg
20.324 3.227 m 20.324 3.227 14.926 6 14.102 10.801 c 13.273 15.602 20.699
 22.426 20.699 22.426 c 18.125 17.883 18.602 12.223 21.898 8.176 c h
20.324 3.227 m f
43.426 3.449 m 43.426 3.449 26.477 1.727 20.699 22.426 c 20.699 22.426 
28.5 17.023 31.5 15.449 c 34.5 13.875 39.676 11.773 39.676 11.773 c 41.332
 9.199 42.594 6.395 43.426 3.449 c h
43.426 3.449 m f
0.121569 0.313726 0.490196 rg
37.352 17.773 m 41.25 24 l 32.926 28.426 l 37.5 22.5 l h
37.352 17.773 m f
Q Q
showpage
%%Trailer
end
%%EOF
