@hp.jpg

* [Broliai][broliai] Mr {a} Mrs Dursley, {rhif} {pedwar} Privet Drive, {eu} {bod} {nhw}[’n][’n-pred] [deulu][teulu] [cwbl][cwbl-adv] {normal}, {diolch} [yn][yn-adv] [fawr][mawr] {iawn} {ichi}. * [Fyddai][byddai] {neb} [yn][yn-conv] {disgwyl} {iddyn} {nhw}, {o} [bawb][pawb], [fod][bod] [yn][yn-pred] {rhan} {o} [rywbeth][rhywbeth] {rhyfedd} {neu} {anesboniadwy}, {oherwydd} [d][d-neg][oedden][oedden-impf3pl] {nhw} [ddim][dim] [yn][yn-conv] {credu} [yn][yn-loc] {y} {ffasiwn} {rwdlmi-lol}.

* [Cyfarwyddwr][cyfarwyddwr] {cwmni} {cynhyrchu} {driliau} {o}{’r} {enw} Grunnings {oedd} Vernon Dursley, {dyn} {mawr}, {trwm} {â} {gwddf} {hynod} {o} [fyr][byr], {er} {bod} {ganddo} [fwstash][mwstash] {hir} {iawn}. * [Dynes][dynes] [denau][tenau] {â} {gwallt} {melyn} {oedd} Mrs Dursley. * [R][r+bod]{oedd} {ganddi} {hi} [bron][bron-adv] [ddwywaith][dwywaith] {y} {maint} {arferol} {o} [wddf][gwddf], {ac} [r][r+bod]{oedd} {hynny}[’n][’n-adv] {handi} {iawn} {gan} [ei][ei-f] {bod} {hi}[’n][’n-conv] {treulio} {cymaint} {o} {amser} [yn][yn-conv] {ymestyn} {dros} {waliau}{’r} [ardd][gardd], [yn][yn-conv] {sbecian} {ar} {y} {cymdogion}. * [R][r+bod]{oedd} {gan} {y} Dursleys [fab][mab] {bychan} {o}{’r} {enw} Dudley, {ac} [yn][yn-loc] {eu} {barn} {nhw} [d][d-neg]{oedd} {dim} {bachgen} {gwell} [yn][yn-conv] {bod}.

* [R][r+bod]{oedd} {gan} {y} Dursleys [bopeth][popeth] [r][r+bod]{oedd} {arnyn} {nhw}[’i][’i-m] {eisiau}, {ond} [r][r+bod]{oedd} {ganddyn} {nhw} {hefyd} [gyfrinach][cyfrinach], {a}{’u} [hofn][ofn] {mawr} {oedd} [y][y-nom] {byddai} {rhywun} [yn][yn-conv] [ei][ei-f] {darganfod}. * [D][d-neg][oedden][oedden-impf3pl] {nhw} [ddim][dim] [yn][yn-conv] [meddwl][meddwl-v] [y][y-nom] [medren][medren-impf3pl] {nhw} [ei][ei-m] [ddioddef][dioddef-v] {pe}[tai][tai-bod] {rhywun} [yn][yn-conv] {dod} [i][i-prep] [wybod][gwybod] {am} {y} Potters. * [R][r+bod]{oedd} Mrs Potter [yn][yn-pred] {chwaer} [i][i-prep] Mrs Dursley, {ond} [d][d-neg][oedden][oedden-impf3pl] {nhw} [ddim][dim] {wedi} {cyfarfod} {ers} {blynyddoedd}; {a} {dweud} {y} {gwir}, {cymerai} Mrs Dursley {arni} {nad} {oedd} {ganddi} {chwaer}, {oherwydd} [r][r+bod]{oedd} [ei][ei-f] {chwaer} {a}[’i][’i-f] {gŵr} {da}-[i][i-prep]-[ddim][dim] {mor} {an-}Ddursley[aidd][-aidd] {ag} [r][r+bod]{oedd} [yn][yn-pred] [bosib][posib] {bod}. * [Arswydai][arswydai]{’r} Dursleys {wrth} [feddwl][meddwl-v] {beth} [ddywedai][dywedai]{’r} {cymdogion} {pe}[tai][tai-bod]{’r} Potters [yn][yn-conv] {dod} [i][i-prep]{’r} {stryd}. * [Gwyddent][gwyddent] [fod][bod] {gan} {y} Potters {hefyd} [fab][mab] {bychan}, {ond} [d][d-neg][oedden][oedden-impf3pl] {nhw} {erioed} {wedi} [ei][ei-m] [weld][gweld]. * [R][r+bod]{oedd} {y} {bachgen} {hwn} [yn][yn-pred] {rheswm} {arall} {dros} [gadw][cadw]{’r} Potters {draw}; [d][d-neg][oedden][oedden-impf3pl] {nhw} [ddim][dim] {eisiau} [i][i-prep] Dudley [gymysgu][cymysgu] {â} [phlentyn][plentyn] [felly][felly-adj].

* [Pan][pan] [ddeffrodd][deffrodd] Mr a Mrs Dursley {ar} {y} {bore} {Mawrth} {tamp}, {llwyd} {hwnnw} [lle][lle-conj] {mae} {ein} {stori} {ni}[’n][’n-conv] {dechrau}, [d][n-nid]{oedd} {dim byd} [yn][yn-loc] {yr} {awyr} [gymylog][cymylog] {tu allan} [i][i-prep] {awgrymu} [y][y-nom] {byddai} {pethau} {rhyfedd} {ac} {anesboniadwy}[’n][’n-conv] {digwydd} {dros} {y} [wlad][gwlad] {i gyd} {cyn bo hir}. * [Canai][canai] Mr Dursley {o} [dan][tan] [ei][ei-m] [wynt][gwynt] {wrth} [ddewis][dewis-v] [ei][ei-m] [dei][tei] [mwyaf][mwyaf-sup] [an][an-][niddorol][diddorol] {ar gyfer} {mynd} [i][i-prep]{’r} {gwaith} {a} {sgwrsiai} Mrs Dursley [yn][yn-adv] [fodlon][bodlon] {wrth} [lusgo][llusgo] Dudley, {oedd} [yn][yn-conv] {sgrechian} {nerth} {esgyrn} [ei][ei-m] [ben][pen], [i][i-prep][’w][’w-m] [gadair][cadair] {uchel}.

* [Sylwodd][sylwodd] {yr} [un][un-m] {o}{’r} [ddau][dau] {ar} [dylluan][tylluan] [frech][brech] [yn][yn-conv] {hedfan} {heibio}{’r} {ffenest}.
