%!PS-Adobe-3.0 EPSF-3.0
%%Creator: cairo 1.17.4 (https://cairographics.org)
%%CreationDate: Thu Jan 21 03:30:25 2021
%%Pages: 1
%%DocumentData: Clean7Bit
%%LanguageLevel: 2
%%BoundingBox: 0 0 283 277
%%EndComments
%%BeginProlog
50 dict begin
/q { gsave } bind def
/Q { grestore } bind def
/cm { 6 array astore concat } bind def
/w { setlinewidth } bind def
/J { setlinecap } bind def
/j { setlinejoin } bind def
/M { setmiterlimit } bind def
/d { setdash } bind def
/m { moveto } bind def
/l { lineto } bind def
/c { curveto } bind def
/h { closepath } bind def
/re { exch dup neg 3 1 roll 5 3 roll moveto 0 rlineto
      0 exch rlineto 0 rlineto closepath } bind def
/S { stroke } bind def
/f { fill } bind def
/f* { eofill } bind def
/n { newpath } bind def
/W { clip } bind def
/W* { eoclip } bind def
/BT { } bind def
/ET { } bind def
/BDC { mark 3 1 roll /BDC pdfmark } bind def
/EMC { mark /EMC pdfmark } bind def
/cairo_store_point { /cairo_point_y exch def /cairo_point_x exch def } def
/Tj { show currentpoint cairo_store_point } bind def
/TJ {
  {
    dup
    type /stringtype eq
    { show } { -0.001 mul 0 cairo_font_matrix dtransform rmoveto } ifelse
  } forall
  currentpoint cairo_store_point
} bind def
/cairo_selectfont { cairo_font_matrix aload pop pop pop 0 0 6 array astore
    cairo_font exch selectfont cairo_point_x cairo_point_y moveto } bind def
/Tf { pop /cairo_font exch def /cairo_font_matrix where
      { pop cairo_selectfont } if } bind def
/Td { matrix translate cairo_font_matrix matrix concatmatrix dup
      /cairo_font_matrix exch def dup 4 get exch 5 get cairo_store_point
      /cairo_font where { pop cairo_selectfont } if } bind def
/Tm { 2 copy 8 2 roll 6 array astore /cairo_font_matrix exch def
      cairo_store_point /cairo_font where { pop cairo_selectfont } if } bind def
/g { setgray } bind def
/rg { setrgbcolor } bind def
/d1 { setcachedevice } bind def
/cairo_data_source {
  CairoDataIndex CairoData length lt
    { CairoData CairoDataIndex get /CairoDataIndex CairoDataIndex 1 add def }
    { () } ifelse
} def
/cairo_flush_ascii85_file { cairo_ascii85_file status { cairo_ascii85_file flushfile } if } def
/cairo_image { image cairo_flush_ascii85_file } def
/cairo_imagemask { imagemask cairo_flush_ascii85_file } def
%%EndProlog
%%BeginSetup
%%EndSetup
%%Page: 1 1
%%BeginPageSetup
%%PageBoundingBox: 0 0 283 277
%%EndPageSetup
q 0 0 283 277 rectclip
1 0 0 -1 0 277 cm q
0.537255 g
0.37724 w
0 J
0 j
[] 0.0 d
4 M q 1 0 0 1 0 0 cm
11.684 55.711 m 260.094 55.711 l S Q
0.375 w
q 1 0 0 1 0 0 cm
36.477 269.176 m 36.477 23.711 l S Q
q 1 0 0 1 0 0 cm
63.852 269.176 m 63.852 23.711 l S Q
q 1 0 0 1 0 0 cm
91.227 269.176 m 91.227 23.711 l S Q
q 1 0 0 1 0 0 cm
118.602 269.176 m 118.602 23.711 l S Q
q 1 0 0 1 0 0 cm
145.977 269.176 m 145.977 23.711 l S Q
q 1 0 0 1 0 0 cm
173.352 269.176 m 173.352 23.711 l S Q
q 1 0 0 1 0 0 cm
200.727 269.176 m 200.727 23.711 l S Q
q 1 0 0 1 0 0 cm
228.102 269.176 m 228.102 23.711 l S Q
q 1 0 0 1 0 0 cm
255.477 269.176 m 255.477 23.711 l S Q
0.37724 w
q 1 0 0 1 0 0 cm
11.684 244.711 m 260.094 244.711 l S Q
q 1 0 0 1 0 0 cm
11.684 217.711 m 260.094 217.711 l S Q
q 1 0 0 1 0 0 cm
11.684 190.711 m 260.094 190.711 l S Q
q 1 0 0 1 0 0 cm
11.684 163.711 m 260.094 163.711 l S Q
q 1 0 0 1 0 0 cm
11.684 136.711 m 260.094 136.711 l S Q
q 1 0 0 1 0 0 cm
11.684 109.711 m 260.094 109.711 l S Q
q 1 0 0 1 0 0 cm
11.684 82.711 m 260.094 82.711 l S Q
q 1 0 0 1 0 0 cm
11.684 28.711 m 260.094 28.711 l S Q
q 1 0 0 1 0 0 cm
11.684 28.711 m 260.094 28.711 l S Q
0 g
1.125 w
q 1 0 0 1 0 0 cm
11.148 24.777 m 11.148 270.188 l S Q
q 1 0 0 1 0 0 cm
261.652 269.723 m 10.961 269.723 l S Q
273 259.859 m 273.57 260.465 274.004 261.074 274.297 261.688 c 274.504 
262.105 274.852 263.211 275.344 265 c 276.891 262.688 l 277.297 262.125 
277.789 261.59 278.375 261.078 c 278.957 260.57 279.473 260.219 279.922 
260.031 c 280.203 259.918 280.516 259.859 280.859 259.859 c 281.359 259.859
 281.758 259.996 282.062 260.266 c 282.363 260.539 282.516 260.867 282.516
 261.25 c 282.516 261.688 282.426 261.992 282.25 262.156 c 281.914 262.449
 281.539 262.594 281.125 262.594 c 280.875 262.594 280.609 262.543 280.328
 262.438 c 279.773 262.25 279.406 262.156 279.219 262.156 c 278.938 262.156
 278.602 262.324 278.219 262.656 c 277.488 263.262 276.625 264.438 275.625
 266.188 c 277.062 272.234 l 277.281 273.164 277.461 273.719 277.609 273.906
 c 277.766 274.086 277.922 274.172 278.078 274.172 c 278.328 274.172 278.613
 274.039 278.938 273.766 c 279.582 273.227 280.133 272.523 280.594 271.656
 c 281.203 271.969 l 280.461 273.355 279.523 274.5 278.391 275.406 c 277.742
 275.926 277.203 276.188 276.766 276.188 c 276.109 276.188 275.586 275.816
 275.203 275.078 c 274.953 274.621 274.441 272.652 273.672 269.172 c 271.836
 272.352 270.367 274.398 269.266 275.312 c 268.555 275.895 267.867 276.188
 267.203 276.188 c 266.734 276.188 266.305 276.016 265.906 275.672 c 265.625
 275.422 265.484 275.078 265.484 274.641 c 265.484 274.258 265.617 273.934
 265.875 273.672 c 266.137 273.414 266.453 273.281 266.828 273.281 c 267.203
 273.281 267.602 273.469 268.031 273.844 c 268.332 274.117 268.566 274.25
 268.734 274.25 c 268.867 274.25 269.047 274.156 269.266 273.969 c 269.816
 273.523 270.566 272.562 271.516 271.094 c 272.473 269.617 273.098 268.547
 273.391 267.891 c 272.66 265.047 272.266 263.543 272.203 263.375 c 271.93
 262.617 271.578 262.078 271.141 261.766 c 270.711 261.445 270.078 261.281
 269.234 261.281 c 268.961 261.281 268.656 261.293 268.312 261.312 c 268.312
 260.688 l h
273 259.859 m f
8.617 0.004 m 9.023 0.684 9.297 1.316 9.445 1.91 c 9.602 2.504 9.758 3.668
 9.914 5.395 c 10.68 14.051 l 11.387 13.207 12.406 11.871 13.742 10.035 
c 14.387 9.152 15.184 7.938 16.133 6.395 c 16.703 5.457 17.055 4.801 17.18
 4.426 c 17.25 4.238 17.289 4.047 17.289 3.848 c 17.289 3.723 17.246 3.621
 17.164 3.535 c 17.078 3.453 16.867 3.359 16.523 3.254 c 16.18 3.141 15.891
 2.934 15.664 2.629 c 15.434 2.328 15.32 1.984 15.32 1.598 c 15.32 1.121
 15.461 0.734 15.742 0.441 c 16.023 0.152 16.375 0.004 16.805 0.004 c 17.312
 0.004 17.75 0.219 18.117 0.645 c 18.48 1.074 18.664 1.66 18.664 2.41 c 
18.664 3.34 18.344 4.395 17.711 5.582 c 17.074 6.77 15.855 8.598 14.055 
11.066 c 12.25 13.527 10.062 16.207 7.492 19.113 c 5.73 21.113 4.418 22.371
 3.555 22.895 c 2.703 23.414 1.973 23.676 1.367 23.676 c 1.004 23.676 0.688
 23.535 0.414 23.254 c 0.133 22.98 -0.008 22.668 -0.008 22.316 c -0.008 
21.855 0.188 21.441 0.57 21.066 c 0.945 20.691 1.359 20.504 1.805 20.504
 c 2.035 20.504 2.227 20.555 2.383 20.66 c 2.477 20.711 2.582 20.871 2.695
 21.145 c 2.801 21.426 2.898 21.613 2.992 21.707 c 3.055 21.77 3.125 21.801
 3.211 21.801 c 3.281 21.801 3.406 21.742 3.586 21.629 c 4.219 21.223 4.969
 20.586 5.836 19.723 c 6.961 18.574 7.789 17.637 8.32 16.91 c 7.336 5.77
 l 7.18 3.926 6.934 2.809 6.602 2.41 c 6.277 2.016 5.727 1.816 4.945 1.816
 c 4.703 1.816 4.266 1.848 3.633 1.91 c 3.477 1.27 l h
8.617 0.004 m f
0.831373 0.333333 0 rg
218.703 137.004 m 218.703 137.004 217.852 269.488 217.852 269.488 c f*
0 g
[ 6.75 6.75] 0 d
q 1 0 0 1 0 0 cm
218.703 137.004 m 218.703 137.004 217.852 269.488 217.852 269.488 c S Q
196.551 122.805 m 195.957 123.086 l 194.559 120.418 193.559 118.07 192.957
 116.039 c 192.488 114.445 192.254 112.836 192.254 111.211 c 192.254 107.441
 193.121 104.062 194.863 101.07 c 197.008 97.414 200.48 93.852 205.285 90.383
 c 205.707 91.008 l 203.539 92.613 201.773 94.41 200.41 96.398 c 198.691
 98.879 197.285 101.879 196.191 105.398 c 195.105 108.91 194.566 112.109
 194.566 114.992 c 194.566 117.199 195.227 119.805 196.551 122.805 c h
196.551 122.805 m f
208.008 99.477 m 208.578 100.082 209.012 100.691 209.305 101.305 c 209.512
 101.723 209.859 102.828 210.352 104.617 c 211.898 102.305 l 212.305 101.742
 212.797 101.207 213.383 100.695 c 213.965 100.188 214.48 99.836 214.93 
99.648 c 215.211 99.535 215.523 99.477 215.867 99.477 c 216.367 99.477 216.766
 99.613 217.07 99.883 c 217.371 100.156 217.523 100.484 217.523 100.867 
c 217.523 101.305 217.434 101.609 217.258 101.773 c 216.922 102.066 216.547
 102.211 216.133 102.211 c 215.883 102.211 215.617 102.16 215.336 102.055
 c 214.781 101.867 214.414 101.773 214.227 101.773 c 213.945 101.773 213.609
 101.941 213.227 102.273 c 212.496 102.879 211.633 104.055 210.633 105.805
 c 212.07 111.852 l 212.289 112.781 212.469 113.336 212.617 113.523 c 212.773
 113.703 212.93 113.789 213.086 113.789 c 213.336 113.789 213.621 113.656
 213.945 113.383 c 214.59 112.844 215.141 112.141 215.602 111.273 c 216.211
 111.586 l 215.469 112.973 214.531 114.117 213.398 115.023 c 212.75 115.543
 212.211 115.805 211.773 115.805 c 211.117 115.805 210.594 115.434 210.211
 114.695 c 209.961 114.238 209.449 112.27 208.68 108.789 c 206.844 111.969
 205.375 114.016 204.273 114.93 c 203.562 115.512 202.875 115.805 202.211
 115.805 c 201.742 115.805 201.312 115.633 200.914 115.289 c 200.633 115.039
 200.492 114.695 200.492 114.258 c 200.492 113.875 200.625 113.551 200.883
 113.289 c 201.145 113.031 201.461 112.898 201.836 112.898 c 202.211 112.898
 202.609 113.086 203.039 113.461 c 203.34 113.734 203.574 113.867 203.742
 113.867 c 203.875 113.867 204.055 113.773 204.273 113.586 c 204.824 113.141
 205.574 112.18 206.523 110.711 c 207.48 109.234 208.105 108.164 208.398
 107.508 c 207.668 104.664 207.273 103.16 207.211 102.992 c 206.938 102.234
 206.586 101.695 206.148 101.383 c 205.719 101.062 205.086 100.898 204.242
 100.898 c 203.969 100.898 203.664 100.91 203.32 100.93 c 203.32 100.305
 l h
208.008 99.477 m f
217.379 119.336 m 218.262 118.938 218.98 118.434 219.535 117.82 c 219.949
 117.352 220.16 116.902 220.16 116.477 c 220.16 116.266 220.121 116.074 
220.051 115.898 c 220.008 115.805 219.848 115.617 219.566 115.336 c 219.285
 115.055 219.129 114.859 219.098 114.742 c 219.012 114.547 218.973 114.32
 218.973 114.07 c 218.973 113.562 219.145 113.125 219.488 112.758 c 219.832
 112.395 220.238 112.211 220.707 112.211 c 221.184 112.211 221.605 112.41
 221.973 112.805 c 222.348 113.191 222.535 113.676 222.535 114.258 c 222.535
 115.301 222.121 116.352 221.301 117.414 c 220.488 118.484 219.301 119.312
 217.738 119.898 c h
217.379 119.336 m f
232.488 99.477 m 232.895 100.156 233.168 100.789 233.316 101.383 c 233.473
 101.977 233.629 103.141 233.785 104.867 c 234.551 113.523 l 235.258 112.68
 236.277 111.344 237.613 109.508 c 238.258 108.625 239.055 107.41 240.004
 105.867 c 240.574 104.93 240.926 104.273 241.051 103.898 c 241.121 103.711
 241.16 103.52 241.16 103.32 c 241.16 103.195 241.117 103.094 241.035 103.008
 c 240.949 102.926 240.738 102.832 240.395 102.727 c 240.051 102.613 239.762
 102.406 239.535 102.102 c 239.305 101.801 239.191 101.457 239.191 101.07
 c 239.191 100.594 239.332 100.207 239.613 99.914 c 239.895 99.625 240.246
 99.477 240.676 99.477 c 241.184 99.477 241.621 99.691 241.988 100.117 c
 242.352 100.547 242.535 101.133 242.535 101.883 c 242.535 102.812 242.215
 103.867 241.582 105.055 c 240.945 106.242 239.727 108.07 237.926 110.539
 c 236.121 113 233.934 115.68 231.363 118.586 c 229.602 120.586 228.289 
121.844 227.426 122.367 c 226.574 122.887 225.844 123.148 225.238 123.148
 c 224.875 123.148 224.559 123.008 224.285 122.727 c 224.004 122.453 223.863
 122.141 223.863 121.789 c 223.863 121.328 224.059 120.914 224.441 120.539
 c 224.816 120.164 225.23 119.977 225.676 119.977 c 225.906 119.977 226.098
 120.027 226.254 120.133 c 226.348 120.184 226.453 120.344 226.566 120.617
 c 226.672 120.898 226.77 121.086 226.863 121.18 c 226.926 121.242 226.996
 121.273 227.082 121.273 c 227.152 121.273 227.277 121.215 227.457 121.102
 c 228.09 120.695 228.84 120.059 229.707 119.195 c 230.832 118.047 231.66
 117.109 232.191 116.383 c 231.207 105.242 l 231.051 103.398 230.805 102.281
 230.473 101.883 c 230.148 101.488 229.598 101.289 228.816 101.289 c 228.574
 101.289 228.137 101.32 227.504 101.383 c 227.348 100.742 l h
232.488 99.477 m f
247.965 90.727 m 248.574 90.383 l 249.957 93.031 250.953 95.375 251.559
 97.414 c 252.035 99.008 252.277 100.613 252.277 102.227 c 252.277 106.02
 251.402 109.406 249.652 112.383 c 247.496 116.047 244.02 119.617 239.23
 123.086 c 238.809 122.539 l 240.977 120.922 242.746 119.125 244.121 117.148
 c 245.828 114.66 247.223 111.656 248.309 108.133 c 249.402 104.613 249.949
 101.41 249.949 98.523 c 249.949 96.328 249.285 93.727 247.965 90.727 c 
h
247.965 90.727 m f
1.5 w
[] 0.0 d
q 1 0 0 1 0 0 cm
214.246 132.457 m 222.883 141.094 l S Q
q 1 0 0 1 0 0 cm
222.883 132.457 m 214.246 141.094 l S Q
1.125 w
[ 6.75 6.75] 0 d
q 1 0 0 1 0 0 cm
11.332 137.562 m 11.332 137.562 218.711 136.809 218.711 136.809 c S Q
Q Q
showpage
%%Trailer
end
%%EOF
