%!PS-Adobe-3.0 EPSF-3.0
%%Creator: cairo 1.17.4 (https://cairographics.org)
%%CreationDate: Thu Jan 21 03:30:09 2021
%%Pages: 1
%%DocumentData: Clean7Bit
%%LanguageLevel: 2
%%BoundingBox: 0 0 416 388
%%EndComments
%%BeginProlog
50 dict begin
/q { gsave } bind def
/Q { grestore } bind def
/cm { 6 array astore concat } bind def
/w { setlinewidth } bind def
/J { setlinecap } bind def
/j { setlinejoin } bind def
/M { setmiterlimit } bind def
/d { setdash } bind def
/m { moveto } bind def
/l { lineto } bind def
/c { curveto } bind def
/h { closepath } bind def
/re { exch dup neg 3 1 roll 5 3 roll moveto 0 rlineto
      0 exch rlineto 0 rlineto closepath } bind def
/S { stroke } bind def
/f { fill } bind def
/f* { eofill } bind def
/n { newpath } bind def
/W { clip } bind def
/W* { eoclip } bind def
/BT { } bind def
/ET { } bind def
/BDC { mark 3 1 roll /BDC pdfmark } bind def
/EMC { mark /EMC pdfmark } bind def
/cairo_store_point { /cairo_point_y exch def /cairo_point_x exch def } def
/Tj { show currentpoint cairo_store_point } bind def
/TJ {
  {
    dup
    type /stringtype eq
    { show } { -0.001 mul 0 cairo_font_matrix dtransform rmoveto } ifelse
  } forall
  currentpoint cairo_store_point
} bind def
/cairo_selectfont { cairo_font_matrix aload pop pop pop 0 0 6 array astore
    cairo_font exch selectfont cairo_point_x cairo_point_y moveto } bind def
/Tf { pop /cairo_font exch def /cairo_font_matrix where
      { pop cairo_selectfont } if } bind def
/Td { matrix translate cairo_font_matrix matrix concatmatrix dup
      /cairo_font_matrix exch def dup 4 get exch 5 get cairo_store_point
      /cairo_font where { pop cairo_selectfont } if } bind def
/Tm { 2 copy 8 2 roll 6 array astore /cairo_font_matrix exch def
      cairo_store_point /cairo_font where { pop cairo_selectfont } if } bind def
/g { setgray } bind def
/rg { setrgbcolor } bind def
/d1 { setcachedevice } bind def
/cairo_data_source {
  CairoDataIndex CairoData length lt
    { CairoData CairoDataIndex get /CairoDataIndex CairoDataIndex 1 add def }
    { () } ifelse
} def
/cairo_flush_ascii85_file { cairo_ascii85_file status { cairo_ascii85_file flushfile } if } def
/cairo_image { image cairo_flush_ascii85_file } def
/cairo_imagemask { imagemask cairo_flush_ascii85_file } def
%%EndProlog
%%BeginSetup
%%EndSetup
%%Page: 1 1
%%BeginPageSetup
%%PageBoundingBox: 0 0 416 388
%%EndPageSetup
q 0 0 416 388 rectclip
1 0 0 -1 0 388 cm q
0 g
1.108298 w
0 J
0 j
[] 0.0 d
4 M q 1 0 0 1 0 0 cm
142.336 21.328 m 142.336 266.734 l S Q
1.132141 w
q 1 0 0 1 0 0 cm
392.84 266.273 m 142.152 266.273 l S Q
1.204927 w
q 1 0 0 1 0 0 cm
18.746 369.969 m 142.664 265.988 l S Q
7.5 370.766 m 8.07 371.371 8.504 371.98 8.797 372.594 c 9.004 373.012 9.352
 374.117 9.844 375.906 c 11.391 373.594 l 11.797 373.031 12.289 372.496 
12.875 371.984 c 13.457 371.477 13.973 371.125 14.422 370.938 c 14.703 370.824
 15.016 370.766 15.359 370.766 c 15.859 370.766 16.258 370.902 16.562 371.172
 c 16.863 371.445 17.016 371.773 17.016 372.156 c 17.016 372.594 16.926 
372.898 16.75 373.062 c 16.414 373.355 16.039 373.5 15.625 373.5 c 15.375
 373.5 15.109 373.449 14.828 373.344 c 14.273 373.156 13.906 373.062 13.719
 373.062 c 13.438 373.062 13.102 373.23 12.719 373.562 c 11.988 374.168 
11.125 375.344 10.125 377.094 c 11.562 383.141 l 11.781 384.07 11.961 384.625
 12.109 384.812 c 12.266 384.992 12.422 385.078 12.578 385.078 c 12.828 
385.078 13.113 384.945 13.438 384.672 c 14.082 384.133 14.633 383.43 15.094
 382.562 c 15.703 382.875 l 14.961 384.262 14.023 385.406 12.891 386.312
 c 12.242 386.832 11.703 387.094 11.266 387.094 c 10.609 387.094 10.086 
386.723 9.703 385.984 c 9.453 385.527 8.941 383.559 8.172 380.078 c 6.336
 383.258 4.867 385.305 3.766 386.219 c 3.055 386.801 2.367 387.094 1.703
 387.094 c 1.234 387.094 0.805 386.922 0.406 386.578 c 0.125 386.328 -0.016
 385.984 -0.016 385.547 c -0.016 385.164 0.117 384.84 0.375 384.578 c 0.637
 384.32 0.953 384.188 1.328 384.188 c 1.703 384.188 2.102 384.375 2.531 
384.75 c 2.832 385.023 3.066 385.156 3.234 385.156 c 3.367 385.156 3.547
 385.062 3.766 384.875 c 4.316 384.43 5.066 383.469 6.016 382 c 6.973 380.523
 7.598 379.453 7.891 378.797 c 7.16 375.953 6.766 374.449 6.703 374.281 
c 6.43 373.523 6.078 372.984 5.641 372.672 c 5.211 372.352 4.578 372.188
 3.734 372.188 c 3.461 372.188 3.156 372.199 2.812 372.219 c 2.812 371.594
 l h
7.5 370.766 m f
405.207 252.617 m 405.613 253.297 405.887 253.93 406.035 254.523 c 406.191
 255.117 406.348 256.281 406.504 258.008 c 407.27 266.664 l 407.977 265.82
 408.996 264.484 410.332 262.648 c 410.977 261.766 411.773 260.551 412.723
 259.008 c 413.293 258.07 413.645 257.414 413.77 257.039 c 413.84 256.852
 413.879 256.66 413.879 256.461 c 413.879 256.336 413.836 256.234 413.754
 256.148 c 413.668 256.066 413.457 255.973 413.113 255.867 c 412.77 255.754
 412.48 255.547 412.254 255.242 c 412.023 254.941 411.91 254.598 411.91 
254.211 c 411.91 253.734 412.051 253.348 412.332 253.055 c 412.613 252.766
 412.965 252.617 413.395 252.617 c 413.902 252.617 414.34 252.832 414.707
 253.258 c 415.07 253.688 415.254 254.273 415.254 255.023 c 415.254 255.953
 414.934 257.008 414.301 258.195 c 413.664 259.383 412.445 261.211 410.645
 263.68 c 408.84 266.141 406.652 268.82 404.082 271.727 c 402.32 273.727
 401.008 274.984 400.145 275.508 c 399.293 276.027 398.562 276.289 397.957
 276.289 c 397.594 276.289 397.277 276.148 397.004 275.867 c 396.723 275.594
 396.582 275.281 396.582 274.93 c 396.582 274.469 396.777 274.055 397.16
 273.68 c 397.535 273.305 397.949 273.117 398.395 273.117 c 398.625 273.117
 398.816 273.168 398.973 273.273 c 399.066 273.324 399.172 273.484 399.285
 273.758 c 399.391 274.039 399.488 274.227 399.582 274.32 c 399.645 274.383
 399.715 274.414 399.801 274.414 c 399.871 274.414 399.996 274.355 400.176
 274.242 c 400.809 273.836 401.559 273.199 402.426 272.336 c 403.551 271.188
 404.379 270.25 404.91 269.523 c 403.926 258.383 l 403.77 256.539 403.523
 255.422 403.191 255.023 c 402.867 254.629 402.316 254.43 401.535 254.43
 c 401.293 254.43 400.855 254.461 400.223 254.523 c 400.066 253.883 l h
405.207 252.617 m f
141.648 0.004 m 152.805 0.004 l 152.805 0.441 l 140.648 13.098 l 145.805
 13.098 l 147.023 13.098 147.793 13.051 148.117 12.957 c 148.449 12.863 
148.75 12.668 149.023 12.363 c 149.293 12.051 149.602 11.5 149.945 10.707
 c 150.602 10.707 l 149.07 15.488 l 137.617 15.488 l 137.617 14.973 l 149.789
 2.316 l 144.727 2.316 l 143.664 2.316 143.016 2.348 142.789 2.41 c 142.465
 2.484 142.141 2.672 141.82 2.973 c 141.496 3.266 141.164 3.754 140.82 4.441
 c 140.148 4.441 l h
141.648 0.004 m f
0.96583 w
[ 5.794979 5.794979] 0 d
q 1 0 0 1 0 0 cm
256.043 134.895 m 256.043 354.375 l S Q
1.125 w
[ 6.75 6.75] 0 d
q 1 0 0 1 0 0 cm
255.715 353.879 m 37.902 353.879 l S Q
274.484 149.727 m 273.891 150.008 l 272.492 147.34 271.492 144.992 270.891
 142.961 c 270.422 141.367 270.188 139.758 270.188 138.133 c 270.188 134.363
 271.055 130.984 272.797 127.992 c 274.941 124.336 278.414 120.773 283.219
 117.305 c 283.641 117.93 l 281.473 119.535 279.707 121.332 278.344 123.32
 c 276.625 125.801 275.219 128.801 274.125 132.32 c 273.039 135.832 272.5
 139.031 272.5 141.914 c 272.5 144.121 273.16 146.727 274.484 149.727 c 
h
274.484 149.727 m f
285.941 126.398 m 286.512 127.004 286.945 127.613 287.238 128.227 c 287.445
 128.645 287.793 129.75 288.285 131.539 c 289.832 129.227 l 290.238 128.664
 290.73 128.129 291.316 127.617 c 291.898 127.109 292.414 126.758 292.863
 126.57 c 293.145 126.457 293.457 126.398 293.801 126.398 c 294.301 126.398
 294.699 126.535 295.004 126.805 c 295.305 127.078 295.457 127.406 295.457
 127.789 c 295.457 128.227 295.367 128.531 295.191 128.695 c 294.855 128.988
 294.48 129.133 294.066 129.133 c 293.816 129.133 293.551 129.082 293.27
 128.977 c 292.715 128.789 292.348 128.695 292.16 128.695 c 291.879 128.695
 291.543 128.863 291.16 129.195 c 290.43 129.801 289.566 130.977 288.566
 132.727 c 290.004 138.773 l 290.223 139.703 290.402 140.258 290.551 140.445
 c 290.707 140.625 290.863 140.711 291.02 140.711 c 291.27 140.711 291.555
 140.578 291.879 140.305 c 292.523 139.766 293.074 139.062 293.535 138.195
 c 294.145 138.508 l 293.402 139.895 292.465 141.039 291.332 141.945 c 290.684
 142.465 290.145 142.727 289.707 142.727 c 289.051 142.727 288.527 142.355
 288.145 141.617 c 287.895 141.16 287.383 139.191 286.613 135.711 c 284.777
 138.891 283.309 140.938 282.207 141.852 c 281.496 142.434 280.809 142.727
 280.145 142.727 c 279.676 142.727 279.246 142.555 278.848 142.211 c 278.566
 141.961 278.426 141.617 278.426 141.18 c 278.426 140.797 278.559 140.473
 278.816 140.211 c 279.078 139.953 279.395 139.82 279.77 139.82 c 280.145
 139.82 280.543 140.008 280.973 140.383 c 281.273 140.656 281.508 140.789
 281.676 140.789 c 281.809 140.789 281.988 140.695 282.207 140.508 c 282.758
 140.062 283.508 139.102 284.457 137.633 c 285.414 136.156 286.039 135.086
 286.332 134.43 c 285.602 131.586 285.207 130.082 285.145 129.914 c 284.871
 129.156 284.52 128.617 284.082 128.305 c 283.652 127.984 283.02 127.82 
282.176 127.82 c 281.902 127.82 281.598 127.832 281.254 127.852 c 281.254
 127.227 l h
285.941 126.398 m f
295.312 146.258 m 296.195 145.859 296.914 145.355 297.469 144.742 c 297.883
 144.273 298.094 143.824 298.094 143.398 c 298.094 143.188 298.055 142.996
 297.984 142.82 c 297.941 142.727 297.781 142.539 297.5 142.258 c 297.219
 141.977 297.062 141.781 297.031 141.664 c 296.945 141.469 296.906 141.242
 296.906 140.992 c 296.906 140.484 297.078 140.047 297.422 139.68 c 297.766
 139.316 298.172 139.133 298.641 139.133 c 299.117 139.133 299.539 139.332
 299.906 139.727 c 300.281 140.113 300.469 140.598 300.469 141.18 c 300.469
 142.223 300.055 143.273 299.234 144.336 c 298.422 145.406 297.234 146.234
 295.672 146.82 c h
295.312 146.258 m f
319.422 126.398 m 319.828 127.078 320.102 127.711 320.25 128.305 c 320.406
 128.898 320.562 130.062 320.719 131.789 c 321.484 140.445 l 322.191 139.602
 323.211 138.266 324.547 136.43 c 325.191 135.547 325.988 134.332 326.938
 132.789 c 327.508 131.852 327.859 131.195 327.984 130.82 c 328.055 130.633
 328.094 130.441 328.094 130.242 c 328.094 130.117 328.051 130.016 327.969
 129.93 c 327.883 129.848 327.672 129.754 327.328 129.648 c 326.984 129.535
 326.695 129.328 326.469 129.023 c 326.238 128.723 326.125 128.379 326.125
 127.992 c 326.125 127.516 326.266 127.129 326.547 126.836 c 326.828 126.547
 327.18 126.398 327.609 126.398 c 328.117 126.398 328.555 126.613 328.922
 127.039 c 329.285 127.469 329.469 128.055 329.469 128.805 c 329.469 129.734
 329.148 130.789 328.516 131.977 c 327.879 133.164 326.66 134.992 324.859
 137.461 c 323.055 139.922 320.867 142.602 318.297 145.508 c 316.535 147.508
 315.223 148.766 314.359 149.289 c 313.508 149.809 312.777 150.07 312.172
 150.07 c 311.809 150.07 311.492 149.93 311.219 149.648 c 310.938 149.375
 310.797 149.062 310.797 148.711 c 310.797 148.25 310.992 147.836 311.375
 147.461 c 311.75 147.086 312.164 146.898 312.609 146.898 c 312.84 146.898
 313.031 146.949 313.188 147.055 c 313.281 147.105 313.387 147.266 313.5
 147.539 c 313.605 147.82 313.703 148.008 313.797 148.102 c 313.859 148.164
 313.93 148.195 314.016 148.195 c 314.086 148.195 314.211 148.137 314.391
 148.023 c 315.023 147.617 315.773 146.98 316.641 146.117 c 317.766 144.969
 318.594 144.031 319.125 143.305 c 318.141 132.164 l 317.984 130.32 317.738
 129.203 317.406 128.805 c 317.082 128.41 316.531 128.211 315.75 128.211
 c 315.508 128.211 315.07 128.242 314.438 128.305 c 314.281 127.664 l h
319.422 126.398 m f
327.305 146.258 m 328.188 145.859 328.906 145.355 329.461 144.742 c 329.875
 144.273 330.086 143.824 330.086 143.398 c 330.086 143.188 330.047 142.996
 329.977 142.82 c 329.934 142.727 329.773 142.539 329.492 142.258 c 329.211
 141.977 329.055 141.781 329.023 141.664 c 328.938 141.469 328.898 141.242
 328.898 140.992 c 328.898 140.484 329.07 140.047 329.414 139.68 c 329.758
 139.316 330.164 139.133 330.633 139.133 c 331.109 139.133 331.531 139.332
 331.898 139.727 c 332.273 140.113 332.461 140.598 332.461 141.18 c 332.461
 142.223 332.047 143.273 331.227 144.336 c 330.414 145.406 329.227 146.234
 327.664 146.82 c h
327.305 146.258 m f
348.711 126.82 m 359.867 126.82 l 359.867 127.258 l 347.711 139.914 l 352.867
 139.914 l 354.086 139.914 354.855 139.867 355.18 139.773 c 355.512 139.68
 355.812 139.484 356.086 139.18 c 356.355 138.867 356.664 138.316 357.008
 137.523 c 357.664 137.523 l 356.133 142.305 l 344.68 142.305 l 344.68 141.789
 l 356.852 129.133 l 351.789 129.133 l 350.727 129.133 350.078 129.164 349.852
 129.227 c 349.527 129.301 349.203 129.488 348.883 129.789 c 348.559 130.082
 348.227 130.57 347.883 131.258 c 347.211 131.258 l h
348.711 126.82 m f
364.922 117.648 m 365.531 117.305 l 366.914 119.953 367.91 122.297 368.516
 124.336 c 368.992 125.93 369.234 127.535 369.234 129.148 c 369.234 132.941
 368.359 136.328 366.609 139.305 c 364.453 142.969 360.977 146.539 356.188
 150.008 c 355.766 149.461 l 357.934 147.844 359.703 146.047 361.078 144.07
 c 362.785 141.582 364.18 138.578 365.266 135.055 c 366.359 131.535 366.906
 128.332 366.906 125.445 c 366.906 123.25 366.242 120.648 364.922 117.648
 c h
364.922 117.648 m f
0.537255 g
0.37724 w
[] 0.0 d
q 1 0 0 1 0 0 cm
237.332 369.434 m 359.523 266.695 l S Q
0 g
1.125 w
[ 6.75 6.75] 0 d
q 1 0 0 1 0 0 cm
256.129 353.934 m 360.414 266.43 l S Q
0.537255 g
0.37724 w
[] 0.0 d
q 1 0 0 1 0 0 cm
143.031 52.25 m 391.438 52.25 l S Q
0.375 w
q 1 0 0 1 0 0 cm
167.824 265.715 m 167.824 20.246 l S Q
q 1 0 0 1 0 0 cm
195.199 265.715 m 195.199 20.246 l S Q
q 1 0 0 1 0 0 cm
222.574 265.715 m 222.574 20.246 l S Q
q 1 0 0 1 0 0 cm
249.949 265.715 m 249.949 20.246 l S Q
q 1 0 0 1 0 0 cm
277.324 265.715 m 277.324 20.246 l S Q
q 1 0 0 1 0 0 cm
304.699 265.715 m 304.699 20.246 l S Q
q 1 0 0 1 0 0 cm
332.074 265.715 m 332.074 20.246 l S Q
q 1 0 0 1 0 0 cm
359.449 265.715 m 359.449 20.246 l S Q
q 1 0 0 1 0 0 cm
386.824 265.715 m 386.824 20.246 l S Q
0.37724 w
q 1 0 0 1 0 0 cm
143.031 241.25 m 391.438 241.25 l S Q
q 1 0 0 1 0 0 cm
143.031 214.25 m 391.438 214.25 l S Q
q 1 0 0 1 0 0 cm
143.031 187.25 m 391.438 187.25 l S Q
q 1 0 0 1 0 0 cm
143.031 160.25 m 391.438 160.25 l S Q
q 1 0 0 1 0 0 cm
143.031 133.25 m 391.438 133.25 l S Q
q 1 0 0 1 0 0 cm
143.031 106.25 m 391.438 106.25 l S Q
q 1 0 0 1 0 0 cm
143.031 79.25 m 391.438 79.25 l S Q
q 1 0 0 1 0 0 cm
143.031 25.25 m 391.438 25.25 l S Q
q 1 0 0 1 0 0 cm
143.031 25.25 m 391.438 25.25 l S Q
q 1 0 0 1 0 0 cm
19.773 344.117 m 141.961 241.379 l S Q
q 1 0 0 1 0 0 cm
19.773 317.117 m 141.961 214.379 l S Q
q 1 0 0 1 0 0 cm
19.773 290.117 m 141.961 187.379 l S Q
q 1 0 0 1 0 0 cm
19.773 263.117 m 141.961 160.379 l S Q
q 1 0 0 1 0 0 cm
19.773 236.117 m 141.961 133.379 l S Q
q 1 0 0 1 0 0 cm
19.773 209.117 m 141.961 106.379 l S Q
q 1 0 0 1 0 0 cm
19.773 182.117 m 141.961 79.379 l S Q
q 1 0 0 1 0 0 cm
19.773 155.117 m 141.961 52.379 l S Q
q 1 0 0 1 0 0 cm
19.773 128.117 m 141.961 25.379 l S Q
0.375 w
q 1 0 0 1 0 0 cm
22.074 366.559 m 22.074 121.094 l S Q
q 1 0 0 1 0 0 cm
39.602 351.836 m 39.602 106.367 l S Q
q 1 0 0 1 0 0 cm
57.125 337.133 m 57.125 91.668 l S Q
q 1 0 0 1 0 0 cm
74.652 322.375 m 74.652 76.906 l S Q
q 1 0 0 1 0 0 cm
92.18 307.746 m 92.18 62.281 l S Q
q 1 0 0 1 0 0 cm
109.707 292.98 m 109.707 47.516 l S Q
q 1 0 0 1 0 0 cm
127.234 278.266 m 127.234 32.801 l S Q
0.37724 w
q 1 0 0 1 0 0 cm
128.176 278.75 m 376.586 278.75 l S Q
q 1 0 0 1 0 0 cm
110.645 293.438 m 359.055 293.438 l S Q
q 1 0 0 1 0 0 cm
92.805 308.426 m 341.215 308.426 l S Q
q 1 0 0 1 0 0 cm
75.379 323.051 m 323.789 323.051 l S Q
q 1 0 0 1 0 0 cm
58.027 337.578 m 306.434 337.578 l S Q
q 1 0 0 1 0 0 cm
40.539 352.293 m 288.949 352.293 l S Q
q 1 0 0 1 0 0 cm
22.77 367.191 m 271.18 367.191 l S Q
q 1 0 0 1 0 0 cm
45.738 369.438 m 167.926 266.703 l S Q
q 1 0 0 1 0 0 cm
73.082 369.449 m 195.27 266.711 l S Q
q 1 0 0 1 0 0 cm
100.434 369.445 m 222.625 266.707 l S Q
q 1 0 0 1 0 0 cm
127.891 369.441 m 250.078 266.703 l S Q
q 1 0 0 1 0 0 cm
155.215 369.426 m 277.402 266.688 l S Q
q 1 0 0 1 0 0 cm
182.598 369.445 m 304.785 266.707 l S Q
q 1 0 0 1 0 0 cm
209.953 369.406 m 332.141 266.668 l S Q
q 1 0 0 1 0 0 cm
264.781 369.434 m 386.973 266.699 l S Q
0 g
1.5 w
q 1 0 0 1 0 0 cm
251.773 131.215 m 260.41 139.852 l S Q
q 1 0 0 1 0 0 cm
260.41 131.215 m 251.773 139.852 l S Q
1.125 w
[ 6.75 1.125] 0 d
q 1 0 0 1 0 0 cm
141.953 266.508 m 256.91 354.258 l S Q
[ 6.75 1.125] 0 d
q 1 0 0 1 0 0 cm
142.121 47.938 m 257.078 135.684 l S Q
Q Q
showpage
%%Trailer
end
%%EOF
