%!PS-Adobe-3.0 EPSF-3.0
%%Creator: cairo 1.17.4 (https://cairographics.org)
%%CreationDate: Mon Jan  4 20:21:11 2021
%%Pages: 1
%%DocumentData: Clean7Bit
%%LanguageLevel: 2
%%BoundingBox: 10 3 330 93
%%EndComments
%%BeginProlog
50 dict begin
/q { gsave } bind def
/Q { grestore } bind def
/cm { 6 array astore concat } bind def
/w { setlinewidth } bind def
/J { setlinecap } bind def
/j { setlinejoin } bind def
/M { setmiterlimit } bind def
/d { setdash } bind def
/m { moveto } bind def
/l { lineto } bind def
/c { curveto } bind def
/h { closepath } bind def
/re { exch dup neg 3 1 roll 5 3 roll moveto 0 rlineto
      0 exch rlineto 0 rlineto closepath } bind def
/S { stroke } bind def
/f { fill } bind def
/f* { eofill } bind def
/n { newpath } bind def
/W { clip } bind def
/W* { eoclip } bind def
/BT { } bind def
/ET { } bind def
/BDC { mark 3 1 roll /BDC pdfmark } bind def
/EMC { mark /EMC pdfmark } bind def
/cairo_store_point { /cairo_point_y exch def /cairo_point_x exch def } def
/Tj { show currentpoint cairo_store_point } bind def
/TJ {
  {
    dup
    type /stringtype eq
    { show } { -0.001 mul 0 cairo_font_matrix dtransform rmoveto } ifelse
  } forall
  currentpoint cairo_store_point
} bind def
/cairo_selectfont { cairo_font_matrix aload pop pop pop 0 0 6 array astore
    cairo_font exch selectfont cairo_point_x cairo_point_y moveto } bind def
/Tf { pop /cairo_font exch def /cairo_font_matrix where
      { pop cairo_selectfont } if } bind def
/Td { matrix translate cairo_font_matrix matrix concatmatrix dup
      /cairo_font_matrix exch def dup 4 get exch 5 get cairo_store_point
      /cairo_font where { pop cairo_selectfont } if } bind def
/Tm { 2 copy 8 2 roll 6 array astore /cairo_font_matrix exch def
      cairo_store_point /cairo_font where { pop cairo_selectfont } if } bind def
/g { setgray } bind def
/rg { setrgbcolor } bind def
/d1 { setcachedevice } bind def
/cairo_data_source {
  CairoDataIndex CairoData length lt
    { CairoData CairoDataIndex get /CairoDataIndex CairoDataIndex 1 add def }
    { () } ifelse
} def
/cairo_flush_ascii85_file { cairo_ascii85_file status { cairo_ascii85_file flushfile } if } def
/cairo_image { image cairo_flush_ascii85_file } def
/cairo_imagemask { imagemask cairo_flush_ascii85_file } def
%%EndProlog
%%BeginSetup
%%EndSetup
%%Page: 1 1
%%BeginPageSetup
%%PageBoundingBox: 10 3 330 93
%%EndPageSetup
q 10 3 320 90 rectclip
1 0 0 -1 0 96 cm q
0 g
128.621 22.406 m 128.621 22.406 130.902 21.105 134.137 21.652 c 137.434
 22.219 142.898 21.633 144.328 19.293 c 144.328 19.293 142.898 20.371 140.539
 20.137 c 140.539 20.137 145.293 16.387 143.625 14.176 c 142.34 12.469 138.441
 15.203 138.441 15.203 c 138.441 15.203 138.441 13.594 136.895 13.594 c 
135.117 13.594 132.359 15.812 131.188 17.121 c 131.188 17.121 132.75 14.414
 131.895 13.66 c 131.207 13.059 127.008 15.996 127.008 15.996 c 127.008 
15.996 127.453 13.848 125.695 13.66 c 123.945 13.477 121.902 15 120.137 
16.816 c 120.137 16.816 122.016 13.617 120.465 13.637 c 120.465 13.637 121.984
 10.551 125.188 7.699 c 128.383 4.852 130.793 5.035 131.613 5.992 c 132.43
 6.953 132.082 8.73 130.77 9.078 c 129.461 9.434 128.902 8.426 129.09 7.887
 c 129.09 7.887 130.301 8.121 130.676 7.445 c 131.051 6.766 130.793 5.902
 129.719 5.902 c 128.645 5.902 127.871 6.695 127.781 8.027 c 127.688 9.363
 128.949 10.059 130.324 10.059 c 131.707 10.059 133.434 8.543 133.434 6.438
 c 133.434 4.336 132.152 3.75 131.098 3.75 c 130.047 3.75 127.781 4.121 
124.414 7.445 c 121.047 10.762 119.223 14.082 119.223 14.082 c 119.223 14.082
 117.82 14.852 115.742 16.254 c 115.742 16.254 115.836 14.387 114.316 13.824
 c 112.797 13.262 110.625 14.551 108.848 15.742 c 108.848 15.742 108.836
 14.105 107.254 13.684 c 105.602 13.238 102.418 16.184 102.418 16.184 c 
102.418 16.184 103.309 14.289 102.488 13.797 c 101.672 13.309 98.141 16.305
 98.141 16.305 c 98.141 16.305 99.004 14.926 99.707 14.34 c 100.406 13.75
 100.762 13.238 100.762 13.238 c 100.762 13.238 99.496 14.125 97.254 13.941
 c 95.41 13.789 93.047 13.66 89.871 13.66 c 86.691 13.66 84.797 14.082 82.156
 15.531 c 82.156 15.531 82.078 14.297 80.938 14.035 c 79.422 13.684 75.492
 16.043 75.492 16.043 c 75.492 16.043 76.02 14.266 74.16 13.895 c 71.824
 13.426 69.207 15.812 69.207 15.812 c 69.207 15.812 69.531 14.41 68.457 
13.941 c 67.387 13.477 64.438 15.297 64.016 15.602 c 64.016 15.602 64.902
 14.223 64.414 13.941 c 63.855 13.617 61.188 14.504 59.508 15.926 c 59.508
 15.926 62.637 11.043 65.16 8.262 c 67.688 5.477 70.074 3.449 71.871 3.848
 c 72.039 3.473 l 72.039 3.473 69.43 2.438 64.273 7.746 c 62.547 9.527 60.848
 11.863 59.719 13.453 c 57.812 16.137 56.605 18.125 56.605 18.125 c 56.605
 18.125 55.254 19.152 53.898 19.785 c 52.543 20.418 51.512 20.508 51.211
 18.688 c 50.906 16.863 52.355 14.289 54.762 14.734 c 54.762 14.734 54.105
 15.855 55.133 16.184 c 56.164 16.512 56.633 15.445 56.582 14.879 c 56.469
 13.57 54.07 13.594 52.707 14.34 c 50.008 15.816 48.336 19.707 50.324 21.23
 c 52.145 22.637 55.531 19.734 55.531 19.734 c 55.531 19.734 50.086 27.867
 45.738 31.844 c 39.148 37.875 30.781 43.578 30.781 43.578 c 31.367 43.578
 l 31.367 43.578 35.652 40.68 36.301 40.195 c 37.832 39.047 41.293 36.48
 43.59 34.602 c 46.117 32.531 48.98 30.07 51.215 27.41 c 55.84 21.914 59.156
 16.602 59.156 16.602 c 59.156 16.602 61.824 14.871 62.664 15.203 c 63.133
 15.391 59.602 20.977 58.008 21.773 c 58.008 21.773 58.477 22.074 59.668
 21.398 c 60.863 20.719 61.754 19.734 62.52 18.547 c 63.293 17.352 65.504
 14.91 66.965 15.883 c 68.293 16.77 66.473 21.352 64.25 20.719 c 64.25 20.719
 64.953 19.551 64.297 19.086 c 63.645 18.613 62.988 19.062 62.613 19.996
 c 62.242 20.93 62.637 22.191 64.156 21.863 c 65.676 21.535 68.34 19.902
 69.09 16.723 c 69.09 16.723 72.012 14.805 73.18 15.438 c 74.352 16.066 
73.555 21.465 70.961 20.695 c 70.961 20.695 71.93 19.02 70.984 18.547 c 
69.816 17.961 68.574 20.254 69.605 21.258 c 70.633 22.262 72.688 21.516 
73.977 19.996 c 75.262 18.477 75.422 17.59 75.492 16.746 c 75.492 16.746
 79.109 14.402 80.008 15.766 c 80.684 16.793 78.863 19.852 75.844 21.793
 c 76.922 21.773 l 76.922 21.773 78.789 20.371 80.098 21.117 c 81.406 21.863
 80.645 25.895 78.512 28.012 c 73.93 32.547 65.84 36.238 65.84 36.238 c 
66.309 36.238 l 66.309 36.238 75.93 32.258 79.82 28.012 c 82.902 24.648 
83.043 20.812 82.156 19.926 c 81.336 19.105 79.258 19.785 79.258 19.785 
c 79.258 19.785 81.312 18.102 82.062 16.16 c 82.062 16.16 83.957 14.898 
87.16 15.109 c 87.16 15.109 82.191 18.355 83.812 20.977 c 85.449 23.621 
89.703 19.715 89.703 19.715 c 89.703 19.715 89.402 21.422 90.922 21.652 
c 92.438 21.891 94.5 20.254 94.5 20.254 c 94.5 20.254 90.801 27.855 83.699
 34.602 c 75.328 42.551 68.504 46.43 68.504 46.43 c 69.164 46.43 l 69.164
 46.43 76.734 41.941 84.961 34.133 c 93.188 26.328 97.676 17.168 97.676 
17.168 c 97.676 17.168 100.086 14.887 100.898 15.25 c 101.531 15.531 100.359
 18.172 100.039 18.711 c 99.707 19.246 97.391 24.34 92.953 29.883 c 85.617
 39.043 78.18 44.094 78.18 44.094 c 78.84 44.094 l 78.84 44.094 87.508 37.801
 93.371 30.676 c 98.477 24.477 101.648 18.055 101.648 18.055 c 101.648 18.055
 103.961 15.273 105.34 15.348 c 106.719 15.414 107.398 16.371 107 18.082
 c 106.605 19.785 105.434 20.742 104.102 20.625 c 104.102 20.625 104.969
 19.734 103.918 19.086 c 103.055 18.547 101.773 20.125 102.277 20.977 c 
102.961 22.121 105.121 22.004 106.688 20.535 c 108.258 19.062 108.59 18.172
 108.824 16.816 c 108.824 16.816 111.648 14.254 113.262 15.395 c 114.918
 16.566 112.82 20.977 110.836 20.766 c 110.836 20.766 112.238 19.773 111.184
 18.918 c 110.191 18.117 108.684 20.02 109.547 21.16 c 110.41 22.309 112.363
 21.551 113.359 20.73 c 114.668 19.656 115.227 18.547 115.602 17.191 c 115.602
 17.191 118.336 14.992 119.016 15.348 c 119.691 15.695 118.312 19.336 115.789
 22.219 c 115.789 22.219 116.84 21.652 117.473 21.449 c 118.102 21.23 118.406
 20.836 118.664 20.18 c 118.922 19.531 119.562 18.375 119.562 18.375 c 119.562
 18.375 122.316 14.855 124.461 15.414 c 125.816 15.766 124.598 20.953 122.379
 20.742 c 122.379 20.742 123.316 19.645 122.426 19.105 c 121.535 18.566 
119.668 20.418 120.887 21.328 c 122.098 22.242 124.387 21.281 125.441 19.926
 c 126.492 18.566 126.801 16.863 126.801 16.863 c 126.801 16.863 129.316
 14.898 130.117 15.18 c 130.914 15.461 128.973 19.621 128.25 20.977 c 127.52
 22.332 125.586 26.184 121.75 30.629 c 116.746 36.422 112.496 39.977 112.496
 39.977 c 113.238 39.977 l 113.238 39.977 119.078 34.605 122.355 30.906 
c 127.125 25.531 128.621 22.406 128.621 22.406 c h
89.73 18.98 m 89.73 18.98 86.594 21.477 85.844 19.805 c 84.996 17.934 86.715
 15.664 88.52 15.094 c 88.52 15.094 90.738 15.367 92.363 15.273 c 92.363
 15.273 89.984 17.105 89.73 18.98 c h
96.648 16.277 m 96.242 17.07 95.707 18.254 94.902 19.047 c 94.012 19.922
 92.875 20.297 92.02 20.031 c 91.32 19.824 91.457 18.527 91.863 17.473 c
 92.332 16.242 93.371 15.273 93.371 15.273 c 93.371 15.273 94.184 15.109
 95.039 15.238 c 96.031 15.395 96.812 15.344 97.328 15.16 c 97.328 15.16
 97 15.602 96.648 16.277 c h
138.227 16.305 m 138.227 16.305 140.785 13.977 141.758 15.461 c 143.184
 17.648 139.512 20.203 139.512 20.203 c 137.316 20.438 135.352 19.926 135.352
 19.926 c 138.227 17.727 138.227 16.305 138.227 16.305 c h
132.023 17.164 m 133.527 15.496 135.648 14.609 136.309 15.324 c 138.09 
17.246 134.277 19.949 134.277 19.949 c 132.266 19.691 129.367 21.141 129.367
 21.141 c 129.688 20.246 130.773 18.555 132.023 17.164 c h
132.023 17.164 m f*
190.605 12.305 m 189.387 12.656 l 187.965 14.973 181.793 13.871 181.793
 13.871 c 183.219 11.277 186.188 8.098 188.035 6.695 c 189.879 5.293 191.75
 4.922 192.988 5.762 c 194.227 6.605 194.066 7.84 193.645 8.379 c 193.223
 8.918 192.359 9.57 191.285 9.102 c 190.203 8.637 190.531 7.863 190.531 
7.863 c 191.125 8.633 191.777 8.305 192.199 7.828 c 192.516 7.469 192.805
 6.812 192.27 6.32 c 190.895 5.074 187.777 8.262 190.559 9.988 c 191.934
 10.848 193.57 10.031 194.598 8.699 c 195.367 7.703 195.949 5.434 194.672
 4.266 c 192.52 2.301 188.664 5.41 188.664 5.41 c 187.074 4.008 185.254 
4.121 182.984 6.625 c 180.488 9.383 178.219 13.379 178.219 13.379 c 174.832
 12.887 173.59 13.5 172.023 14.082 c 170.457 14.668 168.707 14.34 166.316
 13.871 c 163.938 13.402 161.977 13.52 161.977 13.52 c 164.055 10.176 166.91
 7.633 168.52 6.391 c 170.129 5.152 171.887 4.637 172.965 5.148 c 174.039
 5.664 174.836 7.047 173.488 8.156 c 172.367 9.074 170.949 7.746 170.949
 7.746 c 172.492 7.816 173.359 6.344 172.445 5.668 c 171.535 4.988 170.738
 5.785 170.434 6.227 c 170.129 6.672 169.188 8.066 170.621 9.012 c 171.766
 9.762 173.465 9.453 174.379 8.59 c 175.512 7.52 176.117 5.652 174.969 4.477
 c 173.547 3.016 170.809 3.492 167.469 6.438 c 164.125 9.387 161.129 13.66
 161.129 13.66 c 158.305 14.387 155.684 15.906 155.684 15.906 c 155.684 
15.906 156.012 13.777 154.352 13.684 c 151.145 13.5 148.02 16.91 148.02 
16.91 c 149.656 14.059 149.117 13.426 147.738 14.012 c 146.363 14.598 144.992
 15.465 144.398 15.973 c 144.117 16.215 144.035 16.414 144.141 16.512 c 
144.312 16.668 144.527 16.574 144.766 16.371 c 145.266 15.938 146.691 15.035
 147.039 15.391 c 147.41 15.766 146.383 17.82 145.355 19.785 c 144.328 21.75
 142.551 25.531 134.789 33.855 c 127.031 42.176 121.238 45.914 121.238 45.914
 c 121.84 45.914 l 132.031 38.156 137.57 32.238 140.891 28.125 c 142.918
 25.617 144.629 22.98 145.602 21.391 c 146.305 20.246 146.57 19.902 146.57
 19.902 c 149.074 16.418 151.223 15.273 152.648 15.086 c 154.074 14.898 
154.586 16.012 153.492 18.312 c 152.594 20.195 151.246 20.371 151.246 20.371
 c 151.156 18.867 150.375 18.773 149.699 19.191 c 149.121 19.559 148.762
 20.465 149.164 20.93 c 149.891 21.773 151.082 21.91 153.023 20.438 c 154.965
 18.965 155.566 16.602 155.566 16.602 c 159.59 14.082 162.648 15.016 162.648
 15.016 c 153.516 19.363 153.793 24.25 155.945 26.398 c 158.094 28.547 162.133
 28.535 164.75 26.941 c 168.371 24.742 167.629 22.332 167.629 22.332 c 170.695
 21.305 173.074 18.754 173.074 18.754 c 173.074 18.754 172.375 21.23 174.715
 21.375 c 177.562 21.547 180.277 18.895 180.277 18.895 c 180.277 18.895 
176.812 26.098 171.535 32.922 c 168.859 36.371 166.301 38.785 164.336 40.547
 c 161.906 42.734 160.359 43.859 160.359 43.859 c 160.922 43.859 l 169.43
 37.547 174.852 30.395 178.148 24.879 c 181.441 19.363 183.551 15.391 183.551
 15.391 c 188.129 15.672 190.605 12.305 190.605 12.305 c h
181.141 9.898 m 182.914 7.418 184.316 6.32 185.301 6.066 c 186.281 5.809
 187.125 6.695 187.125 6.695 c 184.715 8.355 181.117 13.707 181.117 13.707
 c 178.777 13.402 l 178.777 13.402 179.367 12.375 181.141 9.898 c h
171.203 19.691 m 169.477 21.156 167.605 21.766 167.605 21.766 c 167.605
 21.766 167.637 20.344 166.637 19.508 c 165.406 18.461 164.445 18.941 163.805
 19.66 c 163.168 20.375 162.98 21.641 164.07 22.434 c 165.16 23.227 166.719
 22.758 166.719 22.758 c 166.82 24.117 165.934 25.121 164.789 25.73 c 162.77
 26.797 160.078 26.988 157.977 25.395 c 155.336 23.391 156.109 20.363 158.52
 18.258 c 160.938 16.152 163.523 15.469 164.398 15.438 c 165.266 15.402 
166.191 15.84 167.797 15.828 c 169.398 15.812 170.27 15.25 171.859 14.645
 c 173.449 14.035 176.039 14.535 176.039 14.535 c 175.055 15.812 172.938
 18.227 171.203 19.691 c h
166.637 22.016 m 164.348 22.184 163.914 20.422 164.285 20.051 c 164.66 
19.676 165.176 19.734 165.785 20.281 c 166.598 21.02 166.637 22.016 166.637
 22.016 c h
182.258 15.367 m 181.258 17.168 l 181.258 17.168 177.027 21.758 175.32 
19.316 c 173.891 17.285 177.328 14.598 177.328 14.598 c 177.328 14.598 180.086
 15.223 182.258 15.367 c h
182.258 15.367 m f*
187.074 20.297 m 187.074 19.949 186.938 19.246 186.188 19.246 c 185.441
 19.246 184.996 19.828 184.996 20.32 c 184.996 20.812 185.348 21.352 186.023
 21.352 c 186.68 21.352 187.074 20.648 187.074 20.297 c h
187.074 20.297 m f*
151.887 11.336 m 152.066 11.496 152.602 11.246 153.168 10.324 c 153.73 
9.406 154.156 7.457 153.609 7.051 c 153.168 6.73 152.465 7.488 152.422 7.797
 c 152.332 8.422 153.035 8.496 152.512 9.969 c 152.211 10.809 151.648 11.133
 151.887 11.336 c h
151.887 11.336 m f*
153.996 10.414 m 154.449 10.559 154.855 9.582 155.129 8.988 c 155.395 8.391
 156.078 7.5 156.434 7.027 c 156.793 6.547 157.062 5.656 156.766 5.535 c
 156.469 5.418 156.199 5.688 155.691 6.25 c 155.188 6.812 155.016 7.816 
154.594 8.871 c 154.289 9.609 153.594 10.285 153.996 10.414 c h
153.996 10.414 m f*
155.605 9.227 m 155.215 10.031 155.16 10.086 155.008 10.652 c 154.855 11.219
 155.484 11.367 155.727 10.562 c 155.879 10.051 156.676 9.105 157.184 8.871
 c 157.793 8.578 158.609 7.707 157.898 7.32 c 157.184 6.934 155.992 8.422
 155.605 9.227 c h
155.605 9.227 m f*
78.449 11.336 m 78.629 11.496 79.16 11.246 79.727 10.324 c 80.293 9.406
 80.719 7.457 80.172 7.051 c 79.727 6.73 79.027 7.488 78.984 7.797 c 78.895
 8.422 79.602 8.496 79.074 9.969 c 78.77 10.809 78.207 11.133 78.449 11.336
 c h
78.449 11.336 m f*
80.562 10.414 m 81.012 10.559 81.426 9.582 81.695 8.988 c 81.957 8.391 
82.645 7.5 83 7.027 c 83.355 6.547 83.625 5.656 83.328 5.535 c 83.027 5.418
 82.762 5.688 82.258 6.25 c 81.75 6.812 81.582 7.816 81.152 8.871 c 80.855
 9.609 80.16 10.285 80.562 10.414 c h
80.562 10.414 m f*
82.168 9.227 m 81.777 10.031 81.719 10.086 81.57 10.652 c 81.426 11.219
 82.047 11.367 82.285 10.562 c 82.438 10.051 83.238 9.105 83.742 8.871 c
 84.359 8.578 85.168 7.707 84.453 7.32 c 83.742 6.934 82.555 8.422 82.168
 9.227 c h
82.168 9.227 m f*
54.27 11.336 m 54.453 11.496 54.988 11.246 55.551 10.324 c 56.117 9.406
 56.547 7.457 55.996 7.051 c 55.551 6.73 54.855 7.488 54.809 7.797 c 54.719
 8.422 55.426 8.496 54.898 9.969 c 54.598 10.809 54.035 11.133 54.27 11.336
 c h
54.27 11.336 m f*
56.383 10.414 m 56.836 10.559 57.246 9.582 57.516 8.988 c 57.785 8.391 
58.469 7.5 58.82 7.027 c 59.18 6.547 59.449 5.656 59.152 5.535 c 58.852 
5.418 58.586 5.688 58.082 6.25 c 57.574 6.812 57.41 7.816 56.98 8.871 c 
56.68 9.609 55.984 10.285 56.383 10.414 c h
56.383 10.414 m f*
57.992 9.227 m 57.605 10.031 57.543 10.086 57.395 10.652 c 57.246 11.219
 57.871 11.367 58.109 10.562 c 58.262 10.051 59.062 9.105 59.566 8.871 c
 60.18 8.578 60.996 7.707 60.281 7.32 c 59.566 6.934 58.379 8.422 57.992
 9.227 c h
57.992 9.227 m f*
206.918 11.336 m 207.102 11.496 207.633 11.246 208.199 10.324 c 208.766
 9.406 209.195 7.457 208.645 7.051 c 208.199 6.73 207.496 7.488 207.457 
7.797 c 207.367 8.422 208.07 8.496 207.547 9.969 c 207.246 10.809 206.684
 11.133 206.918 11.336 c h
206.918 11.336 m f*
209.035 10.414 m 209.48 10.559 209.898 9.582 210.16 8.988 c 210.43 8.391
 211.113 7.5 211.473 7.027 c 211.828 6.547 212.094 5.656 211.801 5.535 c
 211.5 5.418 211.234 5.688 210.727 6.25 c 210.219 6.812 210.055 7.816 209.629
 8.871 c 209.328 9.609 208.629 10.285 209.035 10.414 c h
209.035 10.414 m f*
210.637 9.227 m 210.25 10.031 210.191 10.086 210.043 10.652 c 209.898 11.219
 210.52 11.367 210.758 10.562 c 210.906 10.051 211.707 9.105 212.215 8.871
 c 212.828 8.578 213.641 7.707 212.926 7.32 c 212.215 6.934 211.023 8.422
 210.637 9.227 c h
210.637 9.227 m f*
230.852 11.336 m 231.035 11.496 231.566 11.246 232.133 10.324 c 232.695
 9.406 233.125 7.457 232.578 7.051 c 232.133 6.73 231.434 7.488 231.391 
7.797 c 231.301 8.422 232.004 8.496 231.477 9.969 c 231.184 10.809 230.617
 11.133 230.852 11.336 c h
230.852 11.336 m f*
232.969 10.414 m 233.414 10.559 233.828 9.582 234.098 8.988 c 234.367 8.391
 235.047 7.5 235.406 7.027 c 235.762 6.547 236.031 5.656 235.734 5.535 c
 235.434 5.418 235.164 5.688 234.664 6.25 c 234.156 6.812 233.984 7.816 
233.559 8.871 c 233.258 9.609 232.566 10.285 232.969 10.414 c h
232.969 10.414 m f*
234.57 9.227 m 234.184 10.031 234.129 10.086 233.977 10.652 c 233.828 11.219
 234.453 11.367 234.691 10.562 c 234.844 10.051 235.645 9.105 236.145 8.871
 c 236.762 8.578 237.578 7.707 236.859 7.32 c 236.145 6.934 234.961 8.422
 234.57 9.227 c h
234.57 9.227 m f*
291.836 11.336 m 292.02 11.496 292.551 11.246 293.117 10.324 c 293.684 
9.406 294.109 7.457 293.562 7.051 c 293.117 6.73 292.422 7.488 292.375 7.797
 c 292.281 8.422 292.988 8.496 292.465 9.969 c 292.164 10.809 291.602 11.133
 291.836 11.336 c h
291.836 11.336 m f*
293.953 10.414 m 294.398 10.559 294.816 9.582 295.082 8.988 c 295.352 8.391
 296.035 7.5 296.391 7.027 c 296.746 6.547 297.012 5.656 296.715 5.535 c
 296.418 5.418 296.148 5.688 295.648 6.25 c 295.141 6.812 294.973 7.816 
294.547 8.871 c 294.246 9.609 293.547 10.285 293.953 10.414 c h
293.953 10.414 m f*
295.555 9.227 m 295.168 10.031 295.113 10.086 294.961 10.652 c 294.816 
11.219 295.438 11.367 295.68 10.562 c 295.828 10.051 296.629 9.105 297.133
 8.871 c 297.746 8.578 298.559 7.707 297.848 7.32 c 297.133 6.934 295.945
 8.422 295.555 9.227 c h
295.555 9.227 m f*
317.246 12.934 m 316.285 15.613 312.195 14.734 308.941 14.082 c 305.695
 13.426 302.91 13.285 302.91 13.285 c 305.574 9.477 308.008 7.371 310.395
 5.879 c 312.777 4.383 313.828 4.875 314.434 5.27 c 315.043 5.668 315.621
 6.473 315.18 7.562 c 314.859 8.355 313.828 8.871 312.887 8.496 c 311.957
 8.121 312.398 7.398 312.398 7.398 c 314.016 8.074 314.387 6.414 313.707
 5.879 c 313.031 5.34 312.234 5.762 311.863 6.156 c 311.488 6.559 310.23
 8.211 311.91 9.242 c 313.82 10.41 315.254 9.078 315.887 8.406 c 316.512
 7.723 317.801 5.387 316 3.867 c 314.203 2.348 311.258 4.051 308.383 6.391
 c 305.508 8.73 302.043 13.262 302.043 13.262 c 298.141 13.547 295.176 15.109
 295.176 15.109 c 295.176 15.109 295.27 13.125 293.586 13.238 c 290.762 
13.438 287.746 16.094 287.746 16.094 c 288.324 14.973 288.934 13.145 287.977
 13.125 c 287.02 13.102 283.348 15.645 283.348 15.645 c 283.348 15.645 283.883
 13.5 281.645 13.309 c 279.398 13.125 277.434 14.805 277.434 14.805 c 277.484
 14.387 277.273 13.332 275.473 13.238 c 273.668 13.145 270.238 15.789 270.238
 15.789 c 270.52 15.273 271.195 13.477 270.52 13.309 c 269.359 13.031 265.652
 15.555 265.652 15.555 c 266.285 14.125 266.988 13.355 266.988 13.355 c 
257.074 11.555 250.766 15.555 250.766 15.555 c 251.465 14.289 252.918 12.656
 252.918 12.656 c 252.031 12.613 252.102 13.355 250.109 13.547 c 248.125
 13.73 244.832 13.125 241.043 13.402 c 237.258 13.684 233.73 15.766 233.73
 15.766 c 233.891 15.348 234.055 13.426 232.652 13.5 c 231.25 13.57 227.156
 16.16 227.156 16.16 c 227.156 16.16 227.57 14.086 226.246 13.547 c 224.621
 12.887 221.477 15.25 221.477 15.25 c 221.477 15.25 221.41 13.684 220.242
 13.402 c 218.219 12.918 215.426 15.645 215.426 15.645 c 215.426 15.645 
216.547 13.73 215.801 13.379 c 215.051 13.031 213.09 14.551 213.09 14.551
 c 217.113 7.863 217.762 6.789 219.727 5.012 c 221.766 3.172 223.375 3.473
 223.375 3.473 c 223.652 3 l 220.953 3.016 218.184 5.137 216.23 7.773 c 
212.805 12.414 210.098 16.934 210.098 16.934 c 206.641 20.113 204.77 19.879
 203.977 19.551 c 203.18 19.223 202.664 16.887 203.832 15.531 c 205.172 
13.98 206.598 14.645 206.598 14.645 c 206.598 14.645 205.91 15.578 206.621
 15.973 c 206.977 16.18 207.574 16.129 208.074 15.625 c 208.574 15.125 208.641
 14.23 207.809 13.617 c 206.535 12.684 203.52 14.43 202.348 16.215 c 201.184
 18.008 201.16 20.074 202.172 20.883 c 204.273 22.562 209.258 18.289 209.258
 18.289 c 207.34 21.422 203.926 27.828 197.34 34.93 c 191.305 41.43 186.441
 44.562 186.441 44.562 c 187.008 44.562 l 189.824 42.941 193.852 39.133 
198.156 34.949 c 201.727 31.473 204.797 27.637 206.965 24.27 c 209.742 19.969
 211.758 16.676 212.27 16.094 c 212.781 15.508 213.934 14.758 214.168 15.016
 c 214.398 15.273 214.027 16.281 212.949 18.242 c 211.871 20.203 210.707
 21.422 210.707 21.422 c 210.707 21.422 212.621 21.035 213.637 19.027 c 
215.609 15.145 218.66 14.609 219.121 15.109 c 219.633 15.672 219.867 16.934
 218.836 18.711 c 217.59 20.867 216.547 20.203 216.547 20.203 c 216.547 
20.203 217.812 19.363 216.969 18.523 c 215.609 17.16 214.289 20.039 215.145
 20.719 c 216.426 21.727 217.719 21.281 219.352 19.734 c 220.992 18.195 
221.41 16.234 221.41 16.234 c 224.449 13.988 225.512 15.164 225.105 17.727
 c 224.762 19.867 223.281 20.113 223.281 20.113 c 223.281 20.113 223.75 
19.551 222.906 18.941 c 221.734 18.098 220.613 19.973 221.32 20.812 c 221.914
 21.527 222.859 21.75 224.777 20.156 c 226.691 18.566 226.883 17.07 226.883
 17.07 c 226.883 17.07 231.551 14.176 231.836 15.621 c 232.266 17.859 227.488
 21.465 227.488 21.465 c 228.609 21.465 l 229.266 21.047 230.434 20.766 
230.992 20.953 c 231.551 21.141 234.371 23.102 229.168 28.809 c 223.008 
35.57 217.211 39.512 217.211 39.512 c 217.902 39.512 l 229.168 31.43 234.176
 26.004 233.984 21.652 c 233.848 18.426 230.059 20.156 230.059 20.156 c 
232.395 18.336 233.562 16.328 233.562 16.328 c 237.352 14.691 239.59 14.734
 239.59 14.734 c 239.59 14.734 235.059 17.773 235.949 20.113 c 236.953 22.75
 241.461 20.02 241.461 20.02 c 242.586 23.055 247.305 19.551 247.305 19.551
 c 247.305 19.551 244.082 25.348 239.363 31.566 c 233.641 39.094 225.617
 44.422 225.617 44.422 c 226.086 44.422 l 228.707 42.41 234.547 38.484 240.25
 31.469 c 245.953 24.457 250.301 16.441 250.301 16.441 c 252.711 15.152 
254.879 14.758 254.879 14.758 c 254.879 14.758 250.438 18.008 251.539 20.371
 c 252.641 22.73 256.984 19.828 256.984 19.828 c 258.031 22.609 261.637 
20.113 261.637 20.113 c 261.637 20.113 257.758 26 253.477 30.582 c 245.895
 38.703 237.023 44.652 237.023 44.652 c 237.633 44.652 l 237.633 44.652 
247.82 37.785 255.113 30.07 c 261.52 23.289 265 16.746 265 16.746 c 266.637
 15.555 268.461 14.477 268.785 14.805 c 269.113 15.133 268.621 16.328 267.832
 17.684 c 267.035 19.039 264.324 23.711 258.246 31.098 c 252.172 38.484 
245.996 43.203 245.996 43.203 c 246.512 43.203 l 246.512 43.203 251.891 
38.996 258.012 32.453 c 264.137 25.91 266.355 22.098 266.355 22.098 c 266.355
 22.098 267.594 21.078 269.375 21.047 c 272.176 21 274.441 22.441 277.555
 21.863 c 282.773 20.895 283.723 19.199 283.723 19.199 c 280.215 20.953 
278.863 20.488 278.863 20.488 c 282.203 18.613 283.324 16.16 283.324 16.16
 c 284.75 15.039 286.223 14.363 286.668 14.758 c 287.109 15.152 285.855 
17.762 284.711 19.664 c 283.559 21.566 279.793 27.898 274.527 33.566 c 267.441
 41.176 262.613 44.586 262.613 44.586 c 263.145 44.586 l 263.145 44.586 
273.223 36.668 279.039 29.445 c 284.004 23.293 287.145 17.539 287.145 17.539
 c 290.113 14.395 292.324 14.746 292.723 15.102 c 293.121 15.457 293.965
 16.828 292.238 18.773 c 290.512 20.723 289.668 19.754 289.668 19.754 c 
289.668 19.754 289.797 19.133 289.402 18.645 c 288.77 17.867 286.742 19.312
 287.898 20.723 c 288.973 22.035 290.906 21.035 292.812 19.484 c 294.715
 17.934 295.16 15.766 295.16 15.766 c 300.07 13.328 303.926 14.746 303.926
 14.746 c 296.133 17.316 294.539 22.586 295.203 25.152 c 295.867 27.715 
299.766 28.824 303.57 27.676 c 307.383 26.523 309.148 23.691 308.93 22.008
 c 308.703 20.324 306.715 19.262 304.766 19.754 c 302.816 20.238 302.641
 22.586 304.102 22.539 c 305.566 22.496 305.254 20.684 305.254 20.684 c 
306.938 19.973 308.93 22.273 307.07 24.664 c 305.207 27.055 301.223 27.055
 298.832 25.949 c 296.441 24.84 295.203 22.094 298.613 18.555 c 301.895 
15.152 305.973 15.152 305.973 15.152 c 305.973 15.152 310.391 16.242 312.68
 15.926 c 317.23 15.305 318.812 12.48 318.812 12.48 c h
241.512 19.246 m 241.512 19.246 238.57 20.824 237.98 19.457 c 237.426 18.152
 239.078 15.133 241.84 14.598 c 241.84 14.598 243.57 14.645 245.016 14.781
 c 245.016 14.781 241.953 17.07 241.512 19.246 c h
247.891 18.477 m 247.891 18.477 244.48 20.414 243.453 19.27 c 242.57 18.289
 244.926 15.348 246.211 14.832 c 246.211 14.832 248.312 14.926 250.465 14.266
 c 250.465 14.266 249.414 15.812 247.891 18.477 c h
257.027 19.012 m 257.027 19.012 254.289 20.566 253.5 19.457 c 252.824 18.5
 253.922 15.621 256.445 14.668 c 256.445 14.668 258.758 14.34 260.395 14.457
 c 260.395 14.457 256.844 16.934 257.027 19.012 c h
262.293 18.871 m 262.293 18.871 259.918 20.078 258.922 19.293 c 257.945
 18.523 259.695 15.672 261.496 14.551 c 261.496 14.551 263.25 14.551 264.766
 14.926 c h
273.016 19.996 m 273.016 19.996 269.727 19.621 267.434 20.742 c 269.328
 17.637 l 269.328 17.637 270.539 16.332 271.902 15.434 c 273.18 14.586 274.777
 14.113 275.359 15.203 c 275.766 15.988 275.398 17.023 274.918 17.824 c 
274.195 19.023 273.016 19.996 273.016 19.996 c h
277.805 20.488 m 277.805 20.488 275.824 20.297 273.789 20.066 c 273.789
 20.066 277.039 17.727 277.367 15.672 c 277.367 15.672 280.402 13.574 281.195
 15.25 c 281.91 16.746 280.031 19.531 277.805 20.488 c h
277.805 20.488 m f*
277.832 12.074 m 280.66 12.492 282.902 12.211 283.934 11.699 c 284.961 
11.184 286.363 9.316 285.289 9.266 c 284.211 9.219 284.191 10.762 284.191
 10.762 c 282.062 11.512 280.969 10.793 277.293 10.457 c 275.145 10.262 
273.441 10.805 272.293 11.215 c 269.973 12.051 269.555 13.285 269.555 13.285
 c 272.059 11.676 275.004 11.652 277.832 12.074 c h
277.832 12.074 m f*
278.273 10.059 m 278.562 10.129 279.445 9.5 279.727 8.941 c 280.008 8.379
 281.012 7.371 281.477 7.047 c 281.945 6.719 282.301 6.297 281.762 6.277
 c 281.227 6.25 280.266 6.648 279.938 7.188 c 279.605 7.723 279.066 8.848
 278.695 9.172 c 278.09 9.711 277.996 9.988 278.273 10.059 c h
278.273 10.059 m f*
181.008 57.125 m 181.188 57.285 181.723 57.039 182.285 56.117 c 182.848
 55.195 183.281 53.246 182.734 52.848 c 182.285 52.52 181.586 53.285 181.543
 53.59 c 181.453 54.211 182.156 54.285 181.633 55.762 c 181.332 56.602 180.77
 56.922 181.008 57.125 c h
181.008 57.125 m f*
183.117 56.207 m 183.566 56.348 183.98 55.375 184.25 54.777 c 184.52 54.184
 185.203 53.289 185.559 52.816 c 185.914 52.34 186.184 51.445 185.887 51.328
 c 185.586 51.211 185.32 51.477 184.816 52.043 c 184.309 52.609 184.137 
53.613 183.711 54.664 c 183.414 55.402 182.715 56.078 183.117 56.207 c h
183.117 56.207 m f*
184.723 55.016 m 184.336 55.82 184.277 55.879 184.129 56.445 c 183.98 57.008
 184.605 57.156 184.844 56.355 c 184.996 55.844 185.793 54.898 186.301 54.664
 c 186.914 54.371 187.727 53.5 187.016 53.113 c 186.301 52.727 185.109 54.211
 184.723 55.016 c h
184.723 55.016 m f*
300.535 57.125 m 300.723 57.285 301.254 57.039 301.82 56.117 c 302.387 
55.195 302.816 53.246 302.266 52.848 c 301.82 52.52 301.121 53.285 301.078
 53.59 c 300.988 54.211 301.691 54.285 301.164 55.762 c 300.863 56.602 300.301
 56.922 300.535 57.125 c h
300.535 57.125 m f*
302.652 56.207 m 303.102 56.348 303.516 55.375 303.785 54.777 c 304.055
 54.184 304.738 53.289 305.09 52.816 c 305.449 52.34 305.715 51.445 305.422
 51.328 c 305.121 51.211 304.855 51.477 304.348 52.043 c 303.844 52.609 
303.676 53.613 303.246 54.664 c 302.949 55.402 302.254 56.078 302.652 56.207
 c h
302.652 56.207 m f*
304.258 55.016 m 303.871 55.82 303.812 55.879 303.664 56.445 c 303.516 
57.008 304.141 57.156 304.379 56.355 c 304.531 55.844 305.336 54.898 305.836
 54.664 c 306.449 54.371 307.262 53.5 306.551 53.113 c 305.836 52.727 304.648
 54.211 304.258 55.016 c h
304.258 55.016 m f*
115.312 57.125 m 115.496 57.285 116.027 57.039 116.594 56.117 c 117.16 
55.195 117.59 53.246 117.039 52.848 c 116.594 52.52 115.898 53.285 115.852
 53.59 c 115.762 54.211 116.469 54.285 115.941 55.762 c 115.637 56.602 115.074
 56.922 115.312 57.125 c h
115.312 57.125 m f*
117.426 56.207 m 117.875 56.348 118.289 55.375 118.555 54.777 c 118.824
 54.184 119.508 53.289 119.867 52.816 c 120.223 52.34 120.488 51.445 120.191
 51.328 c 119.891 51.211 119.625 51.477 119.121 52.043 c 118.613 52.609 
118.445 53.613 118.023 54.664 c 117.723 55.402 117.023 56.078 117.426 56.207
 c h
117.426 56.207 m f*
119.031 55.016 m 118.645 55.82 118.586 55.879 118.438 56.445 c 118.289 
57.008 118.91 57.156 119.152 56.355 c 119.301 55.844 120.105 54.898 120.609
 54.664 c 121.223 54.371 122.035 53.5 121.324 53.113 c 120.609 52.727 119.422
 54.211 119.031 55.016 c h
119.031 55.016 m f*
103.555 57.125 m 103.738 57.285 104.273 57.039 104.836 56.117 c 105.398
 55.195 105.828 53.246 105.281 52.848 c 104.836 52.52 104.137 53.285 104.094
 53.59 c 104.004 54.211 104.703 54.285 104.184 55.762 c 103.883 56.602 103.32
 56.922 103.555 57.125 c h
103.555 57.125 m f*
105.668 56.207 m 106.117 56.348 106.531 55.375 106.797 54.777 c 107.066
 54.184 107.75 53.289 108.109 52.816 c 108.465 52.34 108.734 51.445 108.434
 51.328 c 108.137 51.211 107.871 51.477 107.363 52.043 c 106.859 52.609 
106.691 53.613 106.266 54.664 c 105.961 55.402 105.266 56.078 105.668 56.207
 c h
105.668 56.207 m f*
107.273 55.016 m 106.891 55.82 106.824 55.879 106.68 56.445 c 106.531 57.008
 107.16 57.156 107.395 56.355 c 107.547 55.844 108.344 54.898 108.852 54.664
 c 109.465 54.371 110.277 53.5 109.566 53.113 c 108.852 52.727 107.66 54.211
 107.273 55.016 c h
107.273 55.016 m f*
56.363 57.125 m 56.539 57.285 57.078 57.039 57.641 56.117 c 58.207 55.195
 58.637 53.246 58.09 52.848 c 57.641 52.52 56.941 53.285 56.895 53.59 c 
56.812 54.211 57.512 54.285 56.988 55.762 c 56.688 56.602 56.125 56.922 
56.363 57.125 c h
56.363 57.125 m f*
58.477 56.207 m 58.93 56.348 59.336 55.375 59.605 54.777 c 59.875 54.184
 60.559 53.289 60.918 52.816 c 61.273 52.34 61.539 51.445 61.242 51.328 
c 60.949 51.211 60.676 51.477 60.172 52.043 c 59.664 52.609 59.496 53.613
 59.074 54.664 c 58.766 55.402 58.074 56.078 58.477 56.207 c h
58.477 56.207 m f*
60.082 55.016 m 59.695 55.82 59.637 55.879 59.488 56.445 c 59.336 57.008
 59.965 57.156 60.203 56.355 c 60.352 55.844 61.152 54.898 61.664 54.664
 c 62.277 54.371 63.09 53.5 62.375 53.113 c 61.664 52.727 60.469 54.211 
60.082 55.016 c h
60.082 55.016 m f*
32.973 57.125 m 33.152 57.285 33.684 57.039 34.25 56.117 c 34.816 55.195
 35.242 53.246 34.699 52.848 c 34.25 52.52 33.551 53.285 33.508 53.59 c 
33.418 54.211 34.121 54.285 33.594 55.762 c 33.297 56.602 32.73 56.922 32.973
 57.125 c h
32.973 57.125 m f*
35.082 56.207 m 35.535 56.348 35.945 55.375 36.211 54.777 c 36.48 54.184
 37.164 53.289 37.523 52.816 c 37.879 52.34 38.148 51.445 37.852 51.328 
c 37.551 51.211 37.285 51.477 36.777 52.043 c 36.273 52.609 36.105 53.613
 35.676 54.664 c 35.375 55.402 34.68 56.078 35.082 56.207 c h
35.082 56.207 m f*
36.688 55.016 m 36.301 55.82 36.242 55.879 36.094 56.445 c 35.945 57.008
 36.57 57.156 36.809 56.355 c 36.961 55.844 37.758 54.898 38.266 54.664 
c 38.879 54.371 39.695 53.5 38.98 53.113 c 38.266 52.727 37.078 54.211 36.688
 55.016 c h
36.688 55.016 m f*
79.441 59.902 m 79.441 59.902 79.121 60.285 76.684 60.32 c 73.457 60.371
 64.625 58.355 59.199 62.328 c 59.199 62.328 59.617 60.32 57.75 60.133 c
 56.934 60.055 56.031 60.566 55.016 61.113 c 53.715 61.816 52.379 62.613
 52.379 62.613 c 52.379 62.613 52.656 60.977 51.441 60.227 c 50.223 59.48
 47.512 61.441 46.91 62.098 c 46.91 62.098 47.09 60.695 46.016 60.32 c 44.941
 59.945 42.375 61.398 41.391 62.238 c 41.391 62.238 42.23 60.602 41.531 
60.32 c 40.832 60.039 38.398 61.164 36.902 62.426 c 36.902 62.426 38.492
 59.582 40.562 56.652 c 42.836 53.434 45.73 50.098 48.867 50.32 c 49.289
 49.852 l 49.289 49.852 46.062 48.68 40.082 55.883 c 40.082 55.883 36.621
 60.418 34.426 64.531 c 34.426 64.531 31.027 67.707 29.754 66.258 c 28.352
 64.668 30.031 60.32 32.512 61.023 c 32.512 61.023 31.926 61.816 32.582 
62.285 c 33.23 62.754 35.035 61.488 34.074 60.695 c 33.117 59.902 30.758
 59.668 28.605 62.66 c 26.457 65.648 27.785 67.309 28.535 67.777 c 29.285
 68.246 30.941 68.152 33.23 66.234 c 33.23 66.234 28.957 73.176 23.578 78.926
 c 18.207 84.676 10.676 89.488 10.676 89.488 c 11.289 89.488 l 11.289 89.488
 18.953 84.488 24.516 78.926 c 30.078 73.359 33.305 68.082 36.156 63.781
 c 36.156 63.781 38.586 61.398 39.754 61.863 c 40.219 62.051 39.098 63.734
 38.398 64.902 c 37.699 66.07 36.668 67.801 35.734 68.316 c 35.734 68.316
 36.719 68.547 38.492 66.68 c 38.492 66.68 41.391 61.441 44.102 61.773 c
 45.324 61.918 45.02 63.145 44.637 64.461 c 44.172 66.059 43.527 67.188 
41.625 67.195 c 41.625 67.195 42.605 65.883 41.297 65.559 c 39.988 65.227
 39.285 67.664 40.922 68.082 c 42.559 68.504 46.016 66.82 46.719 63.219 
c 46.719 63.219 48.578 61 49.992 61.816 c 51.207 62.52 50.363 67.613 48.168
 67.238 c 48.168 67.238 48.852 66.062 47.98 65.648 c 46.996 65.18 45.402
 67.566 47.418 68.031 c 49.828 68.594 52.332 65.043 52.379 63.266 c 52.379
 63.266 53.758 62.531 55.121 61.789 c 56.172 61.223 57.133 61.285 57.328
 62.238 c 57.641 63.762 55.605 66.727 53.637 68.176 c 54.293 68.176 l 54.293
 68.176 56.91 65.793 58.219 67.336 c 59.527 68.875 58.172 73.176 52.656 
77.941 c 47.141 82.711 44.988 84.062 42.277 85.707 c 43.027 85.707 l 43.027
 85.707 53.406 79.395 57.426 74.066 c 61.445 68.738 61.492 64.809 56.91 
65.742 c 56.91 65.742 58.406 64.574 58.965 62.801 c 58.965 62.801 60.84 
61.352 65.465 61.066 c 65.465 61.066 60.547 63.898 61.914 66.773 c 63.266
 69.621 67.477 66.164 67.477 66.164 c 67.477 66.164 67.805 69.438 72.246
 66.91 c 72.246 66.91 70.188 71.309 59.809 80.656 c 52.203 87.508 44.852
 91.781 44.852 91.781 c 45.508 91.781 l 45.508 91.781 53.824 87.105 63.18
 78.41 c 72.523 69.719 76.406 62.887 77.059 62.191 c 77.711 61.488 79.07
 60.695 79.441 59.902 c h
67.523 65.465 m 67.523 65.465 64.438 68.031 63.641 66.352 c 62.348 63.609
 66.824 61.066 66.824 61.066 c 68.27 60.977 71.312 61.258 71.312 61.258 
c 67.383 63.309 67.523 65.465 67.523 65.465 c h
73.93 64.809 m 73.93 64.809 70.57 67.641 69.578 66.309 c 67.898 64.031 
72.293 61.305 72.293 61.305 c 74.77 61.816 76.359 61.441 76.359 61.441 c
 75.191 62.613 73.93 64.809 73.93 64.809 c h
73.93 64.809 m f*
154.328 51.203 m 152.223 49.57 147.973 52.375 146.195 54.805 c 144.418 
57.234 142.598 59.902 142.598 59.902 c 134.227 60.418 132.594 64.016 132.594
 64.016 c 136.145 61.352 139.699 61.582 139.699 61.582 c 138.34 62.754 138.062
 63.734 135.91 65.836 c 133.762 67.938 131.848 67.895 131.848 67.895 c 132.312
 65.273 129.09 64.199 128.148 65.137 c 127.328 65.957 127.312 66.961 128.246
 67.801 c 129.176 68.641 130.863 68.547 130.863 68.547 c 130.305 71.211 
127.637 72.758 123.383 72.52 c 119.129 72.289 117.727 68.691 120.629 65.227
 c 123.523 61.773 127.594 61.535 127.594 61.535 c 127.594 61.535 130.672
 62.879 133.625 61.582 c 136.285 60.418 136.191 58.918 136.191 58.918 c 
134.695 59.855 l 134.273 61.488 132.406 61.023 130.348 60.602 c 128.289 
60.18 125.629 59.855 125.629 59.855 c 126.848 58.5 128.328 56.656 131.707
 53.965 c 134.93 51.391 137.031 50.922 138.25 51.766 c 139.23 52.449 139.418
 53.637 138.996 54.246 c 138.578 54.852 137.918 55.699 136.336 55.273 c 
134.605 54.805 135.535 53.496 135.535 53.496 c 135.586 54.012 136.848 54.711
 137.547 53.73 c 138.422 52.504 136.66 51.297 135.305 52.516 c 134.344 53.379
 133.625 54.898 134.93 55.832 c 136.238 56.766 138.391 56.117 139.23 55.18
 c 139.875 54.465 141.523 52.141 139.699 50.785 c 137.875 49.426 134.977
 50.41 131.191 53.496 c 127.402 56.582 124.973 59.902 124.973 59.902 c 120.582
 59.809 117.773 62.191 117.773 62.191 c 117.773 62.191 117.867 60.277 116.977
 60.18 c 114.129 59.883 110.906 63.078 110.906 63.078 c 110.906 63.078 112.531
 59.961 111.742 60.039 c 109.082 60.309 104.871 63.5 104.871 63.5 c 104.871
 63.5 105.434 62.566 105.953 61.676 c 106.465 60.789 107.68 59.711 107.68
 59.711 c 106.602 60.277 105.855 60.277 102.207 59.945 c 98.562 59.617 96.039
 61.957 96.039 61.957 c 96.039 61.957 96.738 60.238 95.664 60.133 c 94.359
 60.008 93.609 60.379 92.895 60.816 c 91.824 61.473 91.086 62.285 91.086
 62.285 c 91.086 62.285 93.512 60.836 94.262 61.633 c 95.145 62.566 92.344
 66.629 92.344 66.629 c 92.344 66.629 91.27 67.191 90.941 66.961 c 89.934
 66.246 91.41 60.461 90.336 60.227 c 89.555 60.059 86.457 62.285 86.457 
62.285 c 86.457 62.285 86.641 60.602 85.613 60.32 c 83.602 59.773 79.863
 63.406 79.863 63.406 c 84.488 54.434 86.219 52.648 89.352 50.363 c 93.699
 47.188 96.363 48.164 96.363 48.164 c 97.066 47.418 l 95.055 46.297 88.559
 49.664 85.242 52.793 c 81.922 55.926 79.07 61.816 77.762 64.668 c 76.453
 67.52 75.656 68.031 75.656 68.031 c 77.57 67.938 77.812 66.219 79.723 64.391
 c 81.875 62.328 83.789 61.488 84.441 61.91 c 84.895 62.199 85.285 63.969
 84.262 65.695 c 83.23 67.422 81.41 67.051 81.41 67.051 c 82.855 65.602 
81.172 64.762 80.195 66.07 c 78.602 68.195 82.762 68.547 84.867 66.352 c
 86.973 64.152 86.504 62.613 86.504 62.613 c 87.809 61.816 l 89.539 60.742
 89.215 63.824 89.121 66.211 c 89.027 68.594 91.551 67.801 91.551 67.801
 c 91.551 67.801 91.129 69.109 85.473 75.469 c 79.82 81.82 76.824 83.461
 76.824 83.461 c 77.387 83.461 l 80.285 81.777 85.52 77.242 89.961 72.004
 c 94.402 66.773 95.992 62.328 95.992 62.328 c 97.816 60.977 100.242 61.352
 100.242 61.352 c 97.863 62.887 95.383 65.445 96.504 67.238 c 97.676 69.109
 101.367 67.051 101.367 67.051 c 101.367 67.051 99.875 69.484 95.852 74.438
 c 91.828 79.395 82.293 86.547 82.293 86.547 c 82.809 86.547 l 82.809 86.547
 91.035 81.215 96.457 75.047 c 101.879 68.875 104.219 64.531 104.219 64.531
 c 107.113 62.379 109.551 61.398 109.918 61.582 c 110.293 61.773 109.5 63.219
 108.75 64.668 c 108.004 66.117 105.062 72.758 94.543 81.82 c 84.023 90.891
 80.098 92.625 80.098 92.625 c 81.172 92.625 l 83.602 91.176 90.473 86.688
 97.816 80.047 c 105.152 73.41 106.18 71.117 107.305 69.438 c 108.426 67.754
 109.223 65.371 111.09 63.734 c 112.48 62.516 114.645 61.258 115.297 61.633
 c 115.953 62.004 116.469 64.016 115.578 65.793 c 114.641 67.668 112.727
 67.098 112.727 67.098 c 112.727 67.098 114.051 66.188 113.055 65.559 c 
111.766 64.746 110.48 67.148 111.887 67.801 c 113.133 68.379 114.969 67.754
 116.324 66.117 c 117.57 64.613 117.68 63.078 117.68 63.078 c 120.535 60.039
 125.676 61.258 125.676 61.258 c 119.879 63.266 116 68.406 117.727 71.539
 c 119.641 75.004 125.676 73.785 128.434 72.332 c 131.395 70.777 131.707
 68.547 131.707 68.547 c 134.367 68.547 136.754 65.883 136.754 65.883 c 
136.754 65.883 136.613 67.754 138.156 67.988 c 139.973 68.262 141.941 66.629
 141.941 66.629 c 138.809 71.309 135.398 75.371 129.555 81.121 c 123.707
 86.875 117.773 90.473 117.773 90.473 c 118.383 90.473 l 118.383 90.473 
126.047 85.613 130.582 81.262 c 135.117 76.914 139.043 72.613 141.383 69.109
 c 145.336 63.18 146.945 61.816 146.945 61.816 c 146.945 61.816 148.941 
61.887 151.477 60.742 c 153.844 59.676 154.281 58.078 154.281 58.078 c 153.117
 58.547 l 152.48 61.09 146.566 60.277 146.566 60.277 c 151.43 54.055 153.254
 52.891 156.059 51.766 c 158.863 50.645 160.926 53.129 159.656 54.523 c 
158.871 55.391 157.93 55.207 157.316 54.816 c 156.871 54.535 156.621 54.105
 156.621 54.105 c 157.742 54.758 159.477 53.168 158.16 52.277 c 156.852 
51.391 153.918 53.902 156.766 55.648 c 159.426 57.281 163.07 53.027 160.734
 50.785 c 158.398 48.543 154.328 51.203 154.328 51.203 c h
130.848 67.844 m 130.66 67.914 129.828 67.699 129.188 67.293 c 128.5 66.852
 128.293 66.027 128.473 65.816 c 128.781 65.457 129.504 65.703 130.086 66.199
 c 130.969 66.945 130.848 67.844 130.848 67.844 c h
102.164 65.742 m 102.164 65.742 98.656 68.031 98.141 65.836 c 97.629 63.641
 100.434 61.863 101.227 61.441 c 101.227 61.441 102.91 61.582 104.781 61.582
 c h
142.738 65.512 m 142.738 65.512 139.57 67.961 138.719 65.512 c 138.012 
63.5 141.051 61.488 141.051 61.488 c 141.051 61.488 142.457 61.488 143.348
 61.633 c 144.234 61.773 145.496 61.816 145.496 61.816 c 145.496 61.816 
144.465 63.035 142.738 65.512 c h
145.684 60.18 m 145.684 60.18 144.141 59.992 143.348 59.992 c 143.348 59.992
 145.305 56.859 146.852 55.035 c 148.395 53.215 151.105 51.391 152.508 52.562
 c 152.508 52.562 150.684 53.824 145.684 60.18 c h
145.684 60.18 m f*
148.746 65.77 m 147.996 65.77 147.551 66.352 147.551 66.84 c 147.551 67.336
 147.902 67.867 148.578 67.867 c 149.238 67.867 149.633 67.168 149.633 66.82
 c 149.633 66.469 149.488 65.77 148.746 65.77 c h
148.746 65.77 m f*
215.004 60.086 m 212.898 58.684 209.348 62.285 209.348 62.285 c 209.348
 62.285 210.375 60.18 210.004 59.902 c 209.512 59.535 208.184 60.277 208.184
 60.277 c 210.004 56.859 212.898 54.055 213.883 53.121 c 214.863 52.184 
217.867 49.84 219.586 51.723 c 220.371 52.574 220.336 53.777 219.734 54.344
 c 219.145 54.883 218.434 55.129 217.625 54.617 c 216.664 54.016 216.922
 53.355 216.922 53.355 c 217.719 54.012 219.488 52.938 218.695 51.766 c 
217.84 50.504 214.355 53.121 216.641 55.273 c 218.551 57.062 222.531 54.148
 221.082 51.254 c 219.633 48.355 216.176 50.32 213.648 52.277 c 211.129 
54.246 207.105 60.742 207.105 60.742 c 203.781 62.469 l 203.781 62.469 204.957
 60.371 203.367 59.945 c 201.777 59.527 198.504 61.258 198.504 61.258 c 
198.504 61.258 198.641 59.992 197.289 59.855 c 195.609 59.68 192.242 62.285
 192.242 62.285 c 192.242 62.285 193.688 60.18 192.992 59.855 c 191.5 59.16
 188.078 61.816 188.078 61.816 c 188.078 61.816 192.055 55.883 195.469 52.422
 c 198.879 48.965 200.469 49.805 200.469 49.805 c 201.215 49.098 l 200.141
 48.492 198.18 49.336 194.246 52.516 c 190.32 55.695 187.895 60.027 187.895
 60.027 c 184.223 60.848 184.363 59.582 178.055 59.66 c 170.293 59.754 166.203
 63.441 166.203 63.441 c 173.172 60.496 175.367 61.164 175.367 61.164 c 
175.367 61.164 170.41 64.531 171.535 66.961 c 172.773 69.641 177.703 65.648
 177.703 65.648 c 178.359 69.484 182.797 66.727 182.797 66.727 c 182.797
 66.727 180.926 70.09 177.234 73.969 c 172.262 79.191 163.961 83.789 163.961
 83.789 c 164.707 83.789 l 164.707 83.789 173.871 78.785 178.266 74.203 
c 182.656 69.621 187.145 63.125 187.145 63.125 c 188.781 61.863 190.418 
61.113 190.699 61.258 c 190.977 61.398 190.234 62.938 189.719 63.734 c 189.199
 64.531 184.152 72.848 177.094 79.953 c 170.035 87.062 161.945 91.27 161.945
 91.27 c 162.699 91.27 l 162.699 91.27 172.562 85.656 178.168 80.098 c 183.781
 74.531 187.984 68.547 187.984 68.547 c 189.25 67.844 190.605 67.379 196.539
 67.895 c 202.477 68.406 204.957 65.512 204.957 65.512 c 203.32 66.82 200.609
 66.352 200.609 66.352 c 202.199 65.137 203.086 63.547 203.086 63.547 c 
205.051 62.379 207.57 61.258 207.805 61.633 c 208.039 62.004 207.855 63.078
 206.875 64.953 c 205.891 66.82 204.488 68.082 204.488 68.082 c 206.875 
67.754 208.555 64.062 208.555 64.062 c 210.332 62.188 212.129 60.812 213.074
 61.105 c 214.184 61.445 214.027 63.652 213.414 64.953 c 212.246 67.41 210.473
 66.961 210.473 66.961 c 211.559 66.465 211.137 65.531 210.586 65.25 c 210.164
 65.035 209.668 65.102 209.16 65.793 c 208.613 66.535 208.695 68.594 211.684
 67.613 c 214.68 66.629 217.113 61.488 215.004 60.086 c h
177.797 64.902 m 177.797 64.902 174.434 67.566 173.449 65.512 c 172.465
 63.453 176.531 61.164 176.531 61.164 c 176.531 61.164 179.203 61.488 180.789
 61.488 c 180.789 61.488 178.219 63.078 177.797 64.902 c h
184.105 64.902 m 184.105 64.902 180.938 67.539 179.668 65.371 c 178.73 
63.781 181.77 61.535 181.77 61.535 c 181.77 61.535 185.227 61.633 186.91
 61.066 c h
194.531 66.117 m 194.531 66.117 190.93 66.258 188.918 67.379 c 191.117 
64.105 l 191.117 64.105 195.184 60.008 196.586 61.676 c 197.848 63.172 194.531
 66.117 194.531 66.117 c h
199.816 66.352 m 199.816 66.352 196.684 66.398 195.469 66.117 c 195.469
 66.117 198.27 63.871 198.457 62.328 c 198.457 62.328 200.984 60.32 202.008
 61.488 c 203.035 62.66 200.887 65.371 199.816 66.352 c h
199.816 66.352 m f*
222.672 69.996 m 219.914 68.082 217.625 71.539 218.84 72.52 c 220.055 73.504
 221.035 71.867 220.566 71.398 c 220.102 70.934 219.586 71.211 219.586 71.211
 c 220.102 69.066 223.98 71.477 222.07 73.504 c 220.301 75.371 215.238 74.113
 215.566 70.887 c 215.895 67.664 222.672 64.438 222.672 64.438 c 223.047
 63.641 l 222.238 64.203 219.09 66.043 218.273 64.957 c 217.527 63.965 218.723
 60.227 221.645 57.051 c 227.512 50.656 230.293 49.852 230.293 49.852 c 
230.758 49.242 l 229.469 48.977 222.465 54.641 219.129 58.871 c 217.484 
60.961 216.875 62.543 216.594 63.969 c 215.938 67.324 218.277 66.539 218.277
 66.539 c 216.078 68.129 211.402 72.488 215.613 74.953 c 217.785 76.219 
220.621 75.715 222.109 74.297 c 223.586 72.883 224.047 70.949 222.672 69.996
 c h
222.672 69.996 m f*
280.402 67.801 m 284.281 66.961 284.344 67.859 287.461 67.336 c 290.5 66.82
 291.625 64.855 291.625 64.855 c 288.816 66.82 287.043 66.117 287.043 66.117
 c 287.043 66.117 291.902 61.352 289.613 59.945 c 287.32 58.547 282.602 
62.938 282.602 62.938 c 282.602 62.938 284.141 60.086 283.164 59.668 c 282.176
 59.242 277.926 62.52 277.926 62.52 c 277.926 62.52 279.043 60.227 277.836
 59.809 c 275.5 58.996 272.453 61.305 272.453 61.305 c 272.453 61.305 272.594
 59.855 271.805 59.711 c 270.77 59.531 267.223 61.676 267.223 61.676 c 267.871
 60.32 268.668 59.617 268.668 59.617 c 267.922 59.902 266.426 59.711 262.594
 59.668 c 258.758 59.617 255.863 61.91 255.863 61.91 c 255.863 61.91 257.078
 60.039 256.516 59.711 c 255.43 59.078 250.953 61.816 250.953 61.816 c 250.953
 61.816 253.852 56.301 256.891 53.121 c 260.406 49.445 262.547 49.523 262.547
 49.523 c 262.734 49.055 l 259.039 49.383 254.785 53.914 253.055 56.488 
c 251.324 59.059 248.098 64.062 248.098 64.062 c 245.656 66.18 244.105 66.32
 243.406 65.578 c 242.582 64.695 242.395 63.047 243.426 61.676 c 244.559
 60.176 246.32 60.602 246.32 60.602 c 245.156 61.633 246.695 63.547 247.824
 62.004 c 248.547 61.008 247.871 60.27 247.383 59.891 c 246.418 59.16 244.207
 59.789 242.773 61.258 c 240.344 63.734 240.809 65.836 240.809 65.836 c 
238.938 67.801 235.293 66.82 235.293 66.82 c 235.293 66.82 237.305 64.953
 237.816 64.438 c 238.332 63.922 240.062 62.004 239.082 60.461 c 237.617
 58.164 233.75 61.398 233.75 61.398 c 233.75 59.105 231.695 59.945 231.695
 59.945 c 234.918 55.461 237.488 53.355 238.516 52.652 c 239.543 51.953 
242.812 50.176 244.176 51.723 c 245.676 53.414 244.316 55.035 242.867 54.57
 c 241.852 54.246 241.93 53.684 241.93 53.684 c 242.539 54.055 244.02 52.812
 243.055 51.859 c 241.75 50.582 239.598 53.496 241 54.805 c 242.328 56.047
 244.055 55.676 245.012 54.816 c 245.508 54.371 247.027 52.469 245.766 50.738
 c 244.258 48.676 241.695 49.664 238.797 51.488 c 235.902 53.309 230.242
 60.371 230.242 60.371 c 228.891 60.883 227.629 62.285 227.629 62.285 c 
227.629 62.285 228.891 60.32 228.422 59.992 c 227.219 59.148 223.699 61.441
 223.699 61.441 c 223.559 62.051 l 223.559 62.051 226.695 60.227 226.738
 61.398 c 226.777 62.398 225.398 64.152 223.816 66.098 c 222.742 67.406 
221.406 68.316 221.406 68.316 c 224.68 67.148 229.078 67.422 233.609 67.895
 c 238.145 68.363 241 66.398 241 66.398 c 242.309 69.109 247.211 65.742 
247.211 65.742 c 245.199 69.297 240.531 76.539 237.727 79.859 c 234.918 
83.18 230.34 86.875 230.34 86.875 c 231.035 86.875 l 231.035 86.875 234.312
 84.113 236.883 81.594 c 239.453 79.066 242.352 75.559 244.879 71.867 c 
247.402 68.176 250.438 62.66 250.438 62.66 c 250.438 62.66 253.48 60.883
 254.129 61.211 c 254.785 61.535 253.527 63.684 252.637 65.227 c 251.746
 66.773 249.551 68.27 249.551 68.27 c 250.953 67.988 252.453 67.566 253.34
 66.484 c 254.223 65.41 255.441 62.801 255.441 62.801 c 257.965 61.113 260.723
 61.066 260.723 61.066 c 260.723 61.066 256.094 64.062 257.309 66.445 c 
258.527 68.828 263.25 66.309 263.25 66.309 c 263.25 66.309 259.32 73.176
 252.453 80.234 c 245.578 87.293 238.891 91.031 238.891 91.031 c 239.684
 91.031 l 244.691 88.227 252.59 81.777 257.82 75.605 c 263.062 69.438 266.238
 63.172 266.238 63.172 c 266.238 63.172 267.551 62.297 269.32 61.535 c 271.289
 60.695 270.676 62.887 270.77 65.695 c 270.867 68.504 273.996 67.379 273.996
 67.379 c 273.996 67.379 272.5 70.184 269.699 73.504 c 264.996 79.066 259.738
 82.102 259.738 82.102 c 260.305 82.102 l 263.34 80.375 266.332 78.035 270.637
 73.648 c 274.934 69.25 277.32 63.922 277.32 63.922 c 278.672 62.566 280.926
 61.043 281.289 61.211 c 281.801 61.441 281.199 62.938 280.965 63.734 c 
280.727 64.531 279.141 69.344 274.277 76.258 c 269.586 82.941 265.398 85.328
 265.398 85.328 c 266.051 85.328 l 269.23 83.133 272.129 80.324 275.496 
75.887 c 278.859 71.445 280.402 67.801 280.402 67.801 c h
229.727 66.258 m 229.727 66.258 226.551 66.164 224.449 66.91 c 224.449 
66.91 228.926 60.531 231.324 61.352 c 233.375 62.051 230.898 65.465 229.727
 66.258 c h
234.453 66.68 m 234.453 66.68 231.977 66.352 230.617 66.309 c 230.617 66.309
 233.281 64.199 233.566 62.379 c 233.566 62.379 235.758 60.18 237.16 61.258
 c 238.566 62.328 236.324 65.371 234.453 66.68 c h
263.949 65.043 m 263.949 65.043 259.906 67.688 259.133 65.273 c 258.336
 62.801 262.078 61.023 262.078 61.023 c 262.078 61.023 264.559 60.93 266.191
 61.258 c h
274.652 66.211 m 274.652 66.211 272.41 67.938 272.363 65.227 c 272.32 62.754
 272.453 62.238 272.453 62.238 c 272.453 62.238 274.254 60.441 275.82 60.977
 c 277.594 61.582 274.652 66.211 274.652 66.211 c h
285.543 61.582 m 286.785 60.973 287.805 60.816 288.008 61.344 c 288.41 
62.387 287.379 64.875 286.152 65.98 c 286.152 65.98 283.719 65.465 281.012
 66.68 c 281.012 66.68 282.559 63.059 285.543 61.582 c h
285.543 61.582 m f*
250.055 56 m 250.613 55.535 252.02 53.703 252.48 52.906 c 252.949 52.102
 252.02 52.102 251.281 52.84 c 250.551 53.57 250.254 54.637 249.652 55.402
 c 249.055 56.168 248.551 56.301 248.82 56.566 c 249.086 56.832 249.488 
56.469 250.055 56 c h
250.055 56 m f*
260.484 52.84 m 259.754 53.57 259.453 54.637 258.852 55.402 c 258.258 56.168
 257.75 56.301 258.02 56.566 c 258.285 56.832 258.691 56.469 259.258 56 
c 259.816 55.535 261.219 53.703 261.684 52.906 c 262.152 52.102 261.219 
52.102 260.484 52.84 c h
260.484 52.84 m f*
289.168 55.113 m 289.738 54.645 291.133 52.816 291.602 52.016 c 292.07 
51.215 291.133 51.215 290.402 51.953 c 289.672 52.684 289.371 53.75 288.77
 54.516 c 288.176 55.281 287.672 55.414 287.938 55.68 c 288.203 55.945 288.605
 55.582 289.168 55.113 c h
289.168 55.113 m f*
290.078 57.891 m 294.219 58.32 294.004 55.18 294.004 55.18 c 293.68 56.207
 292.043 56.859 289.52 56.441 c 287.789 56.152 284.605 56.027 282.926 56.859
 c 281.035 57.801 280.309 59.293 280.309 59.293 c 283.164 56.348 286.48 
57.52 290.078 57.891 c h
290.078 57.891 m f*
326.074 51.672 m 324.848 50.766 321.703 54.094 324.48 55.598 c 326.246 
56.559 327.66 55.656 328.684 54.293 c 329.762 52.879 330.098 51.199 328.828
 50.133 c 326.109 47.836 322.145 51.066 319.25 53.496 c 316.348 55.926 313.168
 59.48 313.168 59.48 c 308.262 59.48 303.168 62.379 303.168 62.379 c 303.168
 62.379 303.824 59.242 301.156 59.617 c 298.266 60.023 295.406 62.754 295.406
 62.754 c 295.406 62.754 297.535 58.578 294.707 59.617 c 291.457 60.812 
290.363 62.379 290.363 62.379 c 290.363 62.379 293.496 60.32 294.102 60.836
 c 294.707 61.352 294.148 62.801 293.496 64.199 c 292.832 65.602 291.902
 68.406 285.688 77.195 c 279.559 85.852 272.172 91.27 272.172 91.27 c 272.879
 91.27 l 278.672 86.73 281.48 83.18 285.781 78.273 c 290.078 73.359 294.566
 64.574 294.566 64.574 c 295.406 63.684 296.895 61.992 298.914 61.258 c 
300.973 60.508 302.09 62.426 300.879 64.855 c 299.66 67.289 297.277 66.539
 297.277 66.539 c 298.215 66.398 298.305 64.711 296.859 64.762 c 295.441
 64.809 294.609 67.801 298.215 67.422 c 301.344 67.102 302.98 63.078 302.98
 63.078 c 309.621 59.617 314.668 61.352 314.668 61.352 c 308.031 63.219 
303.402 68.922 306.582 72.055 c 308.449 73.898 311.102 74.613 313.762 74.66
 c 316.199 74.707 317.32 74.211 319.258 73.305 c 324.309 70.953 324.344 
64.953 319.855 65.559 c 315.367 66.164 315.832 70.371 318.312 70.141 c 320.793
 69.902 319.902 67.988 319.059 67.988 c 318.219 67.988 317.941 68.922 317.941
 68.922 c 317.145 68.594 317.379 67.754 317.379 67.754 c 318.594 65.512 
322.004 66.258 322.191 68.27 c 322.379 70.277 318.805 73.789 314.855 73.359
 c 310.453 72.887 306.02 70.695 307.703 66.82 c 309.383 62.938 316.586 61.676
 316.586 61.676 c 319.668 62.887 321.293 63.035 324.195 62.098 c 327.094
 61.164 328.492 58.676 328.492 58.676 c 326.68 59.277 l 325.066 62.32 322.523
 61.641 320.012 60.844 c 317.48 60.031 314.105 59.574 314.105 59.574 c 316.539
 56.535 317.562 55.695 321.117 52.98 c 324.672 50.27 326.535 50.922 327.289
 51.488 c 328.035 52.047 328.594 53.406 327.797 54.199 c 327.004 54.992 
326.262 55.035 325.418 54.758 c 324.578 54.477 324.527 53.449 324.527 53.449
 c 325.84 54.195 327.152 52.469 326.074 51.672 c h
326.074 51.672 m f*
38.898 17.859 m 38.898 17.859 37.969 18.422 37.742 17.488 c 37.527 16.59
 39.758 15.809 41.625 16.891 c 43.492 17.973 43.977 19.652 46.625 18.867
 c 49.273 18.086 48.527 20.438 47.074 19.875 c 45.617 19.316 44.938 20.988
 41.062 18.684 c 39.309 17.637 39.309 17.113 38.898 17.859 c h
38.898 17.859 m f*
39.07 11.074 m 39.07 11.074 37.918 11.312 38.059 10.062 c 38.195 8.859 
41.41 8.566 42.855 10.785 c 44.297 13.008 43.453 15.707 46.414 16.02 c 49.375
 16.332 47.703 18.852 46.465 17.469 c 45.23 16.082 44.414 17.73 41.441 13.047
 c 40.094 10.926 39.777 10.359 39.07 11.074 c h
39.07 11.074 m f*
324.828 17.957 m 324.828 17.957 325.719 18.492 325.934 17.602 c 326.137
 16.742 324.008 16 322.23 17.031 c 320.449 18.062 319.984 19.668 317.457
 18.918 c 314.93 18.172 315.645 20.414 317.031 19.879 c 318.418 19.348 319.066
 20.941 322.762 18.742 c 324.438 17.742 324.438 17.246 324.828 17.957 c 
h
324.828 17.957 m f*
324.664 11.484 m 324.664 11.484 325.766 11.711 325.629 10.52 c 325.5 9.371
 322.434 9.09 321.055 11.207 c 319.68 13.328 320.484 15.902 317.66 16.199
 c 314.832 16.5 316.43 18.902 317.609 17.582 c 318.789 16.262 319.57 17.832
 322.406 13.363 c 323.688 11.34 323.992 10.801 324.664 11.484 c h
324.664 11.484 m f*
Q Q
showpage
%%Trailer
end
%%EOF
