%!PS-Adobe-3.0 EPSF-3.0
%%Creator: cairo 1.17.4 (https://cairographics.org)
%%CreationDate: Wed Jan 20 23:03:24 2021
%%Pages: 1
%%DocumentData: Clean7Bit
%%LanguageLevel: 2
%%BoundingBox: 29 68 622 452
%%EndComments
%%BeginProlog
50 dict begin
/q { gsave } bind def
/Q { grestore } bind def
/cm { 6 array astore concat } bind def
/w { setlinewidth } bind def
/J { setlinecap } bind def
/j { setlinejoin } bind def
/M { setmiterlimit } bind def
/d { setdash } bind def
/m { moveto } bind def
/l { lineto } bind def
/c { curveto } bind def
/h { closepath } bind def
/re { exch dup neg 3 1 roll 5 3 roll moveto 0 rlineto
      0 exch rlineto 0 rlineto closepath } bind def
/S { stroke } bind def
/f { fill } bind def
/f* { eofill } bind def
/n { newpath } bind def
/W { clip } bind def
/W* { eoclip } bind def
/BT { } bind def
/ET { } bind def
/BDC { mark 3 1 roll /BDC pdfmark } bind def
/EMC { mark /EMC pdfmark } bind def
/cairo_store_point { /cairo_point_y exch def /cairo_point_x exch def } def
/Tj { show currentpoint cairo_store_point } bind def
/TJ {
  {
    dup
    type /stringtype eq
    { show } { -0.001 mul 0 cairo_font_matrix dtransform rmoveto } ifelse
  } forall
  currentpoint cairo_store_point
} bind def
/cairo_selectfont { cairo_font_matrix aload pop pop pop 0 0 6 array astore
    cairo_font exch selectfont cairo_point_x cairo_point_y moveto } bind def
/Tf { pop /cairo_font exch def /cairo_font_matrix where
      { pop cairo_selectfont } if } bind def
/Td { matrix translate cairo_font_matrix matrix concatmatrix dup
      /cairo_font_matrix exch def dup 4 get exch 5 get cairo_store_point
      /cairo_font where { pop cairo_selectfont } if } bind def
/Tm { 2 copy 8 2 roll 6 array astore /cairo_font_matrix exch def
      cairo_store_point /cairo_font where { pop cairo_selectfont } if } bind def
/g { setgray } bind def
/rg { setrgbcolor } bind def
/d1 { setcachedevice } bind def
/cairo_data_source {
  CairoDataIndex CairoData length lt
    { CairoData CairoDataIndex get /CairoDataIndex CairoDataIndex 1 add def }
    { () } ifelse
} def
/cairo_flush_ascii85_file { cairo_ascii85_file status { cairo_ascii85_file flushfile } if } def
/cairo_image { image cairo_flush_ascii85_file } def
/cairo_imagemask { imagemask cairo_flush_ascii85_file } def
%%EndProlog
%%BeginSetup
%%EndSetup
%%Page: 1 1
%%BeginPageSetup
%%PageBoundingBox: 29 68 622 452
%%EndPageSetup
q 29 68 593 384 rectclip
1 0 0 -1 0 527 cm q
0 g
2.4 w
0 J
0 j
[] 0.0 d
4 M q 1 0 0 1 0 0 cm
363.707 446.098 m 145.223 118.285 l S Q
q 1 0 0 1 0 0 cm
582.445 118.285 m 582.445 446.098 l S Q
q 1 0 0 1 0 0 cm
364.172 118.285 m 473.035 447.062 l S Q
q 1 0 0 1 0 0 cm
438.02 227.645 m 540.387 227.645 l S Q
q 1 0 0 1 0 0 cm
258.879 227.645 m 361.246 227.645 l S Q
q 1 0 0 1 0 0 cm
340.648 336.539 m 401.172 336.539 l S Q
q 1 0 0 1 0 0 cm
472.352 336.539 m 542.258 336.539 l S Q
q 1 0 0 1 0 0 cm
408.738 446.098 m 541.012 446.098 l S Q
q 1 0 0 1 0 0 cm
187.043 118.285 m 326.914 118.285 l S Q
q 1 0 0 1 0 0 cm
407.379 118.285 m 532.895 118.285 l S Q
153.418 118.895 m 153.418 122.684 150.34 125.758 146.551 125.758 c 142.758
 125.758 139.684 122.684 139.684 118.895 c 139.684 115.102 142.758 112.027
 146.551 112.027 c 150.34 112.027 153.418 115.102 153.418 118.895 c h
153.418 118.895 m f
127.52 125.207 m 130.066 125.207 l 130.066 126.758 l 122.254 126.758 l 
122.254 125.207 l 124.828 125.207 l 124.828 112.773 l 122.254 112.773 l 
122.254 111.207 l 127.52 111.207 l h
124.082 106.379 m 124.082 105.93 124.246 105.539 124.574 105.207 c 124.898
 104.879 125.293 104.711 125.75 104.711 c 126.199 104.711 126.586 104.879
 126.914 105.207 c 127.238 105.539 127.402 105.93 127.402 106.379 c 127.402
 106.836 127.242 107.227 126.922 107.551 c 126.598 107.871 126.207 108.031
 125.75 108.031 c 125.293 108.031 124.898 107.871 124.574 107.551 c 124.246
 107.227 124.082 106.84 124.082 106.379 c h
124.082 106.379 m f
40.422 121.32 m 40.137 122.562 39.59 123.512 38.777 124.16 c 37.965 124.812
 36.914 125.137 35.629 125.137 c 33.93 125.137 32.566 124.574 31.535 123.453
 c 30.504 122.332 29.988 120.84 29.988 118.98 c 29.988 117.117 30.504 115.625
 31.535 114.512 c 32.566 113.395 33.93 112.84 35.629 112.84 c 36.367 112.84
 37.102 112.926 37.832 113.098 c 38.562 113.27 39.301 113.531 40.039 113.879
 c 40.039 116.863 l 38.863 116.863 l 38.711 115.84 38.375 115.094 37.863
 114.629 c 37.344 114.16 36.609 113.926 35.652 113.926 c 34.559 113.926 
33.738 114.348 33.18 115.191 c 32.625 116.035 32.348 117.301 32.348 118.984
 c 32.348 120.664 32.625 121.93 33.176 122.781 c 33.727 123.629 34.551 124.051
 35.648 124.051 c 36.52 124.051 37.215 123.824 37.734 123.371 c 38.254 122.918
 38.609 122.234 38.797 121.32 c h
40.422 121.32 m f
46.062 123.656 m 47.973 123.656 l 47.973 124.82 l 42.102 124.82 l 42.102
 123.656 l 44.043 123.656 l 44.043 108.91 l 42.102 108.91 l 42.102 107.746
 l 46.062 107.746 l h
46.062 123.656 m f
55.398 125.137 m 53.703 125.137 52.34 124.574 51.309 123.453 c 50.277 122.332
 49.762 120.84 49.762 118.98 c 49.762 117.125 50.273 115.637 51.301 114.516
 c 52.328 113.398 53.695 112.84 55.398 112.84 c 57.102 112.84 58.469 113.398
 59.496 114.516 c 60.523 115.637 61.039 117.125 61.039 118.98 c 61.039 120.84
 60.523 122.332 59.496 123.453 c 58.469 124.574 57.105 125.137 55.398 125.137
 c h
55.398 124.051 m 56.48 124.051 57.301 123.621 57.852 122.766 c 58.406 121.91
 58.68 120.648 58.68 118.98 c 58.68 117.312 58.402 116.055 57.852 115.203
 c 57.301 114.348 56.484 113.922 55.398 113.922 c 54.316 113.922 53.5 114.348
 52.945 115.203 c 52.395 116.055 52.117 117.312 52.117 118.98 c 52.117 120.648
 52.398 121.91 52.953 122.766 c 53.508 123.625 54.324 124.051 55.398 124.051
 c h
55.398 124.051 m f
63.43 124.172 m 63.43 121.449 l 64.594 121.449 l 64.625 122.32 64.895 122.973
 65.41 123.402 c 65.93 123.836 66.691 124.051 67.699 124.051 c 68.605 124.051
 69.297 123.879 69.773 123.539 c 70.25 123.199 70.488 122.707 70.488 122.055
 c 70.488 121.543 70.312 121.129 69.965 120.816 c 69.617 120.5 68.883 120.164
 67.766 119.805 c 66.305 119.312 l 65.305 118.988 64.578 118.586 64.129 
118.105 c 63.68 117.621 63.453 117.008 63.453 116.262 c 63.453 115.191 63.844
 114.355 64.625 113.75 c 65.41 113.141 66.492 112.84 67.875 112.84 c 68.488
 112.84 69.137 112.918 69.816 113.078 c 70.496 113.242 71.199 113.477 71.922
 113.781 c 71.922 116.328 l 70.762 116.328 l 70.73 115.574 70.469 114.984
 69.969 114.562 c 69.473 114.137 68.797 113.926 67.941 113.926 c 67.094 
113.926 66.449 114.074 66.016 114.375 c 65.578 114.676 65.363 115.125 65.363
 115.723 c 65.363 116.215 65.527 116.605 65.855 116.902 c 66.184 117.199
 66.844 117.5 67.832 117.809 c 69.434 118.301 l 70.539 118.645 71.332 119.074
 71.82 119.59 c 72.305 120.105 72.551 120.77 72.551 121.582 c 72.551 122.688
 72.125 123.555 71.281 124.188 c 70.438 124.82 69.273 125.137 67.789 125.137
 c 67.035 125.137 66.297 125.059 65.582 124.895 c 64.863 124.734 64.148 
124.492 63.43 124.172 c h
63.43 124.172 m f
85.879 119.203 m 77.18 119.203 l 77.18 119.289 l 77.18 120.863 77.477 122.047
 78.066 122.848 c 78.66 123.648 79.535 124.051 80.691 124.051 c 81.574 124.051
 82.301 123.816 82.867 123.355 c 83.434 122.891 83.832 122.199 84.059 121.285
 c 85.684 121.285 l 85.359 122.566 84.766 123.527 83.898 124.172 c 83.031
 124.816 81.895 125.137 80.48 125.137 c 78.777 125.137 77.406 124.574 76.371
 123.453 c 75.336 122.332 74.82 120.84 74.82 118.98 c 74.82 117.141 75.328
 115.652 76.344 114.527 c 77.363 113.402 78.695 112.84 80.352 112.84 c 82.113
 112.84 83.465 113.383 84.41 114.469 c 85.352 115.555 85.844 117.133 85.879
 119.203 c h
83.5 118.039 m 83.453 116.676 83.168 115.652 82.637 114.961 c 82.109 114.27
 81.344 113.922 80.352 113.922 c 79.422 113.922 78.691 114.27 78.156 114.965
 c 77.621 115.66 77.297 116.684 77.18 118.039 c h
83.5 118.039 m f
59.164 230.859 m 58.879 232.102 58.328 233.051 57.52 233.699 c 56.707 234.352
 55.656 234.676 54.367 234.676 c 52.672 234.676 51.309 234.113 50.277 232.992
 c 49.246 231.871 48.73 230.379 48.73 228.52 c 48.73 226.656 49.246 225.164
 50.277 224.051 c 51.309 222.934 52.672 222.379 54.367 222.379 c 55.109 
222.379 55.844 222.465 56.574 222.637 c 57.305 222.809 58.039 223.07 58.777
 223.418 c 58.777 226.402 l 57.605 226.402 l 57.453 225.379 57.117 224.633
 56.602 224.164 c 56.086 223.699 55.348 223.465 54.391 223.465 c 53.301 
223.465 52.477 223.887 51.922 224.73 c 51.367 225.574 51.086 226.84 51.086
 228.523 c 51.086 230.203 51.363 231.469 51.914 232.32 c 52.469 233.168 
53.293 233.59 54.391 233.59 c 55.262 233.59 55.957 233.363 56.473 232.91
 c 56.992 232.457 57.348 231.773 57.539 230.859 c h
59.164 230.859 m f
64.805 233.195 m 66.711 233.195 l 66.711 234.359 l 60.84 234.359 l 60.84
 233.195 l 62.785 233.195 l 62.785 218.449 l 60.84 218.449 l 60.84 217.285
 l 64.801 217.285 l 64.801 233.195 l h
64.805 233.195 m f
74.141 234.676 m 72.441 234.676 71.078 234.113 70.047 232.992 c 69.016 
231.867 68.5 230.379 68.5 228.52 c 68.5 226.664 69.016 225.176 70.043 224.055
 c 71.07 222.938 72.438 222.375 74.141 222.375 c 75.844 222.375 77.211 222.938
 78.238 224.055 c 79.266 225.176 79.781 226.664 79.781 228.52 c 79.781 230.379
 79.266 231.867 78.238 232.992 c 77.211 234.113 75.844 234.676 74.141 234.676
 c h
74.141 233.59 m 75.223 233.59 76.039 233.16 76.594 232.305 c 77.145 231.449
 77.422 230.188 77.422 228.52 c 77.422 226.852 77.145 225.594 76.594 224.742
 c 76.039 223.887 75.223 223.461 74.141 223.461 c 73.059 223.461 72.238 
223.887 71.688 224.742 c 71.137 225.594 70.859 226.852 70.859 228.52 c 70.859
 230.188 71.137 231.449 71.695 232.305 c 72.25 233.16 73.066 233.59 74.141
 233.59 c h
74.141 233.59 m f
82.172 233.711 m 82.172 230.988 l 83.336 230.988 l 83.363 231.859 83.637
 232.512 84.152 232.941 c 84.668 233.375 85.43 233.59 86.441 233.59 c 87.348
 233.59 88.039 233.418 88.512 233.078 c 88.988 232.738 89.227 232.246 89.227
 231.594 c 89.227 231.082 89.055 230.668 88.707 230.352 c 88.359 230.039
 87.625 229.703 86.504 229.344 c 85.047 228.852 l 84.043 228.527 83.316 
228.125 82.867 227.645 c 82.418 227.16 82.191 226.547 82.191 225.801 c 82.191
 224.73 82.586 223.895 83.367 223.289 c 84.148 222.68 85.23 222.379 86.617
 222.379 c 87.23 222.379 87.875 222.457 88.559 222.617 c 89.238 222.781 
89.938 223.016 90.664 223.32 c 90.664 225.867 l 89.5 225.867 l 89.473 225.113
 89.207 224.523 88.711 224.102 c 88.215 223.676 87.535 223.465 86.68 223.465
 c 85.832 223.465 85.191 223.613 84.754 223.914 c 84.32 224.215 84.102 224.664
 84.102 225.262 c 84.102 225.754 84.266 226.145 84.598 226.441 c 84.926 
226.738 85.582 227.039 86.57 227.348 c 88.172 227.84 l 89.277 228.184 90.074
 228.613 90.559 229.129 c 91.047 229.645 91.289 230.309 91.289 231.121 c
 91.289 232.227 90.867 233.094 90.023 233.727 c 89.176 234.359 88.012 234.676
 86.527 234.676 c 85.773 234.676 85.039 234.598 84.324 234.434 c 83.605 
234.273 82.887 234.031 82.172 233.711 c h
82.172 233.711 m f
104.621 228.742 m 95.918 228.742 l 95.918 228.828 l 95.918 230.402 96.215
 231.586 96.809 232.387 c 97.402 233.188 98.277 233.59 99.43 233.59 c 100.316
 233.59 101.043 233.355 101.609 232.895 c 102.176 232.43 102.574 231.738
 102.801 230.824 c 104.422 230.824 l 104.102 232.105 103.508 233.066 102.641
 233.711 c 101.773 234.355 100.633 234.676 99.223 234.676 c 97.52 234.676
 96.148 234.113 95.113 232.992 c 94.078 231.871 93.562 230.379 93.562 228.52
 c 93.562 226.68 94.07 225.191 95.086 224.066 c 96.102 222.941 97.438 222.379
 99.09 222.379 c 100.855 222.379 102.207 222.922 103.152 224.008 c 104.094
 225.094 104.582 226.672 104.621 228.742 c h
102.238 227.578 m 102.195 226.215 101.91 225.191 101.379 224.5 c 100.848
 223.809 100.086 223.461 99.09 223.461 c 98.16 223.461 97.43 223.809 96.895
 224.504 c 96.363 225.199 96.035 226.223 95.918 227.578 c h
102.238 227.578 m f
106.727 227.48 5.617 1.711 re f
124.973 224.965 m 125.359 224.109 125.855 223.465 126.461 223.027 c 127.062
 222.594 127.766 222.375 128.57 222.375 c 129.793 222.375 130.703 222.754
 131.305 223.512 c 131.902 224.27 132.203 225.41 132.203 226.941 c 132.203
 233.195 l 134.023 233.195 l 134.023 234.359 l 128.43 234.359 l 128.43 233.195
 l 130.184 233.195 l 130.184 227.172 l 130.184 225.98 130.008 225.129 129.66
 224.625 c 129.309 224.121 128.727 223.867 127.914 223.867 c 127.016 223.867
 126.328 224.207 125.855 224.891 c 125.387 225.57 125.148 226.562 125.148
 227.863 c 125.148 233.195 l 126.906 233.195 l 126.906 234.359 l 121.375
 234.359 l 121.375 233.195 l 123.129 233.195 l 123.129 227.094 l 123.129
 225.93 122.953 225.102 122.605 224.609 c 122.254 224.117 121.672 223.867
 120.859 223.867 c 119.961 223.867 119.273 224.207 118.801 224.891 c 118.332
 225.57 118.094 226.562 118.094 227.863 c 118.094 233.195 l 119.852 233.195
 l 119.852 234.359 l 114.254 234.359 l 114.254 233.195 l 116.074 233.195
 l 116.074 223.848 l 114.145 223.848 l 114.145 222.695 l 118.094 222.695
 l 118.094 224.77 l 118.469 223.992 118.941 223.398 119.523 222.992 c 120.102
 222.582 120.754 222.375 121.484 222.375 c 122.391 222.375 123.148 222.602
 123.758 223.051 c 124.363 223.5 124.77 224.141 124.973 224.965 c h
124.973 224.965 m f
139.402 233.195 m 141.309 233.195 l 141.309 234.359 l 135.453 234.359 l
 135.453 233.195 l 137.383 233.195 l 137.383 223.867 l 135.453 223.867 l
 135.453 222.695 l 139.402 222.695 l h
136.824 219.074 m 136.824 218.738 136.945 218.445 137.191 218.195 c 137.438
 217.949 137.73 217.824 138.074 217.824 c 138.41 217.824 138.703 217.949
 138.945 218.195 c 139.191 218.445 139.312 218.738 139.312 219.074 c 139.312
 219.418 139.191 219.711 138.953 219.953 c 138.711 220.191 138.418 220.312
 138.074 220.312 c 137.73 220.312 137.438 220.191 137.191 219.953 c 136.945
 219.711 136.824 219.418 136.824 219.074 c h
136.824 219.074 m f
153.621 233.195 m 155.551 233.195 l 155.551 234.359 l 151.602 234.359 l
 151.602 232.535 l 151.207 233.27 150.703 233.809 150.094 234.156 c 149.484
 234.504 148.727 234.676 147.828 234.676 c 146.395 234.676 145.223 234.109
 144.309 232.969 c 143.398 231.832 142.945 230.352 142.945 228.52 c 142.945
 226.691 143.398 225.211 144.305 224.078 c 145.211 222.945 146.387 222.375
 147.828 222.375 c 148.727 222.375 149.48 222.551 150.094 222.898 c 150.703
 223.246 151.207 223.785 151.602 224.516 c 151.602 218.449 l 149.691 218.449
 l 149.691 217.285 l 153.621 217.285 l h
151.602 229.102 m 151.602 227.949 l 151.602 226.555 151.332 225.484 150.797
 224.746 c 150.258 224.008 149.477 223.637 148.453 223.637 c 147.414 223.637
 146.629 224.047 146.098 224.867 c 145.566 225.688 145.305 226.902 145.305
 228.52 c 145.305 230.129 145.566 231.348 146.098 232.176 c 146.629 233 
147.414 233.414 148.453 233.414 c 149.477 233.414 150.258 233.047 150.797
 232.312 c 151.332 231.578 151.602 230.508 151.602 229.102 c h
151.602 229.102 m f
73.109 344.215 m 71.41 344.215 70.047 343.652 69.016 342.531 c 67.984 341.41
 67.469 339.918 67.469 338.059 c 67.469 336.203 67.984 334.715 69.012 333.594
 c 70.039 332.477 71.406 331.914 73.109 331.914 c 74.812 331.914 76.18 332.477
 77.207 333.594 c 78.234 334.715 78.75 336.203 78.75 338.059 c 78.75 339.918
 78.234 341.41 77.207 342.531 c 76.18 343.652 74.812 344.215 73.109 344.215
 c h
73.109 343.129 m 74.191 343.129 75.008 342.699 75.562 341.844 c 76.113 
340.988 76.391 339.727 76.391 338.059 c 76.391 336.391 76.113 335.133 75.562
 334.281 c 75.008 333.426 74.191 333 73.109 333 c 72.027 333 71.207 333.426
 70.656 334.281 c 70.105 335.133 69.828 336.391 69.828 338.059 c 69.828 
339.727 70.105 340.988 70.664 341.844 c 71.219 342.699 72.035 343.129 73.109
 343.129 c h
73.109 343.129 m f
82.469 333.406 m 80.527 333.406 l 80.527 332.234 l 84.488 332.234 l 84.488
 334.055 l 84.883 333.324 85.387 332.785 85.996 332.438 c 86.605 332.09 
87.363 331.914 88.262 331.914 c 89.695 331.914 90.867 332.484 91.773 333.617
 c 92.68 334.75 93.133 336.23 93.133 338.059 c 93.133 339.891 92.68 341.371
 91.773 342.512 c 90.867 343.648 89.695 344.215 88.262 344.215 c 87.363 
344.215 86.605 344.043 85.996 343.695 c 85.387 343.348 84.883 342.809 84.488
 342.078 c 84.488 347.398 l 86.395 347.398 l 86.395 348.57 l 80.527 348.57
 l 80.527 347.398 l 82.469 347.398 l h
84.488 337.488 m 84.488 338.641 l 84.488 340.047 84.758 341.113 85.293 
341.852 c 85.832 342.586 86.613 342.953 87.637 342.953 c 88.668 342.953 
89.449 342.539 89.98 341.715 c 90.508 340.887 90.773 339.668 90.773 338.059
 c 90.773 336.441 90.508 335.227 89.98 334.406 c 89.449 333.586 88.668 333.176
 87.637 333.176 c 86.613 333.176 85.832 333.547 85.293 334.285 c 84.758 
335.023 84.488 336.094 84.488 337.488 c h
84.488 337.488 m f
106.441 338.277 m 97.742 338.277 l 97.742 338.367 l 97.742 339.941 98.035
 341.125 98.629 341.926 c 99.223 342.727 100.098 343.129 101.254 343.129
 c 102.137 343.129 102.863 342.895 103.43 342.434 c 103.996 341.969 104.395
 341.277 104.621 340.363 c 106.246 340.363 l 105.922 341.645 105.328 342.605
 104.461 343.25 c 103.594 343.895 102.457 344.215 101.043 344.215 c 99.34
 344.215 97.969 343.652 96.934 342.531 c 95.898 341.41 95.383 339.918 95.383
 338.059 c 95.383 336.215 95.891 334.73 96.906 333.605 c 97.922 332.48 99.258
 331.914 100.91 331.914 c 102.676 331.914 104.027 332.461 104.973 333.547
 c 105.914 334.629 106.406 336.211 106.441 338.277 c h
104.062 337.117 m 104.016 335.758 103.73 334.73 103.199 334.039 c 102.668
 333.348 101.906 333 100.914 333 c 99.984 333 99.254 333.348 98.719 334.043
 c 98.184 334.738 97.859 335.762 97.742 337.117 c h
104.062 337.117 m f
108.484 343.898 m 108.484 342.734 l 110.305 342.734 l 110.305 333.406 l
 108.371 333.406 l 108.371 332.234 l 112.324 332.234 l 112.324 334.309 l
 112.695 333.516 113.18 332.922 113.777 332.52 c 114.371 332.117 115.066
 331.914 115.855 331.914 c 117.145 331.914 118.09 332.285 118.695 333.023
 c 119.305 333.762 119.609 334.914 119.609 336.48 c 119.609 342.734 l 121.406
 342.734 l 121.406 343.898 l 115.832 343.898 l 115.832 342.734 l 117.578
 342.734 l 117.578 337.117 l 117.578 335.691 117.402 334.711 117.051 334.18
 c 116.699 333.652 116.082 333.387 115.195 333.387 c 114.262 333.387 113.547
 333.727 113.059 334.41 c 112.566 335.094 112.32 336.09 112.32 337.402 c
 112.32 342.734 l 114.078 342.734 l 114.078 343.895 l 108.484 343.895 l 
h
108.484 343.898 m f
123.02 337.016 5.617 1.711 re f
141.266 334.504 m 141.656 333.648 142.152 333.004 142.754 332.566 c 143.355
 332.133 144.062 331.914 144.867 331.914 c 146.086 331.914 146.996 332.293
 147.598 333.051 c 148.195 333.809 148.496 334.949 148.496 336.48 c 148.496
 342.734 l 150.32 342.734 l 150.32 343.898 l 144.723 343.898 l 144.723 342.734
 l 146.48 342.734 l 146.48 336.711 l 146.48 335.52 146.305 334.668 145.953
 334.164 c 145.602 333.66 145.02 333.406 144.207 333.406 c 143.309 333.406
 142.621 333.746 142.152 334.426 c 141.68 335.109 141.441 336.098 141.441
 337.402 c 141.441 342.734 l 143.199 342.734 l 143.199 343.895 l 137.668
 343.895 l 137.668 342.734 l 139.426 342.734 l 139.426 336.633 l 139.426
 335.469 139.25 334.641 138.898 334.148 c 138.547 333.652 137.965 333.406
 137.152 333.406 c 136.254 333.406 135.566 333.746 135.098 334.426 c 134.625
 335.109 134.391 336.098 134.391 337.402 c 134.391 342.734 l 136.145 342.734
 l 136.145 343.895 l 130.547 343.895 l 130.547 342.734 l 132.371 342.734
 l 132.371 333.383 l 130.438 333.383 l 130.438 332.234 l 134.391 332.234
 l 134.391 334.305 l 134.762 333.531 135.238 332.938 135.816 332.527 c 136.395
 332.121 137.047 331.914 137.781 331.914 c 138.688 331.914 139.445 332.141
 140.051 332.59 c 140.656 333.039 141.062 333.68 141.266 334.504 c h
141.266 334.504 m f
155.695 342.734 m 157.605 342.734 l 157.605 343.898 l 151.746 343.898 l
 151.746 342.734 l 153.676 342.734 l 153.676 333.406 l 151.746 333.406 l
 151.746 332.234 l 155.695 332.234 l h
153.117 328.613 m 153.117 328.277 153.238 327.984 153.484 327.734 c 153.73
 327.484 154.023 327.363 154.367 327.363 c 154.703 327.363 154.996 327.484
 155.242 327.734 c 155.484 327.984 155.609 328.277 155.609 328.613 c 155.609
 328.957 155.488 329.25 155.246 329.492 c 155.004 329.73 154.711 329.852
 154.367 329.852 c 154.023 329.852 153.73 329.73 153.484 329.492 c 153.238
 329.25 153.117 328.957 153.117 328.613 c h
153.117 328.613 m f
169.914 342.734 m 171.848 342.734 l 171.848 343.898 l 167.895 343.898 l
 167.895 342.074 l 167.5 342.809 166.996 343.348 166.387 343.695 c 165.777
 344.039 165.02 344.215 164.121 344.215 c 162.688 344.215 161.516 343.645
 160.605 342.508 c 159.695 341.371 159.238 339.887 159.238 338.059 c 159.238
 336.23 159.691 334.75 160.598 333.613 c 161.504 332.48 162.68 331.914 164.121
 331.914 c 165.02 331.914 165.777 332.09 166.387 332.434 c 166.996 332.781
 167.5 333.324 167.895 334.055 c 167.895 327.984 l 165.988 327.984 l 165.988
 326.824 l 169.914 326.824 l h
167.895 338.641 m 167.895 337.488 l 167.895 336.094 167.629 335.023 167.09
 334.285 c 166.551 333.547 165.77 333.176 164.746 333.176 c 163.707 333.176
 162.922 333.586 162.395 334.406 c 161.863 335.227 161.598 336.441 161.598
 338.059 c 161.598 339.668 161.863 340.887 162.395 341.715 c 162.922 342.539
 163.707 342.953 164.746 342.953 c 165.77 342.953 166.551 342.586 167.09
 341.852 c 167.629 341.113 167.895 340.047 167.895 338.641 c h
167.895 338.641 m f
91.852 453.754 m 90.152 453.754 88.789 453.191 87.758 452.07 c 86.727 450.945
 86.211 449.457 86.211 447.598 c 86.211 445.738 86.727 444.25 87.754 443.133
 c 88.781 442.012 90.145 441.453 91.852 441.453 c 93.555 441.453 94.922 
442.012 95.949 443.133 c 96.977 444.25 97.492 445.738 97.492 447.598 c 97.492
 449.457 96.977 450.945 95.949 452.07 c 94.922 453.191 93.555 453.754 91.852
 453.754 c h
91.852 452.668 m 92.934 452.668 93.75 452.238 94.305 451.383 c 94.855 450.527
 95.129 449.266 95.129 447.598 c 95.129 445.93 94.855 444.668 94.305 443.816
 c 93.75 442.965 92.934 442.539 91.852 442.539 c 90.766 442.539 89.949 442.965
 89.398 443.816 c 88.844 444.668 88.57 445.93 88.57 447.598 c 88.57 449.266
 88.848 450.527 89.402 451.383 c 89.957 452.238 90.773 452.668 91.852 452.668
 c h
91.852 452.668 m f
101.211 442.945 m 99.27 442.945 l 99.27 441.773 l 103.227 441.773 l 103.227
 443.594 l 103.621 442.863 104.125 442.32 104.738 441.977 c 105.348 441.629
 106.102 441.453 107.004 441.453 c 108.438 441.453 109.605 442.02 110.512
 443.156 c 111.422 444.289 111.875 445.77 111.875 447.598 c 111.875 449.426
 111.422 450.91 110.512 452.047 c 109.605 453.188 108.438 453.754 107.004
 453.754 c 106.102 453.754 105.348 453.582 104.738 453.234 c 104.125 452.887
 103.621 452.348 103.227 451.613 c 103.227 456.938 l 105.137 456.938 l 105.137
 458.109 l 99.266 458.109 l 99.266 456.938 l 101.207 456.938 l 101.207 442.945
 l h
103.227 447.027 m 103.227 448.18 l 103.227 449.582 103.496 450.652 104.035
 451.387 c 104.574 452.125 105.352 452.492 106.379 452.492 c 107.41 452.492
 108.188 452.078 108.719 451.25 c 109.25 450.426 109.516 449.207 109.516
 447.598 c 109.516 445.98 109.25 444.766 108.719 443.945 c 108.188 443.125
 107.41 442.715 106.379 442.715 c 105.352 442.715 104.574 443.086 104.035
 443.824 c 103.496 444.562 103.227 445.629 103.227 447.027 c h
103.227 447.027 m f
125.184 447.816 m 116.484 447.816 l 116.484 447.906 l 116.484 449.477 116.777
 450.664 117.371 451.465 c 117.965 452.266 118.84 452.668 119.992 452.668
 c 120.879 452.668 121.605 452.434 122.172 451.969 c 122.738 451.504 123.137
 450.816 123.363 449.902 c 124.984 449.902 l 124.664 451.18 124.07 452.145
 123.203 452.785 c 122.336 453.43 121.195 453.754 119.785 453.754 c 118.082
 453.754 116.711 453.191 115.676 452.07 c 114.641 450.945 114.125 449.457
 114.125 447.598 c 114.125 445.754 114.633 444.27 115.648 443.145 c 116.664
 442.016 118 441.453 119.652 441.453 c 121.418 441.453 122.77 441.996 123.715
 443.082 c 124.656 444.168 125.145 445.746 125.184 447.816 c h
122.801 446.652 m 122.758 445.293 122.473 444.27 121.941 443.578 c 121.41
 442.883 120.648 442.539 119.652 442.539 c 118.723 442.539 117.992 442.887
 117.461 443.582 c 116.926 444.277 116.598 445.301 116.484 446.652 c h
122.801 446.652 m f
127.223 453.434 m 127.223 452.273 l 129.047 452.273 l 129.047 442.945 l
 127.113 442.945 l 127.113 441.773 l 131.062 441.773 l 131.062 443.844 l
 131.438 443.055 131.922 442.461 132.516 442.059 c 133.113 441.656 133.809
 441.453 134.598 441.453 c 135.883 441.453 136.832 441.824 137.438 442.562
 c 138.047 443.301 138.348 444.453 138.348 446.016 c 138.348 452.273 l 140.148
 452.273 l 140.148 453.434 l 134.574 453.434 l 134.574 452.273 l 136.32 
452.273 l 136.32 446.652 l 136.32 445.227 136.145 444.25 135.793 443.719
 c 135.441 443.188 134.824 442.922 133.938 442.922 c 133 442.922 132.289
 443.266 131.797 443.949 c 131.309 444.633 131.062 445.629 131.062 446.938
 c 131.062 452.27 l 132.82 452.27 l 132.82 453.434 l h
127.223 453.434 m f
128.172 78.734 m 127.105 78.734 l 127.098 78.188 126.945 77.77 126.641 
77.484 c 126.336 77.199 125.895 77.055 125.316 77.055 c 124.566 77.055 124.035
 77.262 123.727 77.676 c 123.418 78.09 123.266 78.828 123.266 79.887 c 123.266
 81.391 l 126.523 81.391 l 126.523 82.562 l 123.266 82.562 l 123.266 91.891
 l 125.855 91.891 l 125.855 93.055 l 119.316 93.055 l 119.316 91.891 l 121.246
 91.891 l 121.246 82.562 l 119.316 82.562 l 119.316 81.391 l 121.246 81.391
 l 121.246 79.93 l 121.246 78.629 121.586 77.645 122.262 76.977 c 122.941
 76.312 123.934 75.98 125.242 75.98 c 125.73 75.98 126.223 76.023 126.711
 76.113 c 127.203 76.199 127.688 76.336 128.172 76.52 c h
128.172 78.734 m f
137.562 81.367 m 137.562 84.285 l 136.398 84.285 l 136.363 83.711 136.203
 83.277 135.918 82.992 c 135.633 82.707 135.215 82.562 134.668 82.562 c 
133.672 82.562 132.91 82.906 132.379 83.594 c 131.848 84.281 131.582 85.27
 131.582 86.559 c 131.582 91.891 l 133.922 91.891 l 133.922 93.055 l 127.742
 93.055 l 127.742 91.891 l 129.566 91.891 l 129.566 82.543 l 127.633 82.543
 l 127.633 81.391 l 131.582 81.391 l 131.582 83.465 l 131.98 82.652 132.488
 82.051 133.109 81.66 c 133.73 81.27 134.488 81.07 135.379 81.07 c 135.711
 81.07 136.055 81.098 136.418 81.148 c 136.777 81.199 137.16 81.273 137.562
 81.367 c h
137.562 81.367 m f
144.324 93.371 m 142.625 93.371 141.262 92.809 140.23 91.688 c 139.199 
90.562 138.684 89.074 138.684 87.215 c 138.684 85.359 139.195 83.871 140.223
 82.75 c 141.254 81.633 142.617 81.07 144.324 81.07 c 146.027 81.07 147.395
 81.633 148.422 82.75 c 149.449 83.871 149.961 85.359 149.961 87.215 c 149.961
 89.074 149.449 90.562 148.422 91.688 c 147.395 92.809 146.027 93.371 144.324
 93.371 c h
144.324 92.285 m 145.406 92.285 146.223 91.855 146.773 91 c 147.328 90.145
 147.602 88.883 147.602 87.215 c 147.602 85.547 147.328 84.289 146.773 83.438
 c 146.223 82.586 145.406 82.156 144.324 82.156 c 143.238 82.156 142.422
 82.586 141.871 83.438 c 141.316 84.289 141.043 85.547 141.043 87.215 c 
141.043 88.883 141.32 90.145 141.875 91 c 142.43 91.855 143.246 92.285 144.324
 92.285 c h
144.324 92.285 m f
152.016 93.055 m 152.016 91.891 l 153.836 91.891 l 153.836 82.562 l 151.902
 82.562 l 151.902 81.391 l 155.855 81.391 l 155.855 83.465 l 156.227 82.676
 156.711 82.078 157.309 81.676 c 157.902 81.273 158.598 81.07 159.387 81.07
 c 160.676 81.07 161.621 81.441 162.227 82.18 c 162.836 82.918 163.137 84.07
 163.137 85.637 c 163.137 91.891 l 164.938 91.891 l 164.938 93.055 l 159.363
 93.055 l 159.363 91.891 l 161.109 91.891 l 161.109 86.273 l 161.109 84.848
 160.934 83.867 160.582 83.336 c 160.23 82.809 159.613 82.543 158.727 82.543
 c 157.789 82.543 157.078 82.883 156.59 83.566 c 156.098 84.254 155.852 
85.25 155.852 86.559 c 155.852 91.891 l 157.609 91.891 l 157.609 93.055 
l h
152.016 93.055 m f
167.988 82.562 m 166.211 82.562 l 166.211 81.391 l 167.988 81.391 l 167.988
 77.77 l 170.02 77.77 l 170.02 81.391 l 173.816 81.391 l 173.816 82.562 
l 170.02 82.562 l 170.02 89.969 l 170.02 90.957 170.113 91.59 170.305 91.867
 c 170.492 92.148 170.844 92.285 171.355 92.285 c 171.883 92.285 172.266
 92.129 172.508 91.82 c 172.75 91.508 172.879 91.004 172.895 90.309 c 174.418
 90.309 l 174.359 91.371 174.07 92.148 173.551 92.637 c 173.031 93.125 172.242
 93.371 171.18 93.371 c 170.016 93.371 169.195 93.113 168.711 92.598 c 168.23
 92.082 167.988 91.207 167.988 89.969 c h
167.988 82.562 m f
334.965 89.555 m 334.68 90.797 334.129 91.742 333.316 92.395 c 332.508 
93.047 331.457 93.371 330.168 93.371 c 328.473 93.371 327.109 92.809 326.078
 91.688 c 325.047 90.562 324.531 89.074 324.531 87.215 c 324.531 85.352 
325.047 83.859 326.078 82.746 c 327.109 81.629 328.473 81.07 330.168 81.07
 c 330.91 81.07 331.645 81.16 332.375 81.328 c 333.105 81.5 333.84 81.762
 334.578 82.113 c 334.578 85.098 l 333.406 85.098 l 333.254 84.074 332.918
 83.328 332.402 82.859 c 331.887 82.395 331.148 82.16 330.191 82.16 c 329.102
 82.16 328.277 82.582 327.723 83.426 c 327.164 84.27 326.887 85.535 326.887
 87.215 c 326.887 88.898 327.164 90.164 327.715 91.012 c 328.27 91.863 329.094
 92.285 330.191 92.285 c 331.059 92.285 331.754 92.059 332.273 91.605 c 
332.793 91.152 333.148 90.469 333.34 89.555 c h
334.965 89.555 m f
348.172 87.438 m 339.473 87.438 l 339.473 87.523 l 339.473 89.098 339.77
 90.281 340.359 91.082 c 340.953 91.883 341.828 92.285 342.984 92.285 c 
343.867 92.285 344.594 92.055 345.16 91.59 c 345.727 91.125 346.125 90.434
 346.352 89.52 c 347.977 89.52 l 347.652 90.801 347.059 91.762 346.191 92.406
 c 345.328 93.051 344.188 93.371 342.773 93.371 c 341.07 93.371 339.699 
92.809 338.664 91.688 c 337.629 90.566 337.113 89.074 337.113 87.215 c 337.113
 85.375 337.621 83.887 338.637 82.762 c 339.652 81.637 340.988 81.074 342.645
 81.074 c 344.406 81.074 345.758 81.617 346.703 82.703 c 347.645 83.789 
348.137 85.367 348.172 87.438 c h
345.793 86.273 m 345.75 84.91 345.461 83.887 344.934 83.195 c 344.402 82.504
 343.637 82.156 342.645 82.156 c 341.715 82.156 340.984 82.504 340.449 83.199
 c 339.914 83.895 339.59 84.918 339.473 86.273 c h
345.793 86.273 m f
350.215 93.055 m 350.215 91.891 l 352.035 91.891 l 352.035 82.562 l 350.105
 82.562 l 350.105 81.391 l 354.055 81.391 l 354.055 83.465 l 354.43 82.676
 354.914 82.078 355.508 81.676 c 356.105 81.273 356.801 81.07 357.59 81.07
 c 358.875 81.07 359.82 81.441 360.43 82.18 c 361.039 82.918 361.34 84.07
 361.34 85.637 c 361.34 91.891 l 363.141 91.891 l 363.141 93.055 l 357.566
 93.055 l 357.566 91.891 l 359.309 91.891 l 359.309 86.273 l 359.309 84.848
 359.133 83.867 358.785 83.336 c 358.434 82.809 357.816 82.543 356.93 82.543
 c 355.992 82.543 355.281 82.883 354.789 83.566 c 354.297 84.254 354.055
 85.25 354.055 86.559 c 354.055 91.891 l 355.809 91.891 l 355.809 93.055
 l h
350.215 93.055 m f
366.191 82.562 m 364.414 82.562 l 364.414 81.391 l 366.191 81.391 l 366.191
 77.77 l 368.219 77.77 l 368.219 81.391 l 372.016 81.391 l 372.016 82.562
 l 368.219 82.562 l 368.219 89.969 l 368.219 90.957 368.316 91.59 368.504
 91.867 c 368.695 92.148 369.047 92.285 369.559 92.285 c 370.086 92.285 
370.469 92.129 370.711 91.82 c 370.949 91.508 371.078 91.004 371.094 90.309
 c 372.617 90.309 l 372.559 91.371 372.273 92.148 371.754 92.637 c 371.234
 93.125 370.441 93.371 369.383 93.371 c 368.219 93.371 367.398 93.113 366.914
 92.598 c 366.43 92.082 366.191 91.207 366.191 89.969 c h
366.191 82.562 m f
383.535 81.367 m 383.535 84.285 l 382.375 84.285 l 382.336 83.711 382.176
 83.277 381.891 82.992 c 381.605 82.707 381.188 82.562 380.641 82.562 c 
379.645 82.562 378.883 82.906 378.352 83.594 c 377.82 84.281 377.555 85.27
 377.555 86.559 c 377.555 91.891 l 379.891 91.891 l 379.891 93.055 l 373.715
 93.055 l 373.715 91.891 l 375.535 91.891 l 375.535 82.543 l 373.605 82.543
 l 373.605 81.391 l 377.555 81.391 l 377.555 83.465 l 377.953 82.652 378.461
 82.051 379.082 81.66 c 379.703 81.27 380.461 81.07 381.352 81.07 c 381.68
 81.07 382.027 81.098 382.391 81.148 c 382.754 81.199 383.133 81.273 383.535
 81.367 c h
383.535 81.367 m f
394.496 85.77 m 394.496 91.891 l 396.297 91.891 l 396.297 93.055 l 392.48
 93.055 l 392.48 91.793 l 392.031 92.332 391.516 92.73 390.934 92.988 c 
390.348 93.242 389.664 93.371 388.879 93.371 c 387.586 93.371 386.559 93.027
 385.797 92.34 c 385.035 91.652 384.656 90.723 384.656 89.555 c 384.656 
88.348 385.094 87.41 385.961 86.746 c 386.832 86.078 388.062 85.746 389.648
 85.746 c 392.48 85.746 l 392.48 84.945 l 392.48 84.059 392.211 83.375 391.672
 82.887 c 391.137 82.402 390.379 82.156 389.406 82.156 c 388.602 82.156 
387.961 82.34 387.488 82.707 c 387.012 83.07 386.715 83.613 386.598 84.328
 c 385.555 84.328 l 385.555 81.969 l 386.258 81.672 386.938 81.445 387.602
 81.297 c 388.266 81.145 388.91 81.07 389.539 81.07 c 391.152 81.07 392.387
 81.473 393.23 82.273 c 394.074 83.074 394.496 84.238 394.496 85.77 c h
392.48 89.391 m 392.48 86.918 l 389.879 86.918 l 388.875 86.918 388.129
 87.137 387.641 87.566 c 387.148 88 386.906 88.66 386.906 89.555 c 386.906
 90.367 387.152 91.008 387.652 91.484 c 388.148 91.961 388.82 92.199 389.672
 92.199 c 390.512 92.199 391.191 91.938 391.707 91.418 c 392.223 90.898 
392.48 90.223 392.48 89.391 c h
392.48 89.391 m f
401.543 91.891 m 403.449 91.891 l 403.449 93.055 l 397.582 93.055 l 397.582
 91.891 l 399.523 91.891 l 399.523 77.145 l 397.582 77.145 l 397.582 75.98
 l 401.543 75.98 l h
401.543 91.891 m f
557.75 91.891 m 557.75 77.145 l 555.809 77.145 l 555.809 75.98 l 559.77
 75.98 l 559.77 83.211 l 560.164 82.48 560.668 81.941 561.277 81.594 c 561.891
 81.246 562.645 81.07 563.543 81.07 c 564.977 81.07 566.148 81.637 567.055
 82.773 c 567.965 83.906 568.414 85.387 568.414 87.215 c 568.414 89.043 
567.965 90.527 567.055 91.664 c 566.148 92.805 564.977 93.371 563.543 93.371
 c 562.645 93.371 561.891 93.195 561.277 92.852 c 560.668 92.504 560.164
 91.961 559.77 91.23 c 559.77 93.051 l 555.809 93.051 l 555.809 91.891 l
 h
559.77 87.797 m 559.77 89.203 560.039 90.273 560.578 91.008 c 561.113 91.742
 561.895 92.109 562.918 92.109 c 563.949 92.109 564.73 91.695 565.262 90.871
 c 565.793 90.043 566.059 88.824 566.059 87.215 c 566.059 85.598 565.793
 84.383 565.262 83.562 c 564.73 82.742 563.949 82.332 562.918 82.332 c 561.895
 82.332 561.113 82.703 560.578 83.441 c 560.039 84.18 559.77 85.246 559.77
 86.645 c h
559.77 87.797 m f
580.508 85.77 m 580.508 91.891 l 582.305 91.891 l 582.305 93.055 l 578.488
 93.055 l 578.488 91.793 l 578.043 92.332 577.527 92.73 576.941 92.988 c
 576.355 93.242 575.672 93.371 574.891 93.371 c 573.594 93.371 572.566 93.027
 571.809 92.34 c 571.047 91.652 570.664 90.723 570.664 89.555 c 570.664 
88.348 571.102 87.41 571.973 86.746 c 572.84 86.078 574.07 85.746 575.656
 85.746 c 578.488 85.746 l 578.488 84.945 l 578.488 84.059 578.219 83.375
 577.684 82.887 c 577.145 82.402 576.391 82.156 575.418 82.156 c 574.613
 82.156 573.973 82.34 573.496 82.707 c 573.02 83.07 572.723 83.613 572.605
 84.328 c 571.562 84.328 l 571.562 81.969 l 572.266 81.672 572.949 81.445
 573.609 81.297 c 574.273 81.145 574.918 81.07 575.547 81.07 c 577.164 81.07
 578.395 81.473 579.238 82.273 c 580.086 83.074 580.508 84.238 580.508 85.77
 c h
578.488 89.391 m 578.488 86.918 l 575.887 86.918 l 574.887 86.918 574.141
 87.137 573.648 87.566 c 573.16 88 572.914 88.66 572.914 89.555 c 572.914
 90.367 573.164 91.008 573.66 91.484 c 574.16 91.961 574.832 92.199 575.68
 92.199 c 576.52 92.199 577.199 91.938 577.715 91.418 c 578.23 90.898 578.488
 90.223 578.488 89.391 c h
578.488 89.391 m f
594.496 89.555 m 594.211 90.797 593.664 91.742 592.852 92.395 c 592.039
 93.047 590.992 93.371 589.703 93.371 c 588.004 93.371 586.641 92.809 585.609
 91.688 c 584.578 90.562 584.062 89.074 584.062 87.215 c 584.062 85.352 
584.578 83.859 585.609 82.746 c 586.641 81.629 588.004 81.07 589.703 81.07
 c 590.441 81.07 591.176 81.16 591.906 81.328 c 592.641 81.5 593.375 81.762
 594.113 82.113 c 594.113 85.098 l 592.938 85.098 l 592.785 84.074 592.453
 83.328 591.934 82.859 c 591.418 82.395 590.684 82.16 589.723 82.16 c 588.633
 82.16 587.812 82.582 587.254 83.426 c 586.699 84.27 586.422 85.535 586.422
 87.215 c 586.422 88.898 586.699 90.164 587.25 91.012 c 587.801 91.863 588.629
 92.285 589.723 92.285 c 590.594 92.285 591.289 92.059 591.809 91.605 c 
592.328 91.152 592.684 90.469 592.871 89.555 c h
594.496 89.555 m f
601.957 93.055 m 596.297 93.055 l 596.297 91.891 l 598.117 91.891 l 598.117
 77.145 l 596.176 77.145 l 596.176 75.98 l 600.137 75.98 l 600.137 87.094
 l 605.051 82.562 l 603.375 82.562 l 603.375 81.391 l 608.652 81.391 l 608.652
 82.562 l 606.652 82.562 l 603.188 85.766 l 607.621 91.891 l 609.297 91.891
 l 609.297 93.051 l 603.551 93.051 l 603.551 91.891 l 605.219 91.891 l 601.727
 87.094 l 600.137 88.574 l 600.137 91.891 l 601.961 91.891 l 601.961 93.055
 l h
601.957 93.055 m f
167.723 129.609 m 168.746 127.02 l 162.938 112.773 l 161.168 112.773 l 
161.168 111.207 l 168.32 111.207 l 168.32 112.773 l 165.836 112.773 l 170.207
 123.465 l 174.582 112.773 l 172.258 112.773 l 172.258 111.207 l 178.094
 111.207 l 178.094 112.773 l 176.352 112.773 l 169.227 130.27 l 168.742 
131.477 168.199 132.305 167.605 132.75 c 167.008 133.191 166.172 133.414
 165.086 133.414 c 164.629 133.414 164.16 133.375 163.676 133.297 c 163.191
 133.219 162.707 133.105 162.223 132.961 c 162.223 129.988 l 163.598 129.988
 l 163.656 130.652 163.824 131.129 164.102 131.418 c 164.379 131.703 164.809
 131.848 165.395 131.848 c 165.93 131.848 166.363 131.699 166.691 131.402
 c 167.016 131.105 167.359 130.508 167.723 129.609 c h
167.723 129.609 m f
225.195 228.75 m 225.195 232.543 222.121 235.613 218.332 235.613 c 214.539
 235.613 211.465 232.543 211.465 228.75 c 211.465 224.957 214.539 221.883
 218.332 221.883 c 222.121 221.883 225.195 224.957 225.195 228.75 c h
225.195 228.75 m f
255.156 161.449 m 255.156 165.242 252.082 168.312 248.289 168.312 c 244.496
 168.312 241.426 165.242 241.426 161.449 c 241.426 157.66 244.496 154.582
 248.289 154.582 c 252.082 154.582 255.156 157.656 255.156 161.449 c h
255.156 161.449 m f
495.906 161.449 m 495.906 165.242 492.828 168.312 489.039 168.312 c 485.246
 168.312 482.172 165.242 482.172 161.449 c 482.172 157.66 485.246 154.582
 489.039 154.582 c 492.828 154.582 495.906 157.656 495.906 161.449 c h
495.906 161.449 m f
201.699 229.125 m 190.098 229.125 l 190.098 229.242 l 190.098 231.34 190.492
 232.922 191.285 233.988 c 192.074 235.059 193.238 235.59 194.781 235.59
 c 195.961 235.59 196.93 235.281 197.684 234.664 c 198.441 234.043 198.969
 233.125 199.273 231.906 c 201.438 231.906 l 201.008 233.613 200.215 234.895
 199.059 235.754 c 197.902 236.609 196.387 237.039 194.504 237.039 c 192.23
 237.039 190.402 236.289 189.023 234.793 c 187.645 233.297 186.953 231.309
 186.953 228.832 c 186.953 226.375 187.633 224.395 188.988 222.891 c 190.344
 221.391 192.121 220.641 194.328 220.641 c 196.68 220.641 198.48 221.363
 199.738 222.812 c 200.996 224.262 201.652 226.363 201.699 229.125 c h
198.523 227.574 m 198.465 225.762 198.086 224.391 197.375 223.473 c 196.668
 222.551 195.652 222.09 194.328 222.09 c 193.09 222.09 192.113 222.551 191.402
 223.477 c 190.688 224.406 190.254 225.77 190.098 227.574 c h
198.523 227.574 m f
230.508 167.656 m 233.055 167.656 l 233.055 169.207 l 225.242 169.207 l
 225.242 167.656 l 227.816 167.656 l 227.816 155.223 l 225.242 155.223 l
 225.242 153.656 l 233.055 153.656 l 233.055 155.164 l 230.508 155.164 l
 h
230.508 167.656 m f
266.523 169.207 m 266.523 167.656 l 269.113 167.656 l 269.113 163.191 l
 264.199 155.277 l 261.668 155.277 l 261.668 153.656 l 269.73 153.656 l 
269.73 155.277 l 267.008 155.277 l 270.84 161.484 l 274.672 155.277 l 272.07
 155.277 l 272.07 153.656 l 279.004 153.656 l 279.004 155.277 l 276.59 155.277
 l 271.805 162.988 l 271.805 167.656 l 274.352 167.656 l 274.352 169.207
 l h
266.523 169.207 m f
518.426 155.223 m 514.285 155.223 l 515.777 155.844 516.84 156.758 517.473
 157.965 c 518.109 159.168 518.426 160.535 518.426 162.066 c 518.426 163.121
 518.215 164.129 517.797 165.098 c 517.379 166.062 516.777 166.902 515.996
 167.613 c 515.297 168.266 514.484 168.766 513.562 169.113 c 512.641 169.457
 511.664 169.629 510.629 169.629 c 509.586 169.629 508.609 169.461 507.703
 169.117 c 506.797 168.777 505.988 168.273 505.273 167.613 c 504.477 166.879
 503.867 166.039 503.453 165.094 c 503.039 164.148 502.832 163.141 502.832
 162.066 c 502.832 160.535 503.148 159.168 503.785 157.961 c 504.418 156.758
 505.484 155.844 506.988 155.219 c 502.848 155.219 l 502.848 153.656 l 509.355
 153.656 l 509.355 155.219 l 508.195 155.668 507.316 156.512 506.723 157.742
 c 506.129 158.977 505.832 160.34 505.832 161.832 c 505.832 163.637 506.27
 165.086 507.148 166.176 c 508.035 167.27 509.195 167.816 510.629 167.816
 c 512.062 167.816 513.219 167.27 514.098 166.176 c 514.984 165.086 515.43
 163.637 515.43 161.832 c 515.43 160.332 515.129 158.965 514.535 157.738
 c 513.941 156.508 513.066 155.668 511.918 155.223 c 511.918 153.656 l 518.426
 153.656 l h
518.426 155.223 m f
296.977 336.73 m 296.977 340.523 293.902 343.598 290.109 343.598 c 286.316
 343.598 283.246 340.523 283.246 336.73 c 283.246 332.941 286.316 329.863
 290.109 329.863 c 293.902 329.863 296.977 332.941 296.977 336.73 c h
296.977 336.73 m f
334.117 391.035 m 334.117 394.828 331.039 397.902 327.25 397.902 c 323.457
 397.902 320.383 394.828 320.383 391.035 c 320.383 387.246 323.457 384.168
 327.25 384.168 c 331.039 384.168 334.117 387.246 334.117 391.035 c h
334.117 391.035 m f
461.703 391.035 m 461.703 394.828 458.625 397.902 454.836 397.902 c 451.043
 397.902 447.969 394.828 447.969 391.035 c 447.969 387.246 451.043 384.168
 454.836 384.168 c 458.625 384.168 461.703 387.246 461.703 391.035 c h
461.703 391.035 m f
424.312 281.492 m 424.312 285.285 421.238 288.359 417.445 288.359 c 413.652
 288.359 410.578 285.285 410.578 281.492 c 410.578 277.703 413.652 274.625
 417.445 274.625 c 421.238 274.625 424.312 277.703 424.312 281.492 c h
424.312 281.492 m f
261.441 332.746 m 261.441 331.488 261.922 330.527 262.879 329.863 c 263.832
 329.211 265.266 328.883 267.18 328.883 c 267.703 328.883 268.473 328.961
 269.488 329.117 c 270.504 329.285 271.559 329.52 272.648 329.82 c 272.648
 333.055 l 271.684 333.055 l 271.555 332.188 271.109 331.531 270.348 331.094
 c 269.582 330.656 268.703 330.438 267.707 330.438 c 265.238 330.438 264.004
 331.25 264.004 332.879 c 264.004 334.742 265.254 335.672 267.762 335.672
 c 269.125 335.672 l 269.125 337.211 l 267.777 337.211 l 266.238 337.211
 265.09 337.512 264.34 338.117 c 263.617 338.703 263.258 339.559 263.258
 340.691 c 263.258 341.461 263.516 342.09 264.031 342.578 c 264.883 343.379
 266 343.777 267.383 343.777 c 268.516 343.777 269.488 343.52 270.309 343.004
 c 271.129 342.488 271.586 341.73 271.684 340.738 c 273.262 340.738 l 273.262
 344.117 l 272.23 344.469 271.188 344.73 270.133 344.906 c 269.117 345.082
 268.223 345.172 267.441 345.172 c 265.258 345.172 263.562 344.785 262.363
 344.016 c 261.176 343.246 260.586 342.125 260.594 340.664 c 260.594 339.348
 261.105 338.309 262.129 337.547 c 262.824 337.023 263.754 336.633 264.926
 336.379 c 264.125 336.191 263.461 335.93 262.934 335.586 c 261.941 334.934
 261.441 333.984 261.441 332.746 c h
261.441 332.746 m f
371.254 445.34 m 371.254 449.133 368.18 452.207 364.391 452.207 c 360.598
 452.207 357.523 449.133 357.523 445.34 c 357.523 441.551 360.598 438.477
 364.391 438.477 c 368.18 438.473 371.254 441.551 371.254 445.34 c h
371.254 445.34 m f
321.762 443.492 m 321.762 451.656 l 324.16 451.656 l 324.16 453.207 l 319.07
 453.207 l 319.07 451.523 l 318.477 452.246 317.789 452.777 317.008 453.117
 c 316.227 453.461 315.316 453.629 314.273 453.629 c 312.547 453.629 311.176
 453.172 310.164 452.254 c 309.148 451.34 308.641 450.102 308.641 448.539
 c 308.641 446.93 309.223 445.68 310.383 444.793 c 311.543 443.906 313.18
 443.465 315.297 443.465 c 319.07 443.465 l 319.07 442.395 l 319.07 441.215
 318.715 440.301 317.996 439.652 c 317.277 439.004 316.273 438.68 314.977
 438.68 c 313.902 438.68 313.051 438.922 312.414 439.41 c 311.781 439.898
 311.387 440.621 311.23 441.578 c 309.84 441.578 l 309.84 438.43 l 310.777
 438.031 311.688 437.73 312.57 437.531 c 313.453 437.332 314.312 437.234
 315.148 437.234 c 317.305 437.234 318.945 437.766 320.074 438.836 c 321.199
 439.902 321.762 441.453 321.762 443.492 c h
319.07 448.32 m 319.07 445.027 l 315.605 445.027 l 314.266 445.027 313.273
 445.316 312.621 445.891 c 311.965 446.465 311.641 447.348 311.641 448.539
 c 311.641 449.621 311.973 450.477 312.633 451.113 c 313.297 451.746 314.195
 452.062 315.324 452.062 c 316.445 452.062 317.352 451.719 318.039 451.023
 c 318.727 450.332 319.07 449.43 319.07 448.32 c h
319.07 448.32 m f
588.473 445.34 m 588.473 449.133 585.395 452.207 581.605 452.207 c 577.812
 452.207 574.738 449.133 574.738 445.34 c 574.738 441.551 577.812 438.477
 581.605 438.477 c 585.398 438.473 588.473 441.551 588.473 445.34 c h
588.473 445.34 m f
588.473 335.484 m 588.473 339.277 585.395 342.352 581.605 342.352 c 577.812
 342.352 574.738 339.277 574.738 335.484 c 574.738 331.695 577.812 328.617
 581.605 328.617 c 585.398 328.617 588.473 331.695 588.473 335.484 c h
588.473 335.484 m f
598.055 332.465 m 598.434 330.809 599.164 329.543 600.25 328.676 c 601.332
 327.809 602.73 327.375 604.449 327.375 c 606.711 327.375 608.531 328.121
 609.906 329.613 c 611.281 331.113 611.969 333.105 611.969 335.582 c 611.969
 338.066 611.281 340.059 609.906 341.551 c 608.531 343.031 606.711 343.773
 604.449 343.773 c 603.465 343.773 602.484 343.656 601.508 343.422 c 600.531
 343.199 599.551 342.852 598.566 342.383 c 598.566 338.406 l 600.133 338.406
 l 600.336 339.77 600.785 340.766 601.477 341.391 c 602.16 342.012 603.141
 342.324 604.418 342.324 c 605.871 342.324 606.969 341.766 607.711 340.641
 c 608.453 339.512 608.82 337.824 608.82 335.582 c 608.82 333.336 608.453
 331.652 607.711 330.52 c 606.98 329.387 605.883 328.82 604.418 328.82 c
 603.258 328.82 602.332 329.125 601.641 329.727 c 600.945 330.332 600.473
 331.246 600.219 332.465 c h
598.055 332.465 m f
588.473 226.879 m 588.473 230.668 585.395 233.742 581.605 233.742 c 577.812
 233.742 574.738 230.668 574.738 226.879 c 574.738 223.086 577.812 220.012
 581.605 220.012 c 585.398 220.012 588.473 223.086 588.473 226.879 c h
588.473 226.879 m f
605.574 235.168 m 603.312 235.168 601.492 234.418 600.117 232.922 c 598.742
 231.422 598.055 229.438 598.055 226.961 c 598.055 224.48 598.738 222.496
 600.109 221.004 c 601.48 219.512 603.301 218.766 605.574 218.766 c 607.848
 218.766 609.668 219.512 611.039 221.004 c 612.406 222.496 613.094 224.48
 613.094 226.961 c 613.094 229.438 612.406 231.422 611.039 232.922 c 609.668
 234.418 607.848 235.168 605.574 235.168 c h
605.574 233.719 m 607.016 233.719 608.105 233.148 608.844 232.008 c 609.578
 230.867 609.949 229.184 609.949 226.961 c 609.949 224.738 609.578 223.059
 608.844 221.922 c 608.105 220.785 607.016 220.215 605.574 220.215 c 604.129
 220.215 603.039 220.785 602.305 221.922 c 601.566 223.059 601.199 224.738
 601.199 226.961 c 601.199 229.184 601.57 230.867 602.312 232.008 c 603.051
 233.148 604.141 233.719 605.574 233.719 c h
605.574 233.719 m f
405.586 226.879 m 405.586 230.668 402.512 233.742 398.719 233.742 c 394.93
 233.742 391.855 230.668 391.855 226.879 c 391.855 223.086 394.93 220.012
 398.719 220.012 c 402.512 220.012 405.586 223.086 405.586 226.879 c h
405.586 226.879 m f
443.035 336.109 m 443.035 339.902 439.961 342.973 436.172 342.973 c 432.379
 342.973 429.305 339.902 429.305 336.109 c 429.305 332.316 432.379 329.242
 436.172 329.242 c 439.961 329.242 443.035 332.316 443.035 336.109 c h
443.035 336.109 m f
370.633 118.895 m 370.633 122.684 367.555 125.758 363.766 125.758 c 359.973
 125.758 356.898 122.684 356.898 118.895 c 356.898 115.102 359.973 112.027
 363.766 112.027 c 367.559 112.027 370.633 115.102 370.633 118.895 c h
370.633 118.895 m f
589.098 118.895 m 589.098 122.684 586.02 125.758 582.23 125.758 c 578.438
 125.758 575.363 122.684 575.363 118.895 c 575.363 115.102 578.438 112.027
 582.23 112.027 c 586.02 112.027 589.098 115.102 589.098 118.895 c h
589.098 118.895 m f
607.043 111.207 m 612.074 111.207 l 612.074 125.207 l 614.621 125.207 l
 614.621 126.758 l 609.383 126.758 l 609.383 124.008 l 608.887 125.039 608.242
 125.828 607.453 126.371 c 606.664 126.91 605.746 127.184 604.703 127.184
 c 602.977 127.184 601.707 126.691 600.891 125.711 c 600.078 124.73 599.668
 123.195 599.668 121.098 c 599.668 112.773 l 597.242 112.773 l 597.242 111.207
 l 602.375 111.207 l 602.375 120.262 l 602.375 122.156 602.609 123.453 603.07
 124.152 c 603.535 124.855 604.359 125.207 605.551 125.207 c 606.801 125.207
 607.75 124.75 608.406 123.832 c 609.059 122.914 609.383 121.586 609.383
 119.84 c 609.383 112.773 l 607.043 112.773 l h
607.043 111.207 m f
206.098 232.109 m 208.254 236.406 l 203.926 236.406 l h
206.098 227.844 m 203.926 223.531 l 208.254 223.531 l h
206.098 227.844 m f
133.527 120.52 m 135.684 124.816 l 131.355 124.816 l h
133.527 116.254 m 131.355 111.941 l 135.684 111.941 l h
133.527 116.254 m f
182.41 121.078 m 184.566 125.375 l 180.238 125.375 l h
182.41 116.812 m 180.238 112.5 l 184.566 112.5 l h
182.41 116.812 m f
619.172 121.082 m 621.328 125.379 l 617 125.379 l h
619.172 116.816 m 617 112.504 l 621.328 112.504 l h
619.172 116.816 m f
618.434 229.742 m 620.59 234.039 l 616.262 234.039 l h
618.434 225.477 m 616.262 221.164 l 620.59 221.164 l h
618.434 225.477 m f
334.098 457.91 m 333.055 457.43 332.137 456.758 331.348 455.895 c 330.555
 455.027 329.895 454.027 329.363 452.895 c 328.84 451.762 328.445 450.516
 328.176 449.16 c 327.902 447.809 327.77 446.395 327.77 444.926 c 327.77
 443.418 327.918 441.957 328.223 440.551 c 328.523 439.137 328.949 437.832
 329.504 436.645 c 330.055 435.449 330.723 434.402 331.504 433.504 c 332.285
 432.609 333.148 431.91 334.098 431.41 c 334.535 432.035 l 333.941 432.535
 333.371 433.191 332.832 434.004 c 332.301 434.809 331.832 435.746 331.426
 436.816 c 331.027 437.891 330.711 439.078 330.473 440.379 c 330.242 441.684
 330.129 443.066 330.129 444.535 c 330.129 445.891 330.223 447.207 330.41
 448.488 c 330.605 449.762 330.895 450.953 331.27 452.066 c 331.652 453.184
 332.117 454.18 332.66 455.066 c 333.199 455.961 333.824 456.699 334.535
 457.285 c h
334.098 457.91 m f
338.77 449.254 m 340.926 453.551 l 336.598 453.551 l h
338.77 444.988 m 336.598 440.676 l 340.926 440.676 l h
338.77 444.988 m f
349.773 444.363 m 349.773 445.887 349.621 447.355 349.32 448.77 c 349.016
 450.188 348.59 451.488 348.039 452.676 c 347.484 453.863 346.82 454.902
 346.039 455.801 c 345.258 456.707 344.391 457.41 343.445 457.91 c 343.008
 457.285 l 343.602 456.785 344.164 456.129 344.695 455.316 c 345.234 454.504
 345.711 453.566 346.117 452.504 c 346.523 451.434 346.84 450.246 347.07
 448.941 c 347.309 447.641 347.43 446.25 347.43 444.77 c 347.43 443.426 
347.328 442.121 347.133 440.848 c 346.945 439.566 346.664 438.371 346.289
 437.254 c 345.914 436.129 345.449 435.125 344.898 434.238 c 344.355 433.344
 343.727 432.609 343.008 432.035 c 343.445 431.41 l 344.484 431.879 345.398
 432.547 346.18 433.41 c 346.969 434.277 347.633 435.277 348.164 436.41 
c 348.703 437.547 349.105 438.793 349.367 440.145 c 349.637 441.488 349.773
 442.895 349.773 444.363 c h
349.773 444.363 m f
Q Q
showpage
%%Trailer
end
%%EOF
