%!PS-Adobe-3.0 EPSF-3.0
%%Creator: cairo 1.17.3 (https://cairographics.org)
%%CreationDate: Thu Mar 12 12:45:25 2020
%%Pages: 1
%%DocumentData: Clean7Bit
%%LanguageLevel: 2
%%BoundingBox: 0 0 15 15
%%EndComments
%%BeginProlog
50 dict begin
/q { gsave } bind def
/Q { grestore } bind def
/cm { 6 array astore concat } bind def
/w { setlinewidth } bind def
/J { setlinecap } bind def
/j { setlinejoin } bind def
/M { setmiterlimit } bind def
/d { setdash } bind def
/m { moveto } bind def
/l { lineto } bind def
/c { curveto } bind def
/h { closepath } bind def
/re { exch dup neg 3 1 roll 5 3 roll moveto 0 rlineto
      0 exch rlineto 0 rlineto closepath } bind def
/S { stroke } bind def
/f { fill } bind def
/f* { eofill } bind def
/n { newpath } bind def
/W { clip } bind def
/W* { eoclip } bind def
/BT { } bind def
/ET { } bind def
/BDC { mark 3 1 roll /BDC pdfmark } bind def
/EMC { mark /EMC pdfmark } bind def
/cairo_store_point { /cairo_point_y exch def /cairo_point_x exch def } def
/Tj { show currentpoint cairo_store_point } bind def
/TJ {
  {
    dup
    type /stringtype eq
    { show } { -0.001 mul 0 cairo_font_matrix dtransform rmoveto } ifelse
  } forall
  currentpoint cairo_store_point
} bind def
/cairo_selectfont { cairo_font_matrix aload pop pop pop 0 0 6 array astore
    cairo_font exch selectfont cairo_point_x cairo_point_y moveto } bind def
/Tf { pop /cairo_font exch def /cairo_font_matrix where
      { pop cairo_selectfont } if } bind def
/Td { matrix translate cairo_font_matrix matrix concatmatrix dup
      /cairo_font_matrix exch def dup 4 get exch 5 get cairo_store_point
      /cairo_font where { pop cairo_selectfont } if } bind def
/Tm { 2 copy 8 2 roll 6 array astore /cairo_font_matrix exch def
      cairo_store_point /cairo_font where { pop cairo_selectfont } if } bind def
/g { setgray } bind def
/rg { setrgbcolor } bind def
/d1 { setcachedevice } bind def
/cairo_data_source {
  CairoDataIndex CairoData length lt
    { CairoData CairoDataIndex get /CairoDataIndex CairoDataIndex 1 add def }
    { () } ifelse
} def
/cairo_flush_ascii85_file { cairo_ascii85_file status { cairo_ascii85_file flushfile } if } def
/cairo_image { image cairo_flush_ascii85_file } def
/cairo_imagemask { imagemask cairo_flush_ascii85_file } def
%%EndProlog
%%BeginSetup
%%EndSetup
%%Page: 1 1
%%BeginPageSetup
%%PageBoundingBox: 0 0 15 15
%%EndPageSetup
q 0 0 15 15 rectclip
1 0 0 -1 0 15 cm q
0 g
13.5 3.883 m 13.5 5.625 l 13.5 7.074 12.324 8.25 10.875 8.25 c 9.375 8.25
 l 8.754 8.25 8.25 8.754 8.25 9.375 c 8.25 11.117 l 8.867 11.402 9.301 12.023
 9.301 12.75 c 9.301 13.746 8.496 14.551 7.5 14.551 c 6.504 14.551 5.699
 13.746 5.699 12.75 c 5.699 12.023 6.133 11.402 6.75 11.117 c 6.75 9.375
 l 6.75 8.754 6.246 8.25 5.625 8.25 c 4.125 8.25 l 2.676 8.25 1.5 7.074 
1.5 5.625 c 1.5 3.883 l 0.883 3.598 0.449 2.977 0.449 2.25 c 0.449 1.254
 1.254 0.449 2.25 0.449 c 3.246 0.449 4.051 1.258 4.051 2.25 c 4.051 2.977
 3.617 3.598 3 3.883 c 3 5.625 l 3 6.246 3.504 6.75 4.125 6.75 c 5.625 6.75
 l 6.027 6.75 6.406 6.848 6.75 7.012 c 6.75 3.883 l 6.133 3.598 5.699 2.977
 5.699 2.25 c 5.699 1.254 6.504 0.449 7.5 0.449 c 8.496 0.449 9.301 1.258
 9.301 2.25 c 9.301 2.977 8.867 3.598 8.25 3.883 c 8.25 7.012 l 8.594 6.848
 8.973 6.75 9.375 6.75 c 10.875 6.75 l 11.496 6.75 12 6.246 12 5.625 c 12
 3.883 l 11.383 3.598 10.949 2.977 10.949 2.25 c 10.949 1.254 11.754 0.449
 12.75 0.449 c 13.746 0.449 14.551 1.258 14.551 2.25 c 14.551 2.977 14.117
 3.598 13.5 3.883 c h
7.5 13.789 m 8.074 13.789 8.539 13.324 8.539 12.75 c 8.539 12.176 8.074
 11.711 7.5 11.711 c 6.926 11.711 6.461 12.176 6.461 12.75 c 6.461 13.324
 6.926 13.789 7.5 13.789 c h
2.25 1.211 m 1.676 1.211 1.211 1.676 1.211 2.25 c 1.211 2.824 1.676 3.289
 2.25 3.289 c 2.824 3.289 3.289 2.824 3.289 2.25 c 3.289 1.676 2.824 1.211
 2.25 1.211 c h
7.5 1.211 m 6.926 1.211 6.461 1.676 6.461 2.25 c 6.461 2.824 6.926 3.289
 7.5 3.289 c 8.074 3.289 8.539 2.824 8.539 2.25 c 8.539 1.676 8.074 1.211
 7.5 1.211 c h
12.75 1.211 m 12.176 1.211 11.711 1.676 11.711 2.25 c 11.711 2.824 12.176
 3.289 12.75 3.289 c 13.324 3.289 13.789 2.824 13.789 2.25 c 13.789 1.676
 13.324 1.211 12.75 1.211 c h
12.75 1.211 m f
Q Q
showpage
%%Trailer
end
%%EOF
