%!PS-Adobe-3.0 EPSF-3.0
%%Creator: cairo 1.17.3 (https://cairographics.org)
%%CreationDate: Mon Oct 21 16:22:15 2019
%%Pages: 1
%%DocumentData: Clean7Bit
%%LanguageLevel: 2
%%BoundingBox: 2 6 25 21
%%EndComments
%%BeginProlog
50 dict begin
/q { gsave } bind def
/Q { grestore } bind def
/cm { 6 array astore concat } bind def
/w { setlinewidth } bind def
/J { setlinecap } bind def
/j { setlinejoin } bind def
/M { setmiterlimit } bind def
/d { setdash } bind def
/m { moveto } bind def
/l { lineto } bind def
/c { curveto } bind def
/h { closepath } bind def
/re { exch dup neg 3 1 roll 5 3 roll moveto 0 rlineto
      0 exch rlineto 0 rlineto closepath } bind def
/S { stroke } bind def
/f { fill } bind def
/f* { eofill } bind def
/n { newpath } bind def
/W { clip } bind def
/W* { eoclip } bind def
/BT { } bind def
/ET { } bind def
/BDC { mark 3 1 roll /BDC pdfmark } bind def
/EMC { mark /EMC pdfmark } bind def
/cairo_store_point { /cairo_point_y exch def /cairo_point_x exch def } def
/Tj { show currentpoint cairo_store_point } bind def
/TJ {
  {
    dup
    type /stringtype eq
    { show } { -0.001 mul 0 cairo_font_matrix dtransform rmoveto } ifelse
  } forall
  currentpoint cairo_store_point
} bind def
/cairo_selectfont { cairo_font_matrix aload pop pop pop 0 0 6 array astore
    cairo_font exch selectfont cairo_point_x cairo_point_y moveto } bind def
/Tf { pop /cairo_font exch def /cairo_font_matrix where
      { pop cairo_selectfont } if } bind def
/Td { matrix translate cairo_font_matrix matrix concatmatrix dup
      /cairo_font_matrix exch def dup 4 get exch 5 get cairo_store_point
      /cairo_font where { pop cairo_selectfont } if } bind def
/Tm { 2 copy 8 2 roll 6 array astore /cairo_font_matrix exch def
      cairo_store_point /cairo_font where { pop cairo_selectfont } if } bind def
/g { setgray } bind def
/rg { setrgbcolor } bind def
/d1 { setcachedevice } bind def
/cairo_data_source {
  CairoDataIndex CairoData length lt
    { CairoData CairoDataIndex get /CairoDataIndex CairoDataIndex 1 add def }
    { () } ifelse
} def
/cairo_flush_ascii85_file { cairo_ascii85_file status { cairo_ascii85_file flushfile } if } def
/cairo_image { image cairo_flush_ascii85_file } def
/cairo_imagemask { imagemask cairo_flush_ascii85_file } def
%%EndProlog
%%BeginSetup
%%EndSetup
%%Page: 1 1
%%BeginPageSetup
%%PageBoundingBox: 2 6 25 21
%%EndPageSetup
q 2 6 23 15 rectclip
1 0 0 -1 0 27 cm q
0.866667 0.180392 0.266667 rg
23.789 9.609 m 23.812 8.766 23.852 8.113 23.852 8.043 c 23.852 7.973 23.133
 8.859 22.664 9.352 c 22.195 9.844 21.32 10.695 21.32 10.695 c 21.855 10.82
 22.5 10.664 22.5 10.664 c 22.195 11.32 l 22.195 11.32 21.797 11.039 21.094
 11.039 c 20.391 11.039 19.898 11.484 19.758 11.977 c 19.617 12.469 20.273
 13.078 20.766 13.102 c 21.258 13.125 21.797 12.938 21.797 12.938 c 21.094
 14.016 19.617 13.266 18.867 13.219 c 18.117 13.172 17.305 13.215 17.305
 13.215 c 17.961 12.371 18.984 12.516 19.078 12.516 c 19.172 12.516 18.461
 11.438 19.031 10.707 c 19.527 10.078 20.602 9.609 20.602 9.609 c 20.602
 9.609 19.852 9.375 19.898 8.906 c 19.945 8.438 21.578 7.098 21.578 7.098
 c 21.578 7.098 17.672 8.969 17.496 8.297 c 17.285 7.48 17.742 6.754 17.742
 6.754 c 16.289 7.363 13.359 9.516 12.82 10.031 c 12.281 10.547 12.398 11.391
 12.398 11.789 c 12.398 12.188 12.07 12.469 11.766 12.633 c 11.461 12.797
 10.5 12.891 10.5 12.891 c 10.5 12.891 10.332 12.637 10.449 12.379 c 10.566
 12.121 10.992 12.305 10.992 12.305 c 10.945 11.836 10.598 11.688 10.406
 11.672 c 10.293 11.66 10.281 11.203 10.469 11.18 c 10.656 11.156 11.18 
11.461 11.18 11.461 c 11.18 11.461 11.215 10.906 10.898 10.809 c 10.684 
10.742 10.41 10.477 10.527 10.266 c 10.645 10.055 11.309 10.336 11.309 10.336
 c 11.387 9.68 10.625 9.652 10.625 9.465 c 10.625 9.277 11.25 9.375 11.25
 9.375 c 11.18 8.879 10.598 8.77 10.598 8.77 c 10.598 8.77 10.574 8.73 10.48
 8.613 c 10.387 8.496 10.352 8.02 10.562 7.949 c 10.773 7.879 11.191 7.555
 11.191 7.555 c 10.922 7.531 l 10.969 6.82 l 10.852 6.961 10.266 7.219 9.938
 7.242 c 9.609 7.266 9.391 7.555 9.391 7.555 c 9.062 7.625 7.852 7.43 7.406
 7.547 c 6.961 7.664 7.008 7.996 7.008 7.996 c 7.008 7.996 6.469 8.016 5.812
 8.109 c 5.156 8.203 4.684 8.746 4.742 8.785 c 4.832 8.844 5.391 8.727 5.812
 8.703 c 6.141 8.684 6.422 8.895 6.438 9.027 c 6.43 9.141 6.465 9.145 6.492
 9.184 c 6.516 9.227 6.668 9.191 6.668 9.191 c 6.797 9.312 l 6.855 9.137
 l 7.016 9.242 l 6.992 9.035 l 7.184 9.168 l 7.16 8.945 l 7.375 9.098 l 
7.391 8.871 l 8.117 8.859 8.18 9.164 8.18 9.164 c 7.078 9.469 4.617 9.352
 4.617 9.352 c 5.148 9.102 l 4.492 9.125 3.211 8.367 3.211 8.367 c 3.211
 8.367 3.562 9.211 3.867 9.562 c 4.172 9.914 4.828 10.195 4.828 10.195 c
 4.641 9.773 l 4.641 9.773 5.953 9.891 6.328 9.891 c 6.383 9.891 6.453 9.891
 6.531 9.887 c 6.523 10.172 6.785 10.535 6.785 10.535 c 6.633 10.781 6.867
 11.062 6.867 11.062 c 6.867 11.062 6.938 10.957 6.977 10.828 c 7.016 10.699
 7.156 10.355 7.156 10.355 c 7.371 10.652 l 7.457 10.23 7.793 9.992 8.133
 9.902 c 8.195 10.047 8.273 10.219 8.273 10.219 c 7.781 10.398 7.934 10.957
 7.934 10.957 c 7.547 11.18 7.605 11.637 7.605 11.637 c 7.605 11.637 7.418
 11.707 7.289 11.965 c 7.16 12.223 7.289 12.387 7.289 12.387 c 7.289 12.387
 7.055 12.516 6.977 12.773 c 6.898 13.031 6.977 13.348 6.977 13.348 c 6.977
 13.348 6.703 13.371 6.738 13.898 c 6.773 14.426 7.066 14.59 7.066 14.59
 c 6.773 14.625 6.773 14.941 6.773 14.941 c 6.773 14.941 6.727 14.883 6.633
 14.918 c 6.539 14.953 6.484 15.023 6.484 15.023 c 6.484 15.023 6.371 14.891
 6.277 14.832 c 6.184 14.773 5.977 14.859 5.977 14.859 c 5.977 14.859 5.895
 14.625 5.719 14.543 c 5.543 14.461 5.414 14.473 5.414 14.473 c 5.473 14.367
 5.414 14.191 5.285 14.074 c 5.184 13.98 4.98 13.949 4.98 13.949 c 4.98 
13.949 5.008 13.59 4.973 13.309 c 4.938 13.027 4.746 12.809 4.676 12.656
 c 4.605 12.504 4.758 12.375 4.922 12.258 c 5.062 12.152 5.156 12.145 5.203
 11.969 c 5.25 11.793 5.25 11.625 5.25 11.625 c 5.25 11.625 5.227 11.543
 5.262 11.309 c 5.297 11.074 5.027 10.934 5.027 10.934 c 5.027 10.934 5.086
 11.133 5.027 11.285 c 4.969 11.438 4.84 11.531 4.84 11.531 c 4.746 11.484
 4.699 11.637 4.699 11.637 c 4.758 11.391 l 4.828 11.109 4.699 11.121 4.523
 10.711 c 4.348 10.301 3.809 10.441 3.809 10.441 c 4.137 10.523 4.289 10.957
 4.148 11.098 c 4.008 11.238 3.984 11.637 3.984 11.637 c 3.762 11.297 3.621
 11.297 3.621 11.297 c 3.621 11.297 3.48 11.145 3.27 11.027 c 3.059 10.91
 2.906 11.027 2.906 11.027 c 3.211 11.109 3.211 11.449 3.211 11.449 c 3.023
 11.578 3.281 11.836 3.281 11.836 c 3.281 11.836 3.293 12.117 3.375 12.234
 c 3.457 12.352 3.738 12.48 3.738 12.48 c 3.738 12.48 3.645 13.629 3.621
 13.723 c 3.598 13.816 3.492 13.887 3.41 13.949 c 3.328 14.012 3.27 14.25
 3.117 14.379 c 2.965 14.508 3.141 14.602 3.141 14.602 c 3.141 14.602 3.141
 14.812 2.988 14.895 c 2.836 14.977 2.625 15.012 2.625 15.012 c 2.625 15.012
 2.836 15.141 3.059 15.094 c 3.281 15.047 3.422 14.883 3.422 14.883 c 3.586
 14.871 3.68 14.66 3.68 14.52 c 3.68 14.379 3.773 14.297 3.867 14.156 c 
3.961 14.016 3.996 13.852 3.996 13.852 c 3.984 14.32 4.723 15.375 5.004 
15.562 c 5.285 15.75 5.543 16.055 5.859 16.547 c 6.176 17.039 6.293 17.918
 6.293 17.918 c 6.832 17.52 6.773 16.898 6.773 16.898 c 6.773 16.898 7.113
 16.84 7.418 16.805 c 7.723 16.77 8.086 16.805 8.086 16.805 c 7.852 17.133
 8.098 17.215 8.098 17.215 c 8.098 17.215 7.84 17.238 7.746 17.379 c 7.652
 17.52 7.805 17.801 7.805 17.801 c 7.289 17.977 7.438 18.457 7.438 18.457
 c 7.438 18.457 7.113 19.094 6.516 19.164 c 5.918 19.234 5.684 18.891 5.473
 18.855 c 5.262 18.82 5.227 18.891 5.227 18.891 c 5.098 18.809 5.121 18.68
 4.828 18.68 c 4.535 18.68 4.512 19.102 4.512 19.102 c 4.512 19.102 4.664
 18.938 4.805 18.949 c 4.945 18.961 5.016 19.09 5.016 19.09 c 4.922 19.172
 5.027 19.289 5.027 19.289 c 4.91 19.465 l 4.91 19.465 4.762 19.387 4.43
 19.465 c 4.152 19.531 4.125 19.828 4.125 19.828 c 4.125 19.828 4.234 19.77
 4.398 19.734 c 4.562 19.695 4.828 19.758 4.828 19.758 c 5.016 19.875 l 
4.973 20.039 l 4.516 20.039 4.523 20.625 4.523 20.625 c 4.523 20.625 4.637
 20.457 4.766 20.375 c 4.895 20.293 5.133 20.316 5.133 20.316 c 5.391 20.602
 5.879 20.418 6.148 20.207 c 6.418 19.996 6.586 20.062 6.727 20.109 c 6.867
 20.156 7.094 20.121 7.223 20.004 c 7.352 19.887 7.547 19.84 7.711 19.98
 c 7.875 20.121 8.051 20.262 8.367 20.309 c 8.684 20.355 8.695 20.145 8.859
 20.121 c 9.023 20.098 9.234 20.309 9.234 20.309 c 9.316 19.805 8.73 19.793
 8.73 19.793 c 8.742 19.711 8.551 19.621 8.316 19.656 c 8.082 19.691 7.852
 19.531 7.852 19.531 c 7.957 19.016 8.344 18.445 8.648 18.223 c 8.953 18
 9.293 17.555 9.469 17.32 c 9.508 17.266 9.551 17.219 9.594 17.176 c 9.617
 17.34 9.641 17.484 9.645 17.555 c 9.656 17.742 10.031 18.34 10.031 18.34
 c 10.031 18.34 10.125 18.059 10.207 17.883 c 10.289 17.707 10.383 17.414
 10.383 17.414 c 10.582 17.355 10.875 17.098 10.875 17.098 c 10.875 17.098
 11.145 17.18 11.461 17.086 c 11.777 16.992 12.129 16.641 12.129 16.641 
c 12.34 16.746 12.68 16.605 12.68 16.605 c 12.68 16.605 12.551 16.852 12.715
 17.133 c 12.879 17.414 13.312 17.59 13.312 17.59 c 13.312 17.59 13.359 
17.859 13.676 17.953 c 13.992 18.047 14.285 17.988 14.285 17.988 c 14.273
 18.195 14.566 18.254 14.566 18.254 c 14.25 18.328 14.309 18.652 14.309 
18.652 c 13.945 18.609 13.875 18.957 13.875 18.957 c 13.652 18.922 13.395
 18.98 13.242 19.016 c 13.09 19.051 12.516 18.926 12.422 18.867 c 12.328
 18.809 12.051 18.438 11.863 18.379 c 11.676 18.32 11.66 18.465 11.66 18.465
 c 11.66 18.465 11.496 18.371 11.238 18.422 c 10.98 18.465 10.957 18.781
 10.957 18.781 c 10.957 18.781 11.109 18.664 11.25 18.641 c 11.391 18.617
 11.484 18.77 11.484 18.77 c 11.473 18.852 11.531 18.945 11.648 18.98 c 
11.766 19.016 12.035 19.016 12.176 19.133 c 12.316 19.25 12.398 19.402 12.398
 19.402 c 12.398 19.402 12.152 19.391 11.988 19.391 c 11.824 19.391 11.613
 19.238 11.473 19.203 c 11.332 19.168 11.156 19.285 11.156 19.285 c 11.156
 19.285 10.969 19.191 10.734 19.355 c 10.5 19.52 10.523 19.766 10.523 19.766
 c 10.523 19.766 10.652 19.613 10.758 19.566 c 10.863 19.52 10.98 19.578
 10.98 19.578 c 10.98 19.578 10.969 19.707 11.062 19.73 c 11.156 19.754 
11.367 19.93 11.367 19.93 c 10.852 20.047 11.145 20.434 11.145 20.434 c 
11.145 20.434 11.25 20.281 11.391 20.223 c 11.531 20.164 11.648 20.234 11.648
 20.234 c 11.695 20.352 11.867 20.266 12.02 20.16 c 12.172 20.055 12.562
 19.969 12.891 19.941 c 13.164 19.918 13.348 19.977 13.441 19.988 c 13.535
 20 13.746 19.902 13.922 19.914 c 14.098 19.926 14.414 20.242 14.723 20.301
 c 15.027 20.359 14.977 20.188 15.164 20.188 c 15.352 20.188 15.609 20.434
 15.609 20.434 c 15.609 20.434 15.539 20.152 15.434 20.023 c 15.328 19.895
 14.992 19.867 14.992 19.867 c 14.852 19.645 14.648 19.719 14.488 19.734
 c 14.359 19.746 14.234 19.664 14.234 19.664 c 14.234 19.664 14.812 19.531
 15.605 18.996 c 16.395 18.457 16.617 17.848 16.617 17.848 c 16.816 18.012
 17.527 18.195 17.527 18.195 c 17.562 17.691 17.184 17.324 16.762 17.367
 c 16.574 17.383 16.32 17.16 16.039 17.113 c 15.758 17.066 15.645 16.852
 15.609 16.629 c 15.574 16.406 15.703 16.172 15.891 16.055 c 16.078 15.938
 16.23 15.703 16.23 15.703 c 16.383 15.934 16.715 15.941 16.715 15.941 c
 16.867 16.328 17.574 16.324 17.574 16.324 c 17.809 16.699 18.566 16.445
 18.566 16.445 c 18.836 16.773 19.395 16.559 19.395 16.559 c 19.488 16.77
 19.922 16.676 19.922 16.676 c 19.922 16.828 20.215 17.016 20.215 17.016
 c 20.145 17.328 20.344 17.727 20.344 17.727 c 20.191 17.914 20.285 18.246
 20.285 18.246 c 20.285 18.246 20.074 18.328 20.039 18.48 c 20.004 18.637
 20.121 18.809 20.121 18.809 c 20.121 18.809 20.07 18.945 19.719 19.168 
c 19.367 19.391 19.109 19.152 18.863 19.047 c 18.617 18.941 18.305 18.539
 18.152 18.492 c 18 18.445 18 18.586 18 18.586 c 18 18.586 17.891 18.539
 17.719 18.582 c 17.48 18.645 17.379 18.949 17.379 18.949 c 17.379 18.949
 17.516 18.867 17.68 18.844 c 17.844 18.82 17.918 18.914 17.918 18.914 c
 17.918 18.914 17.848 19.066 17.988 19.078 c 18.129 19.09 18.305 19.207 
18.305 19.207 c 18.305 19.207 18.047 19.195 17.859 19.207 c 17.758 19.215
 17.715 19.289 17.691 19.363 c 17.656 19.371 17.633 19.371 17.59 19.383 
c 17.051 19.57 17.156 19.922 17.156 19.922 c 17.414 19.57 17.695 19.711 
17.695 19.711 c 17.699 19.754 17.922 19.828 18.152 19.711 c 18.27 19.648
 18.617 19.668 18.734 19.758 c 18.762 19.777 18.617 19.836 18.457 19.852
 c 18.211 19.883 18.188 20.074 18.188 20.074 c 17.672 20.219 17.695 20.625
 17.695 20.625 c 17.695 20.625 17.906 20.531 18.094 20.445 c 18.281 20.359
 18.512 20.504 18.676 20.34 c 18.84 20.176 19.039 20.059 19.281 20.027 c
 19.547 19.996 19.617 20.168 19.898 20.18 c 20.016 20.184 20.188 20.098 
20.445 20.004 c 20.703 19.91 20.953 20.016 21.164 20.133 c 21.375 20.25 
21.445 20.273 21.68 20.203 c 21.914 20.133 22.195 20.367 22.219 20.438 c
 22.242 20.508 22.172 20.156 21.984 19.996 c 21.797 19.828 21.449 19.699
 21.211 19.641 c 21.074 19.609 20.965 19.129 21.082 19.051 c 21.168 18.992
 21.281 18.094 21.352 17.484 c 21.422 16.875 21.09 16.355 21.09 16.355 c
 21.09 16.355 21.305 16.453 21.469 16.594 c 21.633 16.734 21.984 16.891 
22.148 16.82 c 22.312 16.75 21.902 16.324 21.387 16.02 c 20.871 15.715 19.664
 15.047 19.664 15.047 c 21.984 14.93 22.746 13.742 22.934 13.039 c 23.121
 12.336 22.805 11.859 22.805 11.859 c 23.113 10.902 l 23.324 11.277 24.141
 11.484 24.141 11.484 c 24.141 11.484 23.766 10.453 23.789 9.609 c h
23.789 9.609 m f
1 g
7.535 8.109 m 7.535 8.109 7.719 8.074 7.898 8.109 c 8.074 8.145 8.242 8.199
 8.242 8.199 c 8.242 8.199 8.125 8.508 7.836 8.473 c 7.543 8.434 7.535 8.109
 7.535 8.109 c h
7.535 8.109 m f
0 g
7.898 8.109 m 7.824 8.094 7.754 8.094 7.691 8.094 c 7.691 8.102 7.684 8.102
 7.684 8.109 c 7.684 8.23 7.785 8.328 7.906 8.328 c 8.008 8.328 8.082 8.254
 8.105 8.16 c 8.047 8.141 7.973 8.125 7.898 8.109 c h
7.898 8.109 m f
Q Q
showpage
%%Trailer
end
%%EOF
